Lab4/Practice/adder_tree.vcd
$comment Generated by Amaranth $end
$date 2023-04-24 00:25:23.272763 $end
$timescale 1 ps $end
$scope module bench $end
$scope module top $end
$var wire 8 ! in_data_2_0 $end
$var wire 8 " in_data_4_0 $end
$var wire 8 # in_data_2_0$1 $end
$var wire 8 $ in_data_4_2 $end
$var wire 1 % in_valid_2_0 $end
$var wire 1 & in_valid_4_0 $end
$var wire 1 ' in_valid_2_0$1 $end
$var wire 1 ( in_valid_4_2 $end
$var wire 1 ) in_ovf_2_0 $end
$var wire 1 * in_ovf_4_0 $end
$var wire 1 + in_ovf_2_0$1 $end
$var wire 1 , in_ovf_4_2 $end
$var wire 8 - in_data_2_1 $end
$var wire 8 . in_data_4_1 $end
$var wire 8 / in_data_2_1$1 $end
$var wire 8 0 in_data_4_3 $end
$var wire 1 1 in_valid_2_1 $end
$var wire 1 2 in_valid_4_1 $end
$var wire 1 3 in_valid_2_1$1 $end
$var wire 1 4 in_valid_4_3 $end
$var wire 1 5 in_ovf_2_1 $end
$var wire 1 6 in_ovf_4_1 $end
$var wire 1 7 in_ovf_2_1$1 $end
$var wire 1 8 in_ovf_4_3 $end
$var wire 8 9 out_d $end
$var wire 1 : out_ovf $end
$var wire 8 ; out_d$1 $end
$var wire 8 < out_d$2 $end
$var wire 1 = out_valid $end
$var wire 1 > out_valid$1 $end
$var wire 1 ? out_valid$2 $end
$var wire 1 @ out_ovf$1 $end
$var wire 1 A out_ovf$2 $end
$scope module tree_l $end
$var wire 8 ! in_data_2_0 $end
$var wire 1 % in_valid_2_0 $end
$var wire 1 ) in_ovf_2_0 $end
$var wire 8 - in_data_2_1 $end
$var wire 1 1 in_valid_2_1 $end
$var wire 1 5 in_ovf_2_1 $end
$var wire 8 ; out_d $end
$var wire 1 > out_valid $end
$var wire 1 @ out_ovf $end
$upscope $end
$scope module tree_r $end
$var wire 8 # in_data_2_0 $end
$var wire 1 ' in_valid_2_0 $end
$var wire 1 + in_ovf_2_0 $end
$var wire 8 / in_data_2_1 $end
$var wire 1 3 in_valid_2_1 $end
$var wire 1 7 in_ovf_2_1 $end
$var wire 8 < out_d $end
$var wire 1 ? out_valid $end
$var wire 1 A out_ovf $end
$upscope $end
$upscope $end
$upscope $end
$enddefinitions $end
#0
$dumpvars
b100110 !
b100110 "
b11100 #
b11100 $
0%
0&
0'
0(
0)
0*
0+
0,
b11110011 -
b11110011 .
b11001110 /
b11001110 0
11
12
03
04
05
06
07
08
b11 9
0:
b11001 ;
b11101010 <
0=
0>
0?
0@
0A
$end
#1000000
b101000 <
1:
b10110 0
b10110 /
b10010 $
b10010 #
02
01
1(
1'
b1011111 ;
b10000111 9
b111001 .
b111001 -
#2000000
b10011001 <
0:
b11000010 0
b11000010 /
b11010111 $
b11010111 #
1&
1%
b100011 "
14
13
1?
b100011 !
b1001010 ;
b11100011 9
b100111 .
b100111 -
#3000000
b10100110 <
b11000001 /
b11100101 $
1>
11
0?
03
0(
b101011 !
b10101110 9
b11011101 .
b11000001 0
b11100101 #
12
b101011 "
04
0'
b1000 ;
b11011101 -
#4000000
b10001 <
b111100 0
b111100 /
b11010101 $
b11010101 #
0>
02
01
b1011 "
b1011 !
b100 ;
b10101 9
b11111001 .
b11111001 -
#5000000
b101000 <
b111111 0
b111111 /
b11101001 $
b11101001 #
1>
12
11
b11111010 "
1(
1'
b11111010 !
b111000 ;
b1100000 9
b111110 .
b111110 -
#6000000
b11101011 <
b11111101 /
b11101110 $
0>
0&
13
0(
b11111101 !
b11100101 9
b11111101 .
b11111101 0
b11101110 #
0%
b11111101 "
14
0'
b11111010 ;
b11111101 -
#7000000
b11100110 <
b100100 0
b100100 /
b11000010 $
b11000010 #
02
01
b11111111 "
04
03
b11111111 !
b110111 ;
b11101 9
b111000 .
b111000 -
#8000000
b11011011 <
b11000 /
b11000011 $
1>
11
1&
1?
13
1(
b11100110 !
b10010010 9
b11010001 .
b11000 0
b11000011 #
1=
12
1%
b11100110 "
14
1'
b10110111 ;
b11010001 -
#9000000
b10110101 <
b11000001 0
b11000001 /
b11110100 $
b11110100 #
0=
0?
b11001000 "
0(
0'
b11001000 !
b11100001 ;
b10010110 9
b11001 .
b11001 -
#10000000
b11 <
b11000111 /
b111100 $
0>
01
0&
03
1(
b110 !
b11110100 9
b11101011 .
b11000111 0
b111100 #
02
0%
b110 "
04
1'
b11110001 ;
b11101011 -
#11000000
b11101010 <
b11000011 /
b100111 $
1>
11
1&
1?
13
b11100011 !
b10111110 9
b11110001 .
b11000011 0
b100111 #
1=
12
1%
b11100011 "
14
b11010100 ;
b11110001 -
#12000000
b10001 <
b11100 0
b11100 /
b11110101 $
b11110101 #
0>
0=
0&
0%
b101001 "
b101001 !
b11101100 ;
b11111101 9
b11000011 .
b11000011 -
#13000000
b100000 <
b100011 0
b100011 /
b11111101 $
b11111101 #
02
01
1&
1%
b11100001 "
04
03
0?
b11100001 !
b11101010 ;
b1010 9
b1001 .
b1001 -
#14000000
b1010001 <
b111011 0
b111011 /
b10110 $
b10110 #
12
11
0&
0%
b111 "
b111 !
b10100 ;
b1100101 9
b1101 .
b1101 -
#15000000
b111111 <
b101110 0
b101110 /
b10001 $
b10001 #
b1111 "
b1111 !
b111011 ;
b1111010 9
b101100 .
b101100 -
#16000000
b1100111 <
1:
b101100 0
b101100 /
b111011 $
b111011 #
02
01
b111011 "
0(
0'
b111011 !
b110110 ;
b10011101 9
b11111011 .
b11111011 -
#17000000
b11001110 <
b11001000 /
b110 $
1&
1?
13
1(
b0 !
b11100110 9
b11000 .
0:
b11001000 0
b110 #
1%
b0 "
14
1'
b11000 ;
b11000 -
#18000000
b11111100 <
b110010 /
b11001010 $
11
0&
0?
03
0(
b10111 !
b10001 9
b11111110 .
b110010 0
b11001010 #
12
0%
b10111 "
04
0'
b10101 ;
b11111110 -
#19000000
b11101101 <
b101001 0
b101001 /
b11000100 $
b11000100 #
b11100000 "
14
13
b11100000 !
b11010 ;
b111 9
b111010 .
b111010 -
#20000000
b11010010 <
b11001011 /
b111 $
01
1&
03
1(
b11000110 !
b10100000 9
b1000 .
b11001011 0
b111 #
02
1%
b11000110 "
04
1'
b11001110 ;
b1000 -
#21000000
b11111011 <
b11100100 0
b11100100 /
b10111 $
b10111 #
12
11
0&
0%
b11010110 "
14
13
1?
b11010110 !
b11010011 ;
b11001110 9
b11111101 .
b11111101 -
#22000000
b100010 <
b100010 /
b0 $
01
0?
03
b11010 !
b11110 9
b11100010 .
b100010 0
b0 #
02
b11010 "
04
b11111100 ;
b11100010 -
#23000000
b1001111 <
b110110 0
b110110 /
b11001 $
b11001 #
12
11
b11000000 "
0(
0'
b11000000 !
b10000100 ;
b11010011 9
b11000100 .
b11000100 -
#24000000
b11100111 <
b11001 0
b11001 /
b11001110 $
b11001110 #
1>
1&
1%
b11001000 "
b11001000 !
b11010110 ;
b10111101 9
b1110 .
b1110 -
#25000000
b1010110 <
b110000 /
b100110 $
0>
01
1?
13
1(
b11111110 !
b1110011 9
b11111 .
b110000 0
b100110 #
02
b11111110 "
14
1'
b11101 ;
b11111 -
#26000000
b11111100 <
b100110 0
b100110 /
b11010110 $
b11010110 #
0&
0%
b11101 "
04
03
0(
0'
0?
b11101 !
b1000001 ;
b111101 9
b100100 .
b100100 -
#27000000
b11100101 <
b110 /
b11011111 $
1?
13
1(
b11100011 !
b10010100 9
b11001100 .
b110 0
b11011111 #
b11100011 "
14
1'
b10101111 ;
b11001100 -
#28000000
b11101001 <
b11111101 0
b11111101 /
b11101100 $
b11101100 #
b1 "
b1 !
b11101010 ;
b11010011 9
b11101001 .
b11101001 -
#29000000
b11111110 <
b10011 /
b11101011 $
1>
11
1&
0?
0(
b11011011 !
b100 9
b101011 .
b10011 0
b11101011 #
12
1%
b11011011 "
0'
b110 ;
b101011 -
#30000000
b110011 <
b11000 /
b11011 $
0>
0&
03
b111001 !
b10100010 9
b110110 .
1:
b11000 0
b11011 #
0%
b111001 "
04
b1101111 ;
b110110 -
#31000000
b110101 <
0:
b111000 0
b111000 /
b11111101 $
b11111101 #
02
01
1&
1%
b111000 "
b111000 !
b10010 ;
b1000111 9
b11011010 .
b11011010 -
#32000000
b11100001 <
b11011010 0
b11011010 /
b111 $
b111 #
12
11
0&
0%
b100110 "
b100110 !
b101011 ;
b1100 9
b101 .
b101 -
#33000000
b11000010 <
b11010111 0
b11010111 /
b11101011 $
b11101011 #
02
01
1?
b11110010 "
14
13
1(
1'
b11110010 !
b11011 ;
b11011101 9
b101001 .
b101001 -
#34000000
b11011 <
b11110011 0
b11110011 /
b101000 $
b101000 #
12
11
0?
b11111 "
0(
0'
b11111 !
b110110 ;
b1010001 9
b10111 .
b10111 -
#35000000
b100011 <
b11100110 /
b111101 $
01
1&
03
b11110011 !
b11100001 9
b11001011 .
b11100110 0
b111101 #
02
1%
b11110011 "
04
b10111110 ;
b11001011 -
#36000000
b1010 <
b11111010 /
b10000 $
11
0&
1?
13
1(
b110000 !
b110001 9
b11110111 .
b11111010 0
b10000 #
12
0%
b110000 "
14
1'
b100111 ;
b11110111 -
#37000000
b1000011 <
b11111 0
b11111 /
b100100 $
b100100 #
02
01
0?
b11110101 "
0(
0'
b11110101 !
b1011 ;
b1001110 9
b10110 .
b10110 -
#38000000
b100 <
b11001 /
b11101011 $
1>
11
1&
03
1(
b11000001 !
b10111001 9
b11110100 .
b11001 0
b11101011 #
12
1%
b11000001 "
04
1'
b10110101 ;
b11110100 -
#39000000
b1 <
b11110111 /
b1010 $
0>
01
0&
13
0(
b11 !
b11111010 9
b11110110 .
b11110111 0
b1010 #
02
0%
b11 "
14
0'
b11111001 ;
b11110110 -
#40000000
b1010100 <
b100001 0
b100001 /
b110011 $
b110011 #
1>
12
11
1&
1%
b11010111 "
04
03
b11010111 !
b11011011 ;
b101111 9
b100 .
b100 -
#41000000
b101000 <
b1000 /
b100000 $
0>
01
1?
13
1(
b101111 !
b100110 9
b11001111 .
b1000 0
b100000 #
02
b101111 "
14
1'
b11111110 ;
b11001111 -
#42000000
b1110 <
b111011 0
b111011 /
b11010011 $
b11010011 #
12
11
0&
0%
b11100 "
0?
0(
0'
b11100 !
b11011110 ;
b11101100 9
b11000010 .
b11000010 -
#43000000
b10100101 <
b11010011 /
b11010010 $
01
1&
03
1(
b10 !
b11100101 9
b111110 .
b11010011 0
b11010010 #
02
1%
b10 "
04
1'
b1000000 ;
b111110 -
#44000000
b100101 <
b11100110 /
b111111 $
1>
11
0(
b11100000 !
b11101100 9
b11100111 .
b11100110 0
b111111 #
12
b11100000 "
0'
b11000111 ;
b11100111 -
#45000000
b1001 <
b11110001 /
b11000 $
0>
01
0&
1?
13
1(
b11011 !
b11100 9
b11111000 .
b11110001 0
b11000 #
02
0%
b11011 "
14
1'
b10011 ;
b11111000 -
#46000000
b1010 <
b11001111 /
b111011 $
1>
11
1&
0?
0(
b100010 !
b11110010 9
b11000110 .
b11001111 0
b111011 #
12
1%
b100010 "
0'
b11101000 ;
b11000110 -
#47000000
b10000001 <
b11000000 0
b11000000 /
b11000001 $
b11000001 #
b11111011 "
04
03
1(
1'
b11111011 !
b101011 ;
b10101100 9
b110000 .
b110000 -
#48000000
b1110000 <
b110110 /
b111010 $
0>
01
0&
0(
b11100100 !
b110011 9
b11011111 .
b110110 0
b111010 #
02
0%
b11100100 "
0'
b11000011 ;
b11011111 -
#49000000
b10010101 <
b11010011 /
b11000010 $
1>
11
1&
1(
b11101111 !
b10010011 9
b1111 .
b11010011 0
b11000010 #
12
1%
b11101111 "
1'
b11111110 ;
b1111 -
#50000000
b111010 <
b110000 0
b110000 /
b1010 $
b1010 #
1=
1?
b11010111 "
14
13
b11010111 !
b1010 ;
b1000100 9
b110011 .
b110011 -
#51000000
b1010001 <
b101111 /
b100010 $
0>
01
0?
03
0(
b10011 !
b10100001 9
b111101 .
1:
b101111 0
b100010 #
0=
02
b10011 "
04
0'
b1010000 ;
b111101 -
#52000000
b1101100 <
0:
b101101 0
b101101 /
b111111 $
b111111 #
1>
12
11
b11100 "
1(
1'
b11100 !
b11101101 ;
b1011001 9
b11010001 .
b11010001 -
#53000000
b1011 <
b100011 0
b100011 /
b11101000 $
b11101000 #
0>
0&
0%
b1111 "
14
13
0(
0'
b1111 !
b1011 ;
b10110 9
b11111100 .
b11111100 -
#54000000
b1010 <
b110111 /
b11010011 $
1>
1&
03
b11010100 !
b11001101 9
b11101111 .
b110111 0
b11010011 #
1%
b11010100 "
04
b11000011 ;
b11101111 -
#55000000
b11001111 <
b11101111 /
b11100000 $
0>
01
13
b11010000 !
b11011110 9
b111111 .
b11101111 0
b11100000 #
02
b11010000 "
14
b1111 ;
b111111 -
#56000000
b1010 <
b11011101 0
b11011101 /
b101101 $
b101101 #
1>
12
11
b110110 "
04
03
b110110 !
b1011 ;
b10101 9
b11010101 .
b11010101 -
#57000000
b10110100 <
b11011010 /
b11011010 $
0>
01
1(
b11110101 !
b1110000 9
b11000111 .
1:
b11011010 0
b11011010 #
02
b11110101 "
1'
b10111100 ;
b11000111 -
#58000000
b11111 <
b100000 /
b11111111 $
11
0&
13
0(
b11011011 !
b101000 9
b101110 .
0:
b100000 0
b11111111 #
12
0%
b11011011 "
14
0'
b1001 ;
b101110 -
#59000000
b11100001 <
1:
b11111111 0
b11111111 /
b11100010 $
b11100010 #
b11010010 "
b11010010 !
b10010101 ;
b1110110 9
b11000011 .
b11000011 -
#60000000
b1001 <
0:
b11101101 0
b11101101 /
b11100 $
b11100 #
b11011 "
b11011 !
b11111000 ;
b1 9
b11011101 .
b11011101 -
#61000000
b11110011 <
b11100 0
b11100 /
b11010111 $
b11010111 #
b101000 "
04
03
b101000 !
b1100 ;
b11111111 9
b11100100 .
b11100100 -
#62000000
b1010011 <
b110011 0
b110011 /
b100000 $
b100000 #
02
01
b100010 "
14
13
b100010 !
b11101 ;
b1110000 9
b11111011 .
b11111011 -
#63000000
b1000001 <
b10 0
b10 /
b111111 $
b111111 #
1>
12
11
1&
1%
b10110 "
b10110 !
b11110110 ;
b110111 9
b11100000 .
b11100000 -
#64000000
b11111011 <
b11111001 $
b11111001 #
1=
1?
b11110 "
1(
1'
b11110 !
b10011 ;
b1110 9
b11110101 .
b11110101 -
#65000000
b11101011 <
b11010110 /
b10101 $
0>
01
0?
0(
b11011111 !
b10111000 9
b11101110 .
b11010110 0
b10101 #
0=
02
b11011111 "
0'
b11001101 ;
b11101110 -
#66000000
b11110111 <
b100111 0
b100111 /
b11010000 $
b11010000 #
0&
0%
b11000001 "
b11000001 !
b11011010 ;
b11010001 9
b11001 .
b11001 -
#67000000
b101 <
b11101001 0
b11101001 /
b11100 $
b11100 #
12
11
b11101111 "
b11101111 !
b11010101 ;
b11011010 9
b11100110 .
b11100110 -
#68000000
b11000111 <
1:
b11111011 0
b11111011 /
b11001100 $
b11001100 #
02
01
1&
1%
b11011000 "
b11011000 !
b10101111 ;
b1110110 9
b11010111 .
b11010111 -
#69000000
0:
b11000111 0
b11000111 /
b0 $
b0 #
1>
12
11
1=
1?
b11101100 "
1(
1'
b11101100 !
b10111111 ;
b10000110 9
b11010011 .
b11010011 -
#70000000
b11100100 <
b11001110 0
b11001110 /
b10110 $
b10110 #
b1011 "
b1011 !
b111101 ;
b100001 9
b110010 .
b110010 -
#71000000
b111 <
b11110010 0
b11110010 /
b10101 $
b10101 #
0>
0=
0&
0%
b10110 "
0?
0(
0'
b10110 !
b10100 ;
b11011 9
b11111110 .
b11111110 -
#72000000
b11110010 <
b11111001 /
b11111001 $
01
1&
1?
1(
b111100 !
b11 9
b11010101 .
b11111001 0
b11111001 #
02
1%
b111100 "
1'
b10001 ;
b11010101 -
#73000000
b11111 <
b101010 0
b101010 /
b11110101 $
b11110101 #
0?
b101 "
0(
0'
b101 !
b11010011 ;
b11110010 9
b11001110 .
b11001110 -
#74000000
b1010110 <
b101011 0
b101011 /
b101011 $
b101011 #
0&
0%
b11110100 "
1?
1(
1'
b11110100 !
b11101111 ;
b1000101 9
b11111011 .
b11111011 -
#75000000
b1010000 <
1:
b11101 0
b11101 /
b110011 $
b110011 #
0?
b101100 "
0(
0'
b101100 !
b1001011 ;
b10011011 9
b11111 .
b11111 -
#76000000
b11111101 <
b110001 /
b11001100 $
1>
11
1&
03
1(
b11110011 !
b10111111 9
b11001111 .
0:
b110001 0
b11001100 #
12
1%
b11110011 "
04
1'
b11000010 ;
b11001111 -
#77000000
b11010000 <
b11010010 0
b11010010 /
b11111110 $
b11111110 #
b11010000 "
14
13
0(
0'
b11010000 !
b111 ;
b11010111 9
b110111 .
b110111 -
#78000000
b110001 <
b11111101 0
b11111101 /
b110100 $
b110100 #
0>
02
01
0&
0%
b100100 "
b100100 !
b111101 ;
b1101110 9
b11001 .
b11001 -
#79000000
b110010 <
b111001 0
b111001 /
b11111001 $
b11111001 #
1?
b110100 "
1(
1'
b110100 !
b11110100 ;
b100110 9
b11000000 .
b11000000 -
#80000000
b111 <
b11000 /
b11101111 $
1&
0?
03
0(
b111101 !
b1111001 9
b110101 .
b11000 0
b11101111 #
1%
b111101 "
04
0'
b1110010 ;
b110101 -
#81000000
b100101 <
b11111111 0
b11111111 /
b100110 $
b100110 #
0&
0%
b11001111 "
1(
1'
b11001111 !
b11001011 ;
b11110000 9
b11111100 .
b11111100 -
#82000000
b11100100 <
b11011001 /
b1011 $
1&
13
0(
b110110 !
b11100 9
b10 .
b11011001 0
b1011 #
1%
b110110 "
14
0'
b111000 ;
b10 -
#83000000
b101000 <
b11011 0
b11011 /
b1101 $
b1101 #
0&
0%
b11111000 "
b11111000 !
b11010100 ;
b11111100 9
b11011100 .
b11011100 -
#84000000
b110111 <
b100 /
b110011 $
1>
11
1&
1?
1(
b101101 !
b1100001 9
b11111101 .
b100 0
b110011 #
1=
12
1%
b101101 "
1'
b101010 ;
b11111101 -
#85000000
b1001 <
b100011 0
b100011 /
b11100110 $
b11100110 #
0>
0=
0&
0%
b11101111 "
04
03
0?
b11101111 !
b11 ;
b1100 9
b10100 .
b10100 -
#86000000
b11111110 <
b110101 0
b110101 /
b11001001 $
b11001001 #
1?
b11010110 "
14
13
b11010110 !
b1111 ;
b1101 9
b111001 .
b111001 -
#87000000
b1011 <
b11010010 0
b11010010 /
b111001 $
b111001 #
1>
1&
1%
b11110 "
0?
0(
0'
b11110 !
b11100111 ;
b11110010 9
b11001001 .
b11001001 -
#88000000
b10010010 <
b11001111 0
b11001111 /
b11000011 $
b11000011 #
b100 "
b100 !
b110000 ;
b11000010 9
b101100 .
b101100 -
#89000000
b11110 <
b11011111 /
b111111 $
0>
0&
1?
1(
b110000 !
b1101001 9
b11011 .
b11011111 0
b111111 #
0%
b110000 "
1'
b1001011 ;
b11011 -
#90000000
b11011 <
b11100000 /
b111011 $
01
0?
03
0(
b11110001 !
b11101110 9
b11100010 .
b11100000 0
b111011 #
02
b11110001 "
04
0'
b11010011 ;
b11100010 -
#91000000
b10 <
b0 0
b0 /
b10 $
b10 #
12
11
b100100 "
1(
1'
b100100 !
b11101111 ;
b11110001 9
b11001011 .
b11001011 -
#92000000
b10010111 <
1:
b11001011 0
b11001011 /
b11001100 $
b11001100 #
b11101011 "
b11101011 !
b11000111 ;
b1011110 9
b11011100 .
b11011100 -
#93000000
b11111000 <
0:
b10110 0
b10110 /
b11100010 $
b11100010 #
b110010 "
b110010 !
b1100011 ;
b1011011 9
b110001 .
b110001 -
#94000000
b1010110 <
b111101 /
b11001 $
01
1&
0(
b11011001 !
b111000 9
b1001 .
b111101 0
b11001 #
02
1%
b11011001 "
0'
b11100010 ;
b1001 -
#95000000
b1100101 <
b110001 0
b110001 /
b110100 $
b110100 #
0&
0%
b11 "
14
13
b11 !
b11111100 ;
b1100001 9
b11111001 .
b11111001 -
#96000000
b10000 <
b111100 0
b111100 /
b11010100 $
b11010100 #
12
11
b11100011 "
04
03
1(
1'
b11100011 !
b11111011 ;
b1011 9
b11000 .
b11000 -
#97000000
b100001 <
b100010 0
b100010 /
b11111111 $
b11111111 #
02
01
1?
b1000 "
14
13
b1000 !
b11011111 ;
b0 9
b11010111 .
b11010111 -
#98000000
b1000101 <
1:
b11111 0
b11111 /
b100110 $
b100110 #
1&
1%
b10001 "
b10001 !
b1000001 ;
b10000110 9
b110000 .
b110000 -
#99000000
b100110 <
b11110110 /
b110000 $
0&
0?
03
0(
b11100100 !
b11010101 9
b11001011 .
0:
b11110110 0
b110000 #
0%
b11100100 "
04
0'
b10101111 ;
b11001011 -
#100000000
b0 <
b110000 /
b11010000 $
1>
11
1&
1(
b101000 !
b101 9
b11011101 .
b110000 0
b11010000 #
12
1%
b101000 "
1'
b101 ;
b11011101 -
#101000000
b11001100 <
b11010010 0
b11010010 /
b11111010 $
b11111010 #
0>
0&
0%
b10101 "
b10101 !
b11100001 ;
b10101101 9
b11001100 .
b11001100 -
#102000000
b11010011 <
b11001000 0
b11001000 /
b1011 $
b1011 #
b101000 "
b101000 !
b11111010 ;
b11001101 9
b11010010 .
b11010010 -
#103000000
b1001011 <
b111001 0
b111001 /
b10010 $
b10010 #
b111111 "
0(
0'
b111111 !
b110010 ;
b1111101 9
b11110011 .
b11110011 -
#104000000
b11001011 <
b11110011 0
b11110011 /
b11011000 $
b11011000 #
02
01
b100010 "
1(
1'
b100010 !
b11101101 ;
b10111000 9
b11001011 .
b11001011 -
#105000000
b11011110 <
b11100110 0
b11100110 /
b11111000 $
b11111000 #
1?
b11010110 "
14
13
b11010110 !
b10100101 ;
b10000011 9
b11001111 .
b11001111 -
#106000000
b1010111 <
b111001 /
b11110 $
0?
03
0(
b11100110 !
b1010 9
b11001101 .
b111001 0
b11110 #
b11100110 "
04
0'
b10110011 ;
b11001101 -
#107000000
b11111111 <
b101110 /
b11010001 $
1&
1?
13
1(
b101010 !
b110011 9
b1010 .
b101110 0
b11010001 #
1%
b101010 "
14
1'
b110100 ;
b1010 -
#108000000
b1100001 <
b100101 /
b111100 $
11
0&
0?
0(
b101011 !
b1011100 9
b11010000 .
b100101 0
b111100 #
12
0%
b101011 "
0'
b11111011 ;
b11010000 -
#109000000
b11001011 <
b11011010 /
b11110001 $
1>
1&
03
b11101001 !
b1111100 9
b11001000 .
1:
b11011010 0
b11110001 #
1%
b11101001 "
04
b10110001 ;
b11001000 -
#110000000
b11011001 <
0:
b11000111 0
b11000111 /
b10010 $
b10010 #
0>
02
01
b11100100 "
14
13
b11100100 !
b11001001 ;
b10100010 9
b11100101 .
b11100101 -
#111000000
b1000100 <
b110 /
b111110 $
0&
1?
1(
b110011 !
b1000111 9
b11010000 .
b110 0
b111110 #
0%
b110011 "
1'
b11 ;
b11010000 -
#112000000
b10110000 <
b11010010 /
b11011110 $
11
0?
03
b101 !
b11110000 9
b111011 .
b11010010 0
b11011110 #
12
b101 "
04
b1000000 ;
b111011 -
#113000000
b11101011 <
b11001 $
b11001 #
b11010 "
0(
0'
b11010 !
b100011 ;
b1110 9
b1001 .
b1001 -
#114000000
b1011000 <
b111101 /
b11011 $
1>
1&
1?
13
1(
b11001100 !
b1010101 9
b110001 .
b111101 0
b11011 #
1=
1%
b11001100 "
14
1'
b11111101 ;
b110001 -
#115000000
b1110 <
b11100110 /
b101000 $
0>
01
0&
0?
0(
b11111100 !
b1001000 9
b111110 .
b11100110 0
b101000 #
0=
02
0%
b11111100 "
0'
b111010 ;
b111110 -
#116000000
b111001 <
b111011 0
b111011 /
b11111110 $
b11111110 #
b11111101 "
04
03
1(
1'
b11111101 !
b110101 ;
b1101110 9
b111000 .
b111000 -
#117000000
b10111110 <
b11111001 0
b11111001 /
b11000101 $
b11000101 #
1&
1%
b11100101 "
b11100101 !
b11001 ;
b11010111 9
b110100 .
b110100 -
#118000000
b11100011 <
b1111 0
b1111 /
b11010100 $
b11010100 #
b11111100 "
14
13
0(
0'
b11111100 !
b11101010 ;
b11001101 9
b11101110 .
b11101110 -
#119000000
b11110100 <
b11010010 0
b11010010 /
b100010 $
b100010 #
b100100 "
04
03
1(
1'
b100100 !
b111 ;
b11111011 9
b11100011 .
b11100011 -
#120000000
b10011011 <
b11001110 0
b11001110 /
b11001101 $
b11001101 #
0&
0%
b101000 "
14
13
0(
0'
b101000 !
b11000 ;
b10110011 9
b11110000 .
b11110000 -
#121000000
b11100101 <
b10110 0
b10110 /
b11001111 $
b11001111 #
1?
b110101 "
1(
1'
b110101 !
b11110111 ;
b11011100 9
b11000010 .
b11000010 -
#122000000
b101100 <
b100101 /
b111 $
1>
11
1&
0?
03
b11111 !
b11010 9
b11001111 .
b100101 0
b111 #
12
1%
b11111 "
04
b11101110 ;
b11001111 -
#123000000
b11111110 <
b11100011 0
b11100011 /
b11011 $
b11011 #
1=
1?
b11000111 "
14
13
b11000111 !
b0 ;
b11111110 9
b111001 .
b111001 -
#124000000
b111111 <
b100100 /
0>
0&
0?
03
b11110001 !
b1011 9
b11011011 .
b100100 0
0=
0%
b11110001 "
04
b11001100 ;
b11011011 -
#125000000
b11011000 <
b1000 0
b1000 /
b11010000 $
b11010000 #
02
01
b110101 "
b110101 !
b110011 ;
b11111110 .
b11111110 -
#126000000
b10101000 <
b11001100 0
b11001100 /
b11011100 $
b11011100 #
1&
1%
b11011 "
14
13
0(
0'
b11011 !
b1001010 ;
b11110010 9
b101111 .
b101111 -
#127000000
b1000011 <
b100 /
b111111 $
0&
1?
1(
b10001 !
b10000110 9
b110010 .
1:
b100 0
b111111 #
0%
b10001 "
1'
b1000011 ;
b110010 -
#128000000
b1101011 <
0:
b111010 0
b111010 /
b110001 $
b110001 #
0?
b11110111 "
0(
0'
b11110111 !
b11010100 ;
b111111 9
b11011101 .
b11011101 -
#129000000
b11010001 <
b11010001 0
b11010001 /
b0 $
b0 #
1&
1%
b11100000 "
04
03
b11100000 !
b10101 ;
b11100110 9
b110101 .
b110101 -
#130000000
b10110 <
b11000 0
b11000 /
b11111110 $
b11111110 #
b10100 "
b10100 !
b11101101 ;
b11 9
b11011001 .
b11011001 -
#131000000
b1001001 <
b101000 0
b101000 /
b100001 $
b100001 #
0&
0%
b1100 "
b1100 !
b11101100 ;
b110101 9
b11100000 .
b11100000 -
#132000000
b11100000 <
b11011 0
b11011 /
b11000101 $
b11000101 #
b101111 "
b101111 !
b100101 ;
b101 9
b11110110 .
b11110110 -
#133000000
b11001010 <
b11010110 0
b11010110 /
b11110100 $
b11110100 #
b100101 "
14
13
b100101 !
b11100111 ;
b10110001 9
b11000010 .
b11000010 -
#134000000
b11100100 <
b10100 /
b11010000 $
1&
03
1(
b1001 !
b11111111 9
b10010 .
b10100 0
b11010000 #
1%
b1001 "
04
1'
b11011 ;
b10010 -
#135000000
b11001111 <
b11000011 0
b11000011 /
b1100 $
b1100 #
b11110010 "
14
13
0(
0'
b11110010 !
b11011110 ;
b10101101 9
b11101100 .
b11101100 -
#136000000
b111001 <
b11110 0
b11110 /
b11011 $
b11011 #
1?
b11011111 "
1(
1'
b11011111 !
b11000000 ;
b11111001 9
b11100001 .
b11100001 -
#137000000
b11110111 <
b11000010 0
b11000010 /
b110101 $
b110101 #
12
11
0&
0%
b11100001 "
04
03
0?
b11100001 !
b11010110 ;
b11001101 9
b11110101 .
b11110101 -
#138000000
b11100001 <
b11101 0
b11101 /
b11000100 $
b11000100 #
02
01
1&
1%
b11110101 "
0(
0'
b11110101 !
b100000 ;
b1 9
b101011 .
b101011 -
#139000000
b11000100 <
b11010110 0
b11010110 /
b11101110 $
b11101110 #
0&
0%
b101111 "
14
13
b101111 !
b1101101 ;
b110001 9
b111110 .
b111110 -
#140000000
b11000 <
b100110 /
b11110010 $
1>
11
1&
1?
1(
b1 !
b100011 9
b1010 .
b100110 0
b11110010 #
1=
12
1%
b1 "
1'
b1011 ;
b1010 -
#141000000
b110010 <
b10001 /
b100001 $
0>
01
0?
03
0(
b11100101 !
b1000 9
b11110001 .
b10001 0
b100001 #
0=
02
b11100101 "
04
0'
b11010110 ;
b11110001 -
#142000000
b101011 <
b111000 0
b111000 /
b11110011 $
b11110011 #
b11111110 "
1(
1'
b11111110 !
b11111 ;
b1001010 9
b100001 .
b100001 -
#143000000
b1011111 <
b101001 0
b101001 /
b110110 $
b110110 #
0&
0%
b111011 "
0(
0'
b111011 !
b11000 ;
b1110111 9
b11011101 .
b11011101 -
#144000000
b11000111 <
b11010000 /
b11110111 $
1&
1?
13
1(
b11000011 !
b1010011 9
b11001001 .
1:
b11010000 0
b11110111 #
1%
b11000011 "
14
1'
b10001100 ;
b11001001 -
#145000000
b10100110 <
b11000101 /
b11100001 $
11
0&
0?
0(
b10111 !
b11000001 9
b100 .
0:
b11000101 0
b11100001 #
12
0%
b10111 "
0'
b11011 ;
b100 -
#146000000
b111001 <
b1010 0
b1010 /
b101111 $
b101111 #
02
01
b101010 "
04
03
b101010 !
b10100 ;
b1001101 9
b11101010 .
b11101010 -
#147000000
b101000 <
b11110 $
1>
11
1&
1?
13
1(
b11110110 !
b101101 9
b1111 .
b11110 #
1=
12
1%
b11110110 "
14
1'
b101 ;
b1111 -
#148000000
b11001111 <
b11011000 /
b11110111 $
0>
0&
0?
03
0(
b100111 !
b10111001 9
b11000011 .
b11011000 0
b11110111 #
0=
0%
b100111 "
04
0'
b11101010 ;
b11000011 -
#149000000
b11101101 <
b11111100 0
b11111100 /
b11110001 $
b11110001 #
02
01
1&
1%
b11100 "
b11100 !
b11111011 ;
b11101000 9
b11011111 .
b11011111 -
#150000000
b100 <
b11101001 0
b11101001 /
b11011 $
b11011 #
12
11
0&
0%
b11000100 "
14
13
b11000100 !
b11010101 ;
b11011001 9
b10001 .
b10001 -
