Lab4/Practice/pe.vcd
$comment Generated by Amaranth $end
$date 2023-04-05 09:33:57.964613 $end
$timescale 1 ps $end
$scope module bench $end
$scope module top $end
$var wire 1 ! clk $end
$var wire 1 " rst $end
$var wire 4 # in_a $end
$var wire 4 $ in_a$1 $end
$var wire 4 % in_b $end
$var wire 4 & in_b$1 $end
$var wire 8 ' out_d $end
$var wire 8 ( out_d$1 $end
$var wire 1 ) out_ovf $end
$var wire 1 * out_ovf$1 $end
$var wire 1 + in_a_valid $end
$var wire 1 , in_b_valid $end
$var string 1 - fsm_state $end
$var wire 1 . in_rst $end
$var wire 3 / cnt $end
$var wire 1 0 out_d_valid $end
$var wire 3 1 in_init $end
$var wire 1 2 in_rst$1 $end
$scope module mac $end
$var wire 1 ! clk $end
$var wire 1 " rst $end
$var wire 4 # in_a $end
$var wire 4 % in_b $end
$var wire 8 ( out_d $end
$var wire 1 * out_ovf $end
$var wire 1 + in_a_valid $end
$var wire 1 , in_b_valid $end
$var wire 1 . in_rst $end
$var wire 1 2 in_rst$1 $end
$var wire 8 3 mult $end
$var wire 8 4 current_out $end
$var wire 1 5 current_out_ovf $end
$var wire 1 6 out_d_valid $end
$upscope $end
$upscope $end
$upscope $end
$enddefinitions $end
#0
$dumpvars
0!
0"
b0 #
b0 $
b0 %
b0 &
b0 '
b0 (
0)
0*
0+
0,
sINIT/0 -
0.
b0 /
00
b0 1
02
b0 3
b0 4
05
06
$end
#500000
1!
b1 #
b1001 &
b1001 %
1.
b11111001 4
15
b1 $
b100 1
b11111001 3
#1000000
0!
#1500000
1+
1!
16
b101 #
1,
b1010 &
b1010 %
0.
b11100010 4
b101 $
b0 1
b100 /
sEXEC/1 -
b11100010 3
#2000000
0!
#2500000
b11100010 (
1!
b1000 #
b11 &
b11 %
b11001010 4
b1000 $
b11 /
b11100010 '
b11101000 3
#3000000
0!
#3500000
b11001010 (
1!
b1111 &
b1111 %
b11010010 4
b10 /
b11001010 '
b1000 3
#4000000
0!
#4500000
b11010010 (
1!
b0 #
b1101 &
b1101 %
b0 $
b1 /
b11010010 '
b0 3
#5000000
0!
#5500000
10
0+
1!
06
b101 #
0,
b1100 &
b1100 %
b10111110 4
b101 $
b0 /
sINIT/0 -
b11101100 3
#6000000
0!
#6500000
b11010101 4
b1 $
1!
b11 3
b1 #
b11 &
b11 %
#7000000
0!
#7500000
1!
b1100 #
b1101 &
b1101 %
1.
b11011110 4
b1100 $
b11 1
b1100 3
#8000000
0!
#8500000
b0 (
00
1+
1!
16
b1001 #
1,
0.
b10101 4
05
b1001 $
b0 1
b11 /
b0 '
sEXEC/1 -
b10101 3
#9000000
0!
#9500000
b10101 (
1!
b1111 #
b11000 4
b1111 $
b10 /
b10101 '
b11 3
#10000000
0!
#10500000
b11000 (
1!
b10 #
b1011 &
b1011 %
b1110 4
b10 $
b1 /
b11000 '
b11110110 3
#11000000
0!
#11500000
b1110 (
10
0+
1!
06
0,
b1110 &
b1110 %
b1010 4
b0 /
b1110 '
sINIT/0 -
b11111100 3
#12000000
0!
#12500000
1!
b1001 #
b11 &
b11 %
1.
b11111001 4
15
b1001 $
b111 1
b11101011 3
#13000000
0!
#13500000
b0 (
1+
b100 #
1,
b101 %
0.
05
b100 $
b0 1
16
00
1!
b101 &
b10100 4
b111 /
b0 '
sEXEC/1 -
b10100 3
#14000000
0!
#14500000
b10100 (
1!
b101 #
b111 &
b111 %
b110111 4
b101 $
b110 /
b10100 '
b100011 3
#15000000
0!
#15500000
b110111 (
1!
b1011 #
b1010 &
b1010 %
b1010101 4
b1011 $
b101 /
b110111 '
b11110 3
#16000000
0!
#16500000
b1010101 (
1!
b1001 #
b1111111 4
b1001 $
b100 /
b1010101 '
b101010 3
#17000000
0!
#17500000
b1111111 (
1!
b10 #
b110 &
b110 %
b10001011 4
b10 $
b11 /
b1111111 '
b1100 3
#18000000
0!
#18500000
1)
b10001011 (
1!
b1011 #
b1111 &
b1111 %
b10010000 4
15
b1011 $
b10 1
b10 /
1*
b10001011 '
b101 3
#19000000
0!
#19500000
b10010000 (
1!
b1100 #
b1011 &
b1011 %
b10100100 4
b1100 $
b0 1
b1 /
b10010000 '
b10100 3
#20000000
0!
#20500000
b10100100 (
10
0+
1!
06
b1101 #
0,
b101 &
b101 %
1.
b10010101 4
b1101 $
b100 1
b0 /
b10100100 '
sINIT/0 -
b11110001 3
#21000000
0!
#21500000
0)
b0 (
1+
b1000 #
1,
b1100 %
0.
05
b1000 $
b0 1
16
00
1!
b1100 &
b100000 4
b100 /
0*
b0 '
sEXEC/1 -
b100000 3
#22000000
0!
#22500000
b100000 (
1!
b1100 #
b1111 &
b1111 %
b100100 4
b1100 $
b11 /
b100000 '
b100 3
#23000000
0!
#23500000
b100100 (
1!
b1111 #
b1010 &
b1010 %
b101010 4
b1111 $
b10 /
b100100 '
b110 3
#24000000
0!
#24500000
b101010 (
1!
b0 #
b111 &
b111 %
b0 $
b1 /
b101010 '
b0 3
#25000000
0!
#25500000
10
0+
1!
06
b1101 #
0,
b10 &
b10 %
b100100 4
b1101 $
b0 /
sINIT/0 -
b11111010 3
#26000000
0!
#26500000
b1010100 4
b110 $
1!
b101010 3
b110 #
b111 &
b111 %
#27000000
0!
#27500000
1!
b1000 #
b1001 &
b1001 %
1.
b1100010 4
b1000 $
b101 1
b111000 3
#28000000
0!
#28500000
b0 (
1+
b1100 #
1,
b110 %
0.
15
b1100 $
b0 1
16
00
1!
b110 &
b11101000 4
b101 /
b0 '
sEXEC/1 -
b11101000 3
#29000000
0!
#29500000
b11101000 (
1!
b1011 #
b100 &
b100 %
b11010100 4
b1011 $
b100 /
b11101000 '
b11101100 3
#30000000
0!
#30500000
b11010100 (
1!
b101 #
b1011 &
b1011 %
b10111011 4
b101 $
b11 /
b11010100 '
b11100111 3
#31000000
0!
#31500000
b10111011 (
1!
b10 #
b10 &
b10 %
b10111111 4
b10 $
b10 /
b10111011 '
b100 3
#32000000
0!
#32500000
b10111111 (
1!
b110 #
b110 &
b110 %
b11100011 4
b110 $
b1 /
b10111111 '
b100100 3
#33000000
0!
#33500000
b11100011 (
10
0+
1!
06
0,
b111 &
b111 %
b1101 4
05
b0 /
b11100011 '
sINIT/0 -
b101010 3
#34000000
0!
#34500000
1.
b11011101 4
15
b11 1
1!
b11111010 3
b1111 &
b1111 %
#35000000
0!
#35500000
b0 (
1+
b0 #
1,
b1001 %
0.
05
b0 $
b0 1
16
00
1!
b1001 &
b0 4
b11 /
b0 '
sEXEC/1 -
b0 3
#36000000
0!
#36500000
b1110 4
b10 $
1!
b10 /
b1110 3
b10 #
b111 &
b111 %
#37000000
0!
#37500000
b1110 (
1!
b110 &
b110 %
b11010 4
b111 1
b1 /
b1110 '
b1100 3
#38000000
0!
#38500000
b11010 (
10
0+
1!
06
b1010 #
0,
b11 &
b11 %
b1000 4
b1010 $
b0 1
b0 /
b11010 '
sINIT/0 -
b11101110 3
#39000000
0!
#39500000
b11010 4
b1011 $
1!
b0 3
b1011 #
b0 &
b0 %
#40000000
0!
#40500000
b1001 #
b1001 $
1!
#41000000
0!
#41500000
b0 $
1!
b0 #
b1110 &
b1110 %
#42000000
0!
#42500000
b11110000 4
15
b110 $
1!
b11010110 3
b110 #
b1001 &
b1001 %
#43000000
0!
#43500000
b110110 4
05
b111 $
1!
b11100 3
b111 #
b100 &
b100 %
#44000000
0!
#44500000
1!
b1000 #
b10 &
b10 %
1.
b1010 4
b1000 $
b10 1
b11110000 3
#45000000
0!
#45500000
b0 (
00
1+
1!
16
b111 #
1,
0.
b1110 4
b111 $
b0 1
b10 /
b0 '
sEXEC/1 -
b1110 3
#46000000
0!
#46500000
b1110 (
1!
b1000 #
b110 &
b110 %
b11011110 4
15
b1000 $
b1 /
b1110 '
b11010000 3
#47000000
0!
#47500000
b11011110 (
10
0+
1!
06
b1111 #
0,
b1100 &
b1100 %
b11100010 4
b1111 $
b0 /
b11011110 '
sINIT/0 -
b100 3
#48000000
0!
#48500000
b11101000 4
b101 $
1!
b1010 3
b101 #
b10 &
b10 %
#49000000
0!
#49500000
1!
b1011 #
b1011 &
b1011 %
1.
b11110111 4
b1011 $
b100 1
b11001 3
#50000000
0!
#50500000
b0 (
1+
b1110 #
1,
b1100 %
0.
05
b1110 $
b0 1
16
00
1!
b1100 &
b1000 4
b100 /
b0 '
sEXEC/1 -
b1000 3
#51000000
0!
#51500000
b1000 (
1!
b1000 #
b111 &
b111 %
b11010000 4
15
b1000 $
b11 /
b1000 '
b11001000 3
#52000000
0!
#52500000
b11010000 (
1!
b1001 #
b1110 &
b1110 %
b11011110 4
b1001 $
b10 /
b11010000 '
b1110 3
#53000000
0!
#53500000
b11011110 (
1!
b111 #
b1111 &
b1111 %
b11010111 4
b111 $
b1 /
b11011110 '
b11111001 3
#54000000
0!
#54500000
b11010111 (
10
0+
1!
06
b11 #
0,
b1010 &
b1010 %
b11000101 4
b11 $
b0 /
b11010111 '
sINIT/0 -
b11101110 3
#55000000
0!
#55500000
1!
b1011 #
b1111 &
b1111 %
1.
b11011100 4
b1011 $
b110 1
b101 3
#56000000
0!
#56500000
b0 (
1+
b1100 #
1,
b11 %
0.
b1100 $
b0 1
16
00
1!
b11 &
b11110100 4
b110 /
b0 '
sEXEC/1 -
b11110100 3
#57000000
0!
#57500000
b11110100 (
1!
b0 #
b1001 &
b1001 %
b0 $
b101 /
b11110100 '
b0 3
#58000000
0!
#58500000
b100 /
b1011 %
b1011 &
1!
#59000000
0!
#59500000
b11101110 4
b1010 $
1!
b11 /
b11111010 3
b1010 #
b1 &
b1 %
#60000000
0!
#60500000
b11101110 (
1!
b1101 #
b10 &
b10 %
b11101000 4
b1101 $
b10 /
b11101110 '
#61000000
0!
#61500000
b11101000 (
1!
b110 #
b1110 &
b1110 %
b11011100 4
b110 $
b1 /
b11101000 '
b11110100 3
#62000000
0!
#62500000
b11011100 (
10
0+
1!
06
b111 #
0,
b11 &
b11 %
b11110001 4
b111 $
b0 /
b11011100 '
sINIT/0 -
b10101 3
#63000000
0!
#63500000
b11001100 4
b1000 $
1!
b11110000 3
b1000 #
b10 &
b10 %
#64000000
0!
#64500000
1!
b1100 #
b101 &
b101 %
1.
b11001000 4
b1100 $
b10 1
b11101100 3
#65000000
0!
#65500000
b0 (
1+
b1 #
1,
b11 %
0.
05
b1 $
b0 1
16
00
1!
b11 &
b11 4
b10 /
b0 '
sEXEC/1 -
b11 3
#66000000
0!
#66500000
b11 (
1!
b1101 #
b1101 &
b1101 %
b1100 4
b1101 $
b1 /
b11 '
b1001 3
#67000000
0!
#67500000
b1100 (
10
0+
1!
06
b1100 #
0,
b0 &
b0 %
b1100 $
b0 /
b1100 '
sINIT/0 -
b0 3
#68000000
0!
#68500000
b0 $
1!
b0 #
b1100 &
b1100 %
#69000000
0!
#69500000
1!
b1000 #
b1111 &
b1111 %
1.
b10100 4
b1000 $
b10 1
b1000 3
#70000000
0!
#70500000
b0 (
00
1+
1!
16
b1010 #
1,
b10 &
b10 %
0.
b11110100 4
15
b1010 $
b10 /
b0 '
sEXEC/1 -
b11110100 3
#71000000
0!
#71500000
b11110100 (
1!
b1101 #
b1110 &
b1110 %
b11111010 4
b1101 $
b0 1
b1 /
b11110100 '
b110 3
#72000000
0!
#72500000
b11111010 (
10
0+
1!
06
b10 #
0,
b1100 &
b1100 %
b11110010 4
b10 $
b0 /
b11111010 '
sINIT/0 -
b11111000 3
#73000000
0!
#73500000
b11111000 4
b1111 $
1!
b11111110 3
b1111 #
b10 &
b10 %
#74000000
0!
#74500000
b101011 4
05
b111 $
1!
b110001 3
b111 #
b111 &
b111 %
