Lab4/Practice/pe.vcd
$comment Generated by Amaranth $end
$date 2023-04-05 09:10:06.300649 $end
$timescale 1 ps $end
$scope module bench $end
$scope module top $end
$var wire 1 ! clk $end
$var wire 1 " rst $end
$var wire 4 # in_a $end
$var wire 4 $ in_a$1 $end
$var wire 4 % in_b $end
$var wire 4 & in_b$1 $end
$var wire 8 ' out_d $end
$var wire 8 ( out_d$1 $end
$var wire 1 ) out_ovf $end
$var wire 1 * out_ovf$1 $end
$var wire 1 + in_a_valid $end
$var wire 1 , in_b_valid $end
$var wire 1 - in_rst $end
$var wire 3 . cnt $end
$var string 1 / fsm_state $end
$var wire 3 0 in_init $end
$var wire 1 1 in_rst$1 $end
$scope module mac $end
$var wire 1 ! clk $end
$var wire 1 " rst $end
$var wire 4 # in_a $end
$var wire 4 % in_b $end
$var wire 8 ( out_d $end
$var wire 1 * out_ovf $end
$var wire 1 + in_a_valid $end
$var wire 1 , in_b_valid $end
$var wire 1 - in_rst $end
$var wire 1 1 in_rst$1 $end
$var wire 8 2 mult $end
$var wire 8 3 current_out $end
$var wire 1 4 current_out_ovf $end
$var wire 1 5 out_d_valid $end
$upscope $end
$upscope $end
$upscope $end
$enddefinitions $end
#0
$dumpvars
0!
0"
b0 #
b0 $
b0 %
b0 &
b0 '
b0 (
0)
0*
0+
0,
0-
b0 .
sINIT/0 /
b0 0
01
b0 2
b0 3
04
05
$end
#500000
1!
b1 #
b1 $
b1001 &
b1001 %
14
b11111001 2
1-
b100 0
b11111001 3
#1000000
0!
#1500000
b100 .
sEXEC/1 /
1!
b101 #
1+
b101 $
b1010 &
b1010 %
1,
15
b11100010 2
0-
b0 0
b11100010 3
#2000000
0!
#2500000
b11 .
b11100010 '
b11100010 (
1!
b1000 #
b1000 $
b11 &
b11 %
b11101000 2
b11001010 3
#3000000
0!
#3500000
b10 .
b11001010 '
b11001010 (
1!
b1111 &
b1111 %
b1000 2
b11010010 3
#4000000
0!
#4500000
b1 .
b11010010 '
b11010010 (
1!
b0 #
b0 $
b1101 &
b1101 %
b0 2
#5000000
0!
#5500000
b0 .
sINIT/0 /
1!
b101 #
0+
b101 $
b1100 &
b1100 %
0,
05
b11101100 2
b10111110 3
#6000000
0!
#6500000
b11010101 3
b1 $
b11 &
b11 %
b11 2
1!
b1 #
#7000000
0!
#7500000
1!
b1100 #
b1100 $
b1101 &
b1101 %
b1100 2
1-
b11 0
b11011110 3
#8000000
0!
#8500000
b11 .
sEXEC/1 /
b0 '
b0 (
1!
b1001 #
1+
b1001 $
04
1,
15
b10101 2
0-
b0 0
b10101 3
#9000000
0!
#9500000
b10 .
b10101 '
b10101 (
1!
b1111 #
b1111 $
b11 2
b11000 3
#10000000
0!
#10500000
b1 .
b11000 '
b11000 (
1!
b10 #
b10 $
b1011 &
b1011 %
b11110110 2
b1110 3
#11000000
0!
#11500000
b0 .
sINIT/0 /
b1110 '
b1110 (
1!
0+
b1110 &
b1110 %
0,
05
b11111100 2
b1010 3
#12000000
0!
#12500000
1!
b1001 #
b1001 $
b11 &
b11 %
14
b11101011 2
1-
b111 0
b11111001 3
#13000000
0!
#13500000
b111 .
sEXEC/1 /
b0 '
b0 (
1!
b100 #
1+
b100 $
b101 &
b101 %
1,
04
15
b10100 2
0-
b0 0
b10100 3
#14000000
0!
#14500000
b110 .
b10100 '
b10100 (
1!
b101 #
b101 $
b111 &
b111 %
b100011 2
b110111 3
#15000000
0!
#15500000
b101 .
b110111 '
b110111 (
1!
b1011 #
b1011 $
b1010 &
b1010 %
b11110 2
b1010101 3
#16000000
0!
#16500000
b100 .
b1010101 '
b1010101 (
1!
b1001 #
b1001 $
b101010 2
b1111111 3
#17000000
0!
#17500000
b11 .
b1111111 '
b1111111 (
1!
b10 #
b10 $
b110 &
b110 %
b1100 2
b10001011 3
#18000000
0!
#18500000
b10 .
b10001011 '
b10001011 (
1)
1!
b1011 #
b1011 $
b1111 &
14
b1111 %
b101 2
b10 0
b10010000 3
1*
#19000000
0!
#19500000
b1 .
b10010000 '
b10010000 (
1!
b1100 #
b1100 $
b1011 &
b1011 %
b10100 2
b0 0
b10100100 3
#20000000
0!
#20500000
b0 .
sINIT/0 /
b10100100 '
b10100100 (
1!
b1101 #
0+
b1101 $
b101 &
b101 %
0,
05
b11110001 2
1-
b100 0
b10010101 3
#21000000
0!
#21500000
b100 .
sEXEC/1 /
b0 '
b0 (
0)
b1000 #
1+
04
b1100 %
1,
15
0-
b0 0
1!
b1000 $
b1100 &
b100000 2
b100000 3
0*
#22000000
0!
#22500000
b11 .
b100000 '
b100000 (
1!
b1100 #
b1100 $
b1111 &
b1111 %
b100 2
b100100 3
#23000000
0!
#23500000
b10 .
b100100 '
b100100 (
1!
b1111 #
b1111 $
b1010 &
b1010 %
b110 2
b101010 3
#24000000
0!
#24500000
b1 .
b101010 '
b101010 (
1!
b0 #
b0 $
b111 &
b111 %
b0 2
#25000000
0!
#25500000
b0 .
sINIT/0 /
1!
b1101 #
0+
b1101 $
b10 &
b10 %
0,
05
b11111010 2
b100100 3
#26000000
0!
#26500000
b1010100 3
b110 $
b111 &
b111 %
b101010 2
1!
b110 #
#27000000
0!
#27500000
1!
b1000 #
b1000 $
b1001 &
b1001 %
b111000 2
1-
b101 0
b1100010 3
#28000000
0!
#28500000
b101 .
sEXEC/1 /
b0 '
b0 (
1!
b1100 #
1+
b1100 $
b110 &
b110 %
1,
14
15
b11101000 2
0-
b0 0
b11101000 3
#29000000
0!
#29500000
b100 .
b11101000 '
b11101000 (
1!
b1011 #
b1011 $
b100 &
b100 %
b11101100 2
b11010100 3
#30000000
0!
#30500000
b11 .
b11010100 '
b11010100 (
1!
b101 #
b101 $
b1011 &
b1011 %
b11100111 2
b10111011 3
#31000000
0!
#31500000
b10 .
b10111011 '
b10111011 (
1!
b10 #
b10 $
b10 &
b10 %
b100 2
b10111111 3
#32000000
0!
#32500000
b1 .
b10111111 '
b10111111 (
1!
b110 #
b110 $
b110 &
b110 %
b100100 2
b11100011 3
#33000000
0!
#33500000
b0 .
sINIT/0 /
b11100011 '
b11100011 (
1!
0+
04
b111 &
b111 %
0,
05
b101010 2
b1101 3
#34000000
0!
#34500000
b11011101 3
14
b1111 &
b1111 %
b11111010 2
1-
b11 0
1!
#35000000
0!
#35500000
b11 .
sEXEC/1 /
b0 '
b0 (
1!
b0 #
1+
b0 $
b1001 &
b1001 %
1,
04
15
b0 2
0-
b0 0
b0 3
#36000000
0!
#36500000
b1110 3
b10 .
b10 $
b111 &
b111 %
b1110 2
1!
b10 #
#37000000
0!
#37500000
b1 .
b1110 '
b1110 (
1!
b110 &
b110 %
b1100 2
b111 0
b11010 3
#38000000
0!
#38500000
b0 .
sINIT/0 /
b11010 '
b11010 (
1!
b1010 #
0+
b1010 $
b11 &
b11 %
0,
05
b11101110 2
b0 0
b1000 3
#39000000
0!
#39500000
b11010 3
b1011 $
b0 &
b0 %
b0 2
1!
b1011 #
#40000000
0!
#40500000
b1001 $
1!
b1001 #
#41000000
0!
#41500000
b0 $
b1110 &
b1110 %
1!
b0 #
#42000000
0!
#42500000
b11110000 3
b110 $
b1001 &
b1001 %
14
b11010110 2
1!
b110 #
#43000000
0!
#43500000
b110110 3
b111 $
b100 &
b100 %
04
b11100 2
1!
b111 #
#44000000
0!
#44500000
1!
b1000 #
b1000 $
b10 &
b10 %
b11110000 2
1-
b10 0
b1010 3
#45000000
0!
#45500000
b10 .
sEXEC/1 /
b0 '
b0 (
1!
b111 #
1+
b111 $
1,
15
b1110 2
0-
b0 0
b1110 3
#46000000
0!
#46500000
b1 .
b1110 '
b1110 (
1!
b1000 #
b1000 $
b110 &
b110 %
14
b11010000 2
b11011110 3
#47000000
0!
#47500000
b0 .
sINIT/0 /
b11011110 '
b11011110 (
1!
b1111 #
0+
b1111 $
b1100 &
b1100 %
0,
05
b100 2
b11100010 3
#48000000
0!
#48500000
b11101000 3
b101 $
b10 &
b10 %
b1010 2
1!
b101 #
#49000000
0!
#49500000
1!
b1011 #
b1011 $
b1011 &
b1011 %
b11001 2
1-
b100 0
b11110111 3
#50000000
0!
#50500000
b100 .
sEXEC/1 /
b0 '
b0 (
1!
b1110 #
1+
b1110 $
b1100 &
04
b1100 %
1,
15
b1000 2
0-
b0 0
b1000 3
#51000000
0!
#51500000
b11 .
b1000 '
b1000 (
1!
b1000 #
b1000 $
b111 &
b111 %
14
b11001000 2
b11010000 3
#52000000
0!
#52500000
b10 .
b11010000 '
b11010000 (
1!
b1001 #
b1001 $
b1110 &
b1110 %
b1110 2
b11011110 3
#53000000
0!
#53500000
b1 .
b11011110 '
b11011110 (
1!
b111 #
b111 $
b1111 &
b1111 %
b11111001 2
b11010111 3
#54000000
0!
#54500000
b0 .
sINIT/0 /
b11010111 '
b11010111 (
1!
b11 #
0+
b11 $
b1010 &
b1010 %
0,
05
b11101110 2
b11000101 3
#55000000
0!
#55500000
1!
b1011 #
b1011 $
b1111 &
b1111 %
b101 2
1-
b110 0
b11011100 3
#56000000
0!
#56500000
b110 .
sEXEC/1 /
b0 '
b0 (
b1100 #
1+
b11 %
1,
15
0-
b0 0
1!
b1100 $
b11 &
b11110100 2
b11110100 3
#57000000
0!
#57500000
b101 .
b11110100 '
b11110100 (
1!
b0 #
b0 $
b1001 &
b1001 %
b0 2
#58000000
0!
#58500000
b100 .
b1011 &
1!
b1011 %
#59000000
0!
#59500000
b11101110 3
b11 .
b1010 $
b1 &
b1 %
b11111010 2
1!
b1010 #
#60000000
0!
#60500000
b10 .
b11101110 '
b11101110 (
1!
b1101 #
b1101 $
b10 &
b10 %
b11101000 3
#61000000
0!
#61500000
b1 .
b11101000 '
b11101000 (
1!
b110 #
b110 $
b1110 &
b1110 %
b11110100 2
b11011100 3
#62000000
0!
#62500000
b0 .
sINIT/0 /
b11011100 '
b11011100 (
1!
b111 #
0+
b111 $
b11 &
b11 %
0,
05
b10101 2
b11110001 3
#63000000
0!
#63500000
b11001100 3
b1000 $
b10 &
b10 %
b11110000 2
1!
b1000 #
#64000000
0!
#64500000
1!
b1100 #
b1100 $
b101 &
b101 %
b11101100 2
1-
b10 0
b11001000 3
#65000000
0!
#65500000
b10 .
sEXEC/1 /
b0 '
b0 (
1!
b1 #
1+
b1 $
b11 &
b11 %
1,
04
15
b11 2
0-
b0 0
b11 3
#66000000
0!
#66500000
b1 .
b11 '
b11 (
1!
b1101 #
b1101 $
b1101 &
b1101 %
b1001 2
b1100 3
#67000000
0!
#67500000
b0 .
sINIT/0 /
b1100 '
b1100 (
1!
b1100 #
0+
b1100 $
b0 &
b0 %
0,
05
b0 2
#68000000
0!
#68500000
b0 $
b1100 &
b1100 %
1!
b0 #
#69000000
0!
#69500000
1!
b1000 #
b1000 $
b1111 &
b1111 %
b1000 2
1-
b10 0
b10100 3
#70000000
0!
#70500000
b10 .
sEXEC/1 /
b0 '
b0 (
1!
b1010 #
1+
b1010 $
b10 &
b10 %
1,
14
15
b11110100 2
0-
b11110100 3
#71000000
0!
#71500000
b1 .
b11110100 '
b11110100 (
1!
b1101 #
b1101 $
b1110 &
b1110 %
b110 2
b0 0
b11111010 3
#72000000
0!
#72500000
b0 .
sINIT/0 /
b11111010 '
b11111010 (
1!
b10 #
0+
b10 $
b1100 &
b1100 %
0,
05
b11111000 2
b11110010 3
#73000000
0!
#73500000
b11111000 3
b1111 $
b10 &
b10 %
b11111110 2
1!
b1111 #
#74000000
0!
#74500000
b101011 3
b111 $
b111 &
b111 %
04
b110001 2
1!
b111 #
