Lab4/Practice/pe_stack.vcd
$comment Generated by Amaranth $end
$date 2023-04-05 01:27:25.733725 $end
$timescale 1 ps $end
$scope module bench $end
$scope module top $end
$var wire 1 ! clk $end
$var wire 1 " rst $end
$var wire 32 # out_d $end
$var wire 32 $ out_d$1 $end
$var wire 1 % out_ovf $end
$var wire 1 & out_ovf$1 $end
$var wire 8 ' in_a $end
$var wire 32 ( in_a$1 $end
$var wire 8 ) in_b $end
$var wire 32 * in_b$1 $end
$var wire 32 + in_data_4_0 $end
$var wire 32 , out_d$2 $end
$var string 1 - fsm_state $end
$var wire 5 . in_init $end
$var wire 5 / cnt $end
$var wire 1 0 out_ready $end
$var wire 5 1 in_init$1 $end
$var wire 8 2 in_a$2 $end
$var wire 8 3 in_b$2 $end
$var wire 32 4 in_data_4_1 $end
$var wire 32 5 out_d$3 $end
$var string 1 6 fsm_state$1 $end
$var wire 5 7 in_init$2 $end
$var wire 8 8 in_a$3 $end
$var wire 8 9 in_b$3 $end
$var wire 32 : in_data_4_2 $end
$var wire 32 ; out_d$4 $end
$var string 1 < fsm_state$2 $end
$var wire 5 = in_init$3 $end
$var wire 8 > in_a$4 $end
$var wire 8 ? in_b$4 $end
$var wire 32 @ in_data_4_3 $end
$var wire 32 A out_d$5 $end
$var string 1 B fsm_state$3 $end
$var wire 5 C in_init$4 $end
$var wire 1 D in_rst $end
$scope module U$1 $end
$var wire 1 ! clk $end
$var wire 1 " rst $end
$var wire 8 ' in_a $end
$var wire 8 ) in_b $end
$var wire 32 , out_d $end
$var wire 5 . in_init $end
$var wire 1 D in_rst $end
$var wire 8 c in_a$1 $end
$var wire 8 d in_b$1 $end
$var wire 32 e out_d$1 $end
$var wire 1 f out_ovf $end
$var wire 1 g out_ovf$1 $end
$var wire 1 h in_a_valid $end
$var wire 1 i in_b_valid $end
$var string 1 j fsm_state $end
$var wire 1 k in_rst$1 $end
$var wire 5 l cnt $end
$var wire 1 m out_d_valid $end
$scope module mac $end
$var wire 1 ! clk $end
$var wire 1 " rst $end
$var wire 1 D in_rst $end
$var wire 8 c in_a $end
$var wire 8 d in_b $end
$var wire 32 e out_d $end
$var wire 1 g out_ovf $end
$var wire 1 h in_a_valid $end
$var wire 1 i in_b_valid $end
$var wire 1 k in_rst$1 $end
$var wire 32 n mult $end
$var wire 32 o current_out $end
$var wire 1 p current_out_ovf $end
$var wire 1 q out_d_valid $end
$upscope $end
$upscope $end
$scope module U$2 $end
$var wire 1 ! clk $end
$var wire 1 " rst $end
$var wire 8 2 in_a $end
$var wire 8 3 in_b $end
$var wire 32 5 out_d $end
$var wire 5 7 in_init $end
$var wire 1 D in_rst $end
$var wire 8 r in_a$1 $end
$var wire 8 s in_b$1 $end
$var wire 32 t out_d$1 $end
$var wire 1 u out_ovf $end
$var wire 1 v out_ovf$1 $end
$var wire 1 w in_a_valid $end
$var wire 1 x in_b_valid $end
$var string 1 y fsm_state $end
$var wire 1 z in_rst$1 $end
$var wire 5 { cnt $end
$var wire 1 | out_d_valid $end
$scope module mac $end
$var wire 1 ! clk $end
$var wire 1 " rst $end
$var wire 1 D in_rst $end
$var wire 8 r in_a $end
$var wire 8 s in_b $end
$var wire 32 t out_d $end
$var wire 1 v out_ovf $end
$var wire 1 w in_a_valid $end
$var wire 1 x in_b_valid $end
$var wire 1 z in_rst$1 $end
$var wire 32 } mult $end
$var wire 32 ~ current_out $end
$var wire 1 !! current_out_ovf $end
$var wire 1 "! out_d_valid $end
$upscope $end
$upscope $end
$scope module U$3 $end
$var wire 1 ! clk $end
$var wire 1 " rst $end
$var wire 8 8 in_a $end
$var wire 8 9 in_b $end
$var wire 32 ; out_d $end
$var wire 5 = in_init $end
$var wire 1 D in_rst $end
$var wire 8 #! in_a$1 $end
$var wire 8 $! in_b$1 $end
$var wire 32 %! out_d$1 $end
$var wire 1 &! out_ovf $end
$var wire 1 '! out_ovf$1 $end
$var wire 1 (! in_a_valid $end
$var wire 1 )! in_b_valid $end
$var string 1 *! fsm_state $end
$var wire 1 +! in_rst$1 $end
$var wire 5 ,! cnt $end
$var wire 1 -! out_d_valid $end
$scope module mac $end
$var wire 1 ! clk $end
$var wire 1 " rst $end
$var wire 1 D in_rst $end
$var wire 8 #! in_a $end
$var wire 8 $! in_b $end
$var wire 32 %! out_d $end
$var wire 1 '! out_ovf $end
$var wire 1 (! in_a_valid $end
$var wire 1 )! in_b_valid $end
$var wire 1 +! in_rst$1 $end
$var wire 32 .! mult $end
$var wire 32 /! current_out $end
$var wire 1 0! current_out_ovf $end
$var wire 1 1! out_d_valid $end
$upscope $end
$upscope $end
$scope module U$4 $end
$var wire 1 ! clk $end
$var wire 1 " rst $end
$var wire 8 > in_a $end
$var wire 8 ? in_b $end
$var wire 32 A out_d $end
$var wire 5 C in_init $end
$var wire 1 D in_rst $end
$var wire 8 2! in_a$1 $end
$var wire 8 3! in_b$1 $end
$var wire 32 4! out_d$1 $end
$var wire 1 5! out_ovf $end
$var wire 1 6! out_ovf$1 $end
$var wire 1 7! in_a_valid $end
$var wire 1 8! in_b_valid $end
$var string 1 9! fsm_state $end
$var wire 1 :! in_rst$1 $end
$var wire 5 ;! cnt $end
$var wire 1 <! out_d_valid $end
$scope module mac $end
$var wire 1 ! clk $end
$var wire 1 " rst $end
$var wire 1 D in_rst $end
$var wire 8 2! in_a $end
$var wire 8 3! in_b $end
$var wire 32 4! out_d $end
$var wire 1 6! out_ovf $end
$var wire 1 7! in_a_valid $end
$var wire 1 8! in_b_valid $end
$var wire 1 :! in_rst$1 $end
$var wire 32 =! mult $end
$var wire 32 >! current_out $end
$var wire 1 ?! current_out_ovf $end
$var wire 1 @! out_d_valid $end
$upscope $end
$upscope $end
$scope module adder_tree $end
$var wire 32 $ out_d $end
$var wire 1 & out_ovf $end
$var wire 32 + in_data_4_0 $end
$var wire 32 4 in_data_4_1 $end
$var wire 32 : in_data_4_2 $end
$var wire 32 @ in_data_4_3 $end
$var wire 32 E in_data_2_0 $end
$var wire 32 F in_data_2_0$1 $end
$var wire 1 G in_valid_2_0 $end
$var wire 1 H in_valid_4_0 $end
$var wire 1 I in_valid_2_0$1 $end
$var wire 1 J in_valid_4_2 $end
$var wire 1 K in_ovf_2_0 $end
$var wire 1 L in_ovf_4_0 $end
$var wire 1 M in_ovf_2_0$1 $end
$var wire 1 N in_ovf_4_2 $end
$var wire 32 O in_data_2_1 $end
$var wire 32 P in_data_2_1$1 $end
$var wire 1 Q in_valid_2_1 $end
$var wire 1 R in_valid_4_1 $end
$var wire 1 S in_valid_2_1$1 $end
$var wire 1 T in_valid_4_3 $end
$var wire 1 U in_ovf_2_1 $end
$var wire 1 V in_ovf_4_1 $end
$var wire 1 W in_ovf_2_1$1 $end
$var wire 1 X in_ovf_4_3 $end
$var wire 1 Y current_ovf $end
$var wire 32 Z out_d$1 $end
$var wire 32 [ out_d$2 $end
$var wire 1 \ out_valid $end
$var wire 1 ] out_valid$1 $end
$var wire 1 ^ out_valid$2 $end
$var wire 1 _ out_ovf$1 $end
$var wire 1 ` out_ovf$2 $end
$scope module tree_l $end
$var wire 32 E in_data_2_0 $end
$var wire 1 G in_valid_2_0 $end
$var wire 1 K in_ovf_2_0 $end
$var wire 32 O in_data_2_1 $end
$var wire 1 Q in_valid_2_1 $end
$var wire 1 U in_ovf_2_1 $end
$var wire 32 Z out_d $end
$var wire 1 ] out_valid $end
$var wire 1 _ out_ovf $end
$var wire 1 a current_ovf $end
$upscope $end
$scope module tree_r $end
$var wire 32 F in_data_2_0 $end
$var wire 1 I in_valid_2_0 $end
$var wire 1 M in_ovf_2_0 $end
$var wire 32 P in_data_2_1 $end
$var wire 1 S in_valid_2_1 $end
$var wire 1 W in_ovf_2_1 $end
$var wire 32 [ out_d $end
$var wire 1 ^ out_valid $end
$var wire 1 ` out_ovf $end
$var wire 1 b current_ovf $end
$upscope $end
$upscope $end
$upscope $end
$upscope $end
$enddefinitions $end
#0
$dumpvars
0!
0"
b0 #
b0 $
0%
0&
b0 '
b0 (
b0 )
b0 *
b0 +
b0 ,
sINIT/0 -
b0 .
b0 /
00
b0 1
b0 2
b0 3
b0 4
b0 5
sINIT/0 6
b0 7
b0 8
b0 9
b0 :
b0 ;
sINIT/0 <
b0 =
b0 >
b0 ?
b0 @
b0 A
sINIT/0 B
b0 C
0D
b0 E
b0 F
0G
0H
0I
0J
0K
0L
0M
0N
b0 O
b0 P
0Q
0R
0S
0T
0U
0V
0W
0X
0Y
b0 Z
b0 [
0\
0]
0^
0_
0`
0a
0b
b0 c
b0 d
b0 e
0f
0g
0h
0i
sINIT/0 j
0k
b0 l
0m
b0 n
b0 o
0p
0q
b0 r
b0 s
b0 t
0u
0v
0w
0x
sINIT/0 y
0z
b0 {
0|
b0 }
b0 ~
0!!
0"!
b0 #!
b0 $!
b0 %!
0&!
0'!
0(!
0)!
sINIT/0 *!
0+!
b0 ,!
0-!
b0 .!
b0 /!
00!
01!
b0 2!
b0 3!
b0 4!
05!
06!
07!
08!
sINIT/0 9!
0:!
b0 ;!
0<!
b0 =!
b0 >!
0?!
0@!
$end
#500000
b111 7
b111 C
1z
b111 .
1k
b111 1
1+!
1:!
b111 =
1!
#1000000
0!
#1500000
b11001011 )
b111 l
b111 ,!
b1101010 '
1(!
b11111111111111111110101000001110 o
1p
b0 .
1q
0+!
b1101010 c
sEXEC/1 <
b1110 2
1)!
b0 =
1w
b1011100 8
b0 7
1h
sEXEC/1 B
0z
b10100000 3
1i
b1010011000001 >!
1x
sEXEC/1 9!
0k
b1010011000001 =!
b10111011 3!
b10111011 ?
sEXEC/1 j
b10110011 2!
b11100110000 /!
b10110011 >
sEXEC/1 *!
b111 /
b0 C
b11100110000 .!
1@!
b10100 $!
b10110011010111000000111001101010 (
b11111111111111111111101011000000 ~
b1011100 #!
b10111011000101001010000011001011 *
sEXEC/1 y
1!
b10100000 s
b11111111111111111111101011000000 }
11!
sEXEC/1 -
b1110 r
b111 {
b111 ;!
17!
b0 1
1!!
b11111111111111111110101000001110 n
1"!
0:!
sEXEC/1 6
b10100 9
b11001011 d
18!
#2000000
0!
#2500000
b11101011 )
b110 l
b110 ,!
b1100110 '
b11111111111111111110000110110000 o
b11100110000 ;
b11100110000 %!
b11111111111111111111101011000000 4
b1100110 c
b10100 2
b1010011000001 A
b10111100 8
b11111111111111111111101011000000 t
b11111100 3
b10010010010000 >!
b11111111111111111110010011001110 Z
b1010011000001 @
b111111001111 =!
b111001 3!
b11111111111111111110101000001110 e
b11111111111111111111101011000000 O
b1101111110001 [
b111001 ?
b1000111 2!
b110011100 /!
b1000111 >
b110 /
b11111111111111111111101001101100 .!
b10101 $!
b11111111111111111110101000001110 E
b10111111 $
b1000111101111000001010001100110 (
b11111111111111111111101001110000 ~
b10111100 #!
b111001000101011111110011101011 *
b11100110000 F
1!
b11111111111111111110101000001110 ,
b11111100 s
b11111111111111111111111110110000 }
1a
b10100 r
b1010011000001 P
b110 {
b11111111111111111111101011000000 5
b110 ;!
b10111111 #
b11111111111111111110101000001110 +
b1010011000001 4!
b11111111111111111111011110100010 n
b11100110000 :
b10101 9
b11101011 d
#3000000
0!
#3500000
b111010 )
b101 l
b101 ,!
b1001010 '
b11111111111111111111001001110100 o
b110011100 ;
b110011100 %!
b11111111111111111111101001110000 4
b1001010 c
b11010110 2
b10010010010000 A
b11010010 8
b11111111111111111111101001110000 t
b11011010 3
b100111000101000 >!
b11111111111111111101110000100000 Z
b10010010010000 @
b10100110011000 =!
b1011000 3!
b11111111111111111110000110110000 e
b11111111111111111111101001110000 O
b10011000101100 [
b1011000 ?
b1111001 2!
b11111111111111111111100011111100 /!
b1111001 >
b101 /
b11111111111111111111011101100000 .!
b110000 $!
b11111111111111111110000110110000 E
b1001001100 $
b1111001110100101101011001001010 (
b10101100 ~
b11010010 #!
b1011000001100001101101000111010 *
b110011100 F
10!
1!
b11111111111111111110000110110000 ,
b11011010 s
b11000111100 }
b11010110 r
b10010010010000 P
b101 {
b11111111111111111111101001110000 5
b101 ;!
b1001001100 #
b11111111111111111110000110110000 +
0!!
b10010010010000 4!
b1000011000100 n
b110011100 :
b110000 9
b111010 d
#4000000
0!
#4500000
b11011011 )
b100 l
b100 ,!
b1100011 '
b11111111111111111110010000100101 o
b11111111111111111111100011111100 ;
b11111111111111111111100011111100 %!
b10101100 4
b1100011 c
b1110100 2
b100111000101000 A
b1010111 8
b10101100 t
b11111111 3
b100111010010100 >!
b11111111111111111111001100100000 Z
b100111000101000 @
b1101100 =!
b11111110 3!
b11111111111111111111001001110100 e
b10101100 O
b100011100100100 [
b11111110 ?
b11001010 2!
b11111111111111111101101101101011 /!
b11001010 >
b100 /
b11111111111111111110001001101111 .!
b10101001 $!
b11111111111111111111001001110100 E
b11101001000100 $
b11001010010101110111010001100011 (
b111000 ~
b1010111 #!
b11111110101010011111111111011011 *
b11111111111111111111100011111100 F
1!
b11111111111111111111001001110100 ,
b11111111 s
b11111111111111111111111110001100 }
b1110100 r
b100111000101000 P
b100 {
b10101100 5
b100 ;!
b11101001000100 #
b11111111111111111111001001110100 +
b100111000101000 4!
b11111111111111111111000110110001 n
b11111111111111111111100011111100 :
b10101001 9
b11011011 d
#5000000
0!
#5500000
b10111101 )
b11 l
b11 ,!
b10010101 '
b100110 o
b11111111111111111101101101101011 ;
0p
b11111111111111111101101101101011 %!
b111000 4
b10010101 c
b10000010 2
b100111010010100 A
b10010111 8
b111000 t
b1110 3
b11001011010001 >!
b11111111111111111110010001011101 Z
b100111010010100 @
b11111111111111111110010000111101 =!
b10111011 3!
b11111111111111111110010000100101 e
b111000 O
b10100111111111 [
b10111011 ?
b1100111 2!
b11111111111111111110111110000100 /!
b1100111 >
b11 /
b1010000011001 .!
b11001111 $!
b11111111111111111110010000100101 E
b111001011100 $
b1100111100101111000001010010101 (
b11111111111111111111100101010100 ~
b10010111 #!
b10111011110011110000111010111101 *
b11111111111111111101101101101011 F
1!
b11111111111111111110010000100101 ,
b1110 s
b11111111111111111111100100011100 }
b10000010 r
b100111010010100 P
b11 {
b111000 5
b11 ;!
b111001011100 #
1!!
b11111111111111111110010000100101 +
b100111010010100 4!
b1110000000001 n
b11111111111111111101101101101011 :
b11001111 9
b10111101 d
#6000000
0!
#6500000
b110010 )
b10 l
b10 ,!
b11101011 '
b11111111111111111111110000001100 o
b11111111111111111110111110000100 ;
1p
b11111111111111111110111110000100 %!
b11111111111111111111100101010100 4
b11101011 c
b1010111 2
b11001011010001 A
b1 8
b11111111111111111111100101010100 t
b10111101 3
b10010100110101 >!
b11111111111111111111100101111010 Z
b11001011010001 @
b11111111111111111111001001100100 =!
b10111101 3!
b100110 e
b11111111111111111111100101010100 O
b10001001010101 [
b10111101 ?
b110100 2!
b11111111111111111110111100110010 /!
b110100 >
b10 /
b11111111111111111111111110101110 .!
b10101110 $!
b100110 E
b1101111001111 $
b110100000000010101011111101011 (
b11111111111111111110001010001111 ~
b1 #!
b10111101101011101011110100110010 *
b11111111111111111110111110000100 F
1!
b100110 ,
b10111101 s
b11111111111111111110100100111011 }
b1010111 r
b11001011010001 P
b10 {
b11111111111111111111100101010100 5
b10 ;!
b1101111001111 #
b100110 +
b11001011010001 4!
b11111111111111111111101111100110 n
b11111111111111111110111110000100 :
b10101110 9
b110010 d
#7000000
0!
#7500000
b111111 )
b1 l
b1 ,!
b10111111 '
b11111111111111111110110000001101 o
b11111111111111111110111100110010 ;
1Y
b11111111111111111110111100110010 %!
b11111111111111111110001010001111 4
b10111111 c
b10000001 2
b10010100110101 A
b100101 8
b11111111111111111110001010001111 t
b11110011 3
b11111111111111111111101111010100 >!
b11111111111111111101111010011011 Z
b10010100110101 @
b11111111111111111101011010011111 =!
b1101011 3!
b11111111111111111111110000001100 e
b11111111111111111110001010001111 O
b1010001100111 [
b1101011 ?
b10011101 2!
b11111111111111111111011100000000 /!
b10011101 >
1?!
b1 /
b11111001110 .!
b110110 $!
b11111111111111111111110000001100 E
b11111111111111111111001100000010 $
b10011101001001011000000110111111 (
b11111111111111111110100100000010 ~
b100101 #!
b1101011001101101111001100111111 *
b11111111111111111110111100110010 F
1!
b11111111111111111111110000001100 ,
b11110011 s
b11001110011 }
b10000001 r
b10010100110101 P
b1 {
b11111111111111111110001010001111 5
b1 ;!
b11111111111111111111001100000010 #
b11111111111111111111110000001100 +
b10010100110101 4!
b11111111111111111111000000000001 n
b11111111111111111110111100110010 :
b110110 9
b111111 d
#8000000
0!
#8500000
b0 )
b0 l
b0 '
0(!
b11111111111111111111011100000000 ;
b11111111111111111111011100000000 %!
b11001 .
b11111111111111111110100100000010 4
b0 c
sINIT/0 <
1+!
b0 2
1m
0)!
b11001 =
b11111111111111111111101111010100 A
b0 8
b11001 7
0h
sINIT/0 B
0"!
b0 3
0i
sINIT/0 9!
b11111111111111111111101111010100 @
1k
b0 3!
b11111111111111111110110000001101 e
1<!
b0 ?
sINIT/0 j
b0 2!
b0 >
b11001 C
b0 .!
b11111111111111111100011111100011 $
sINIT/0 y
b0 s
01!
1|
b0 r
b0 {
07!
b11111111111111111111101111010100 4!
b0 n
1:!
08!
b0 ,!
0q
0w
b11111111111111111110100100000010 t
1z
0x
b11111111111111111101010100001111 Z
b0 =!
b11111111111111111110100100000010 O
b11111111111111111111001011010100 [
sINIT/0 *!
b0 /
0@!
b0 $!
1-!
b11111111111111111110110000001101 E
b0 (
b0 #!
b0 *
b11111111111111111111011100000000 F
1!
b11111111111111111110110000001101 ,
b0 }
sINIT/0 -
b11111111111111111111101111010100 P
b11111111111111111110100100000010 5
b0 ;!
10
b11001 1
b11111111111111111100011111100011 #
b11111111111111111110110000001101 +
1b
b11111111111111111111011100000000 :
sINIT/0 6
b0 9
b0 d
#9000000
0!
#9500000
b11001000 )
b11001 l
b10000110 '
1(!
b0 ;
b1101010110000 o
b0 %!
b0 .
0+!
b0 4
sEXEC/1 <
b10000110 c
b110010 2
0m
1)!
b0 =
b0 A
b11100100 8
b0 7
1h
sEXEC/1 B
1"!
b10000110 3
1i
b11111111111111111110110001010000 >!
sEXEC/1 9!
0k
b0 @
b101000 3!
b0 e
0<!
b101000 ?
sEXEC/1 j
b10000010 2!
b10000010 >
b0 C
b11111111111111111111110100001100 .!
b0 $
b11111111111111111110100000101100 ~
sEXEC/1 y
b10000110 s
11!
0|
b110010 r
b11001 {
17!
b0 4!
b1101010110000 n
0:!
18!
b11001 ,!
0p
0Y
1q
1w
b0 t
0z
1x
b0 Z
b11111111111111111110110001010000 =!
b0 O
b0 [
b11111111111111111111110100001100 /!
sEXEC/1 *!
b11001 /
1@!
b11011 $!
0-!
b0 E
b10000010111001000011001010000110 (
b11100100 #!
b101000000110111000011011001000 *
b0 F
1!
b0 ,
b11111111111111111110100000101100 }
sEXEC/1 -
0a
b0 P
b0 5
b11001 ;!
00
b0 1
b0 #
b0 +
0b
b0 :
sEXEC/1 6
b11011 9
b11001000 d
#10000000
0!
#10500000
b100000 )
b11000 l
b11000 ,!
b10001 '
b1110011010000 o
b11111111111111111111110100001100 ;
1Y
b11111111111111111111110100001100 %!
b11111111111111111110100000101100 4
b10001 c
b10100110 2
b11111111111111111110110001010000 A
b1001000 8
b11111111111111111110100000101100 t
b10100001 3
b11111111111111111111000111011100 >!
b1011011100 Z
b11111111111111111110110001010000 @
b10110001100 =!
b1000111 3!
b1101010110000 e
b11111111111111111110100000101100 O
b11111111111111111110100101011100 [
b1000111 ?
b10100 2!
b100100 /!
b10100 >
b11000 /
b1100011000 .!
b1011 $!
b1101010110000 E
b11111111111111111110110000111000 $
b10100010010001010011000010001 (
b100110010010 ~
b1001000 #!
b1000111000010111010000100100000 *
b11111111111111111111110100001100 F
00!
1!
b1101010110000 ,
b10100001 s
b10000101100110 }
b10100110 r
b11111111111111111110110001010000 P
b11000 {
b11111111111111111110100000101100 5
b11000 ;!
b11111111111111111110110000111000 #
b1101010110000 +
0!!
b11111111111111111110110001010000 4!
b1000100000 n
1b
b11111111111111111111110100001100 :
b1011 9
b100000 d
#11000000
0!
#11500000
b111101 )
b10111 l
b10111 ,!
b1101 '
b1111111101001 o
b100100 ;
0Y
b100100 %!
b100110010010 4
b1101 c
b111011 2
b11111111111111111111000111011100 A
b1011000 8
b100110010010 t
b10010110 3
b11111111111111111101101011101001 >!
b10011001100010 Z
b11111111111111111111000111011100 @
b11111111111111111110100100001101 =!
b101111 3!
b1110011010000 e
b100110010010 O
b11111111111111111111001000000000 [
b101111 ?
b10000011 2!
b11111111111111111111110010110100 /!
b10000011 >
b10111 /
b11111111111111111111110010010000 .!
b11110110 $!
b1110011010000 E
b1100001100010 $
b10000011010110000011101100001101 (
b11111111111111111111000100100100 ~
b1011000 #!
b101111111101101001011000111101 *
b100100 F
10!
1!
b1110011010000 ,
b10010110 s
b11111111111111111110011110010010 }
b111011 r
b11111111111111111111000111011100 P
b10111 {
b100110010010 5
b10111 ;!
b1100001100010 #
b1110011010000 +
1!!
b11111111111111111111000111011100 4!
b1100011001 n
b100100 :
b11110110 9
b111101 d
#12000000
0!
#12500000
b10101011 )
b10110 l
b10110 ,!
b1011001 '
b1001011100 o
b11111111111111111111110010110100 ;
1Y
b11111111111111111111110010110100 %!
b11111111111111111111000100100100 4
b1011001 c
b1000 2
b11111111111111111101101011101001 A
b11111001 8
b11111111111111111111000100100100 t
b1100010 3
b11111111111111111101110101010000 >!
b1000100001101 Z
b11111111111111111101101011101001 @
b1001100111 =!
b11010111 3!
b1111111101001 e
b11111111111111111111000100100100 O
b11111111111111111101011110011101 [
b11010111 ?
b11110001 2!
b11111111111111111111101110111000 /!
b11110001 >
b10110 /
b11111111111111111111111100000100 .!
b100100 $!
b1111111101001 E
b11111111111111111110100010101010 $
b11110001111110010000100001011001 (
b11111111111111111111010000110100 ~
b11111001 #!
b11010111001001000110001010101011 *
b11111111111111111111110010110100 F
1!
b1111111101001 ,
b1100010 s
b1100010000 }
b1000 r
b11111111111111111101101011101001 P
b10110 {
b11111111111111111111000100100100 5
b10110 ;!
b11111111111111111110100010101010 #
b1111111101001 +
b11111111111111111101101011101001 4!
b11111111111111111110001001110011 n
b11111111111111111111110010110100 :
b100100 9
b10101011 d
#13000000
0!
#13500000
b100010 )
b10101 l
b10101 ,!
b1011011 '
b111001110010 o
b11111111111111111111101110111000 ;
b11111111111111111111101110111000 %!
b11111111111111111111010000110100 4
b1011011 c
b1010011 2
b11111111111111111101110101010000 A
b10000001 8
b11111111111111111111010000110100 t
b11011010 3
b11111111111111111111001000111100 >!
b11111111111111111111011010010000 Z
b11111111111111111101110101010000 @
b1010011101100 =!
b1100111 3!
b1001011100 e
b11111111111111111111010000110100 O
b11111111111111111101100100001000 [
b1100111 ?
b110100 2!
b1000100001101 /!
b110100 >
b10101 /
b1010101010101 .!
b11010101 $!
b1001011100 E
b11111111111111111100111110011000 $
b110100100000010101001101011011 (
b11111111111111111110011111100010 ~
b10000001 #!
b1100111110101011101101000100010 *
b11111111111111111111101110111000 F
00!
1!
b1001011100 ,
b11011010 s
b11111111111111111111001110101110 }
1a
b1010011 r
b11111111111111111101110101010000 P
b10101 {
b11111111111111111111010000110100 5
b10101 ;!
b11111111111111111100111110011000 #
b1001011100 +
b11111111111111111101110101010000 4!
b110000010110 n
b11111111111111111111101110111000 :
b11010101 9
b100010 d
#14000000
0!
#14500000
b10101110 )
b10100 l
b10100 ,!
b10101011 '
b10100110101100 o
b1000100001101 ;
b1000100001101 %!
b11111111111111111110011111100010 4
b10101011 c
b11000110 2
b11111111111111111111001000111100 A
b10111011 8
b11111111111111111110011111100010 t
b1100100 3
b11111111111111111101011010111100 >!
b11111111111111111111011001010100 Z
b11111111111111111111001000111100 @
b11111111111111111110010010000000 =!
b11000000 3!
b111001110010 e
b11111111111111111110011111100010 O
b1101001001 [
b11000000 ?
b1101110 2!
b1100100100011 /!
b1101110 >
b10100 /
b100000010110 .!
b11100010 $!
b111001110010 E
b11111111111111111111100110011101 $
b1101110101110111100011010101011 (
b11111111111111111101000100111010 ~
b10111011 #!
b11000000111000100110010010101110 *
b1000100001101 F
1!
b111001110010 ,
b1100100 s
b11111111111111111110100101011000 }
b11000110 r
b11111111111111111111001000111100 P
b10100 {
b11111111111111111110011111100010 5
b10100 ;!
b11111111111111111111100110011101 #
b111001110010 +
0b
b11111111111111111111001000111100 4!
b1101100111010 n
b1000100001101 :
b11100010 9
b10101110 d
#15000000
0!
#15500000
b100 )
b10011 l
b10011 ,!
b100010 '
b10101000110100 o
b1100100100011 ;
b1100100100011 %!
b11111111111111111101000100111010 4
b100010 c
b10101110 2
b11111111111111111101011010111100 A
b111 8
b11111111111111111101000100111010 t
b0 3
b11111111111111111101011110001000 >!
b11111111111111111111101011100110 Z
b11111111111111111101011010111100 @
b11001100 =!
b11001101 3!
b10100110101100 e
b11111111111111111101000100111010 O
b11111111111111111110111111011111 [
b11001101 ?
b11111100 2!
b1010110110001 /!
b11111100 >
b10011 /
b11111111111111111111110010001110 .!
b10000010 $!
b10100110101100 E
b11111111111111111110101011000101 $
b11111100000001111010111000100010 (
b111 #!
b11001101100000100000000000000100 *
b1100100100011 F
1!
b10100110101100 ,
b0 s
b0 }
b10101110 r
b11111111111111111101011010111100 P
b10011 {
b11111111111111111101000100111010 5
b10011 ;!
b11111111111111111110101011000101 #
b10100110101100 +
1b
b11111111111111111101011010111100 4!
b10001000 n
b1100100100011 :
b10000010 9
b100 d
#16000000
0!
#16500000
b10001101 )
b10010 l
b10010 ,!
b110001 '
b1010000110001 o
b1010110110001 ;
b1010110110001 %!
b110001 c
b10100011 2
b11111111111111111101011110001000 A
b1010000 8
b11111110 3
b11111111111111111101111101001101 >!
b11111111111111111111101101101110 Z
b11111111111111111101011110001000 @
b11111000101 =!
b11011001 3!
b10101000110100 e
b11111111111111111110110100111001 [
b11001101 2!
b11011001 ?
b1001010010001 /!
b11001101 >
b10010 /
b11111111111111111111110011100000 .!
b11110110 $!
b10101000110100 E
b11111111111111111110100010100111 $
b11001101010100001010001100110001 (
b11111111111111111101000111110100 ~
b1010000 #!
b11011001111101101111111010001101 *
b1010110110001 F
1!
b10101000110100 ,
b11111110 s
b10111010 }
b10100011 r
b11111111111111111101011110001000 P
b10010 {
b10010 ;!
b11111111111111111110100010100111 #
b10101000110100 +
b11111111111111111101011110001000 4!
b11111111111111111110100111111101 n
b1010110110001 :
b11110110 9
b10001101 d
#17000000
0!
#17500000
b11001110 )
b10001 l
b10001 ,!
b11111101 '
b1010011000111 o
b1001010010001 ;
b1001010010001 %!
b11111111111111111101000111110100 4
b11111101 c
b1 2
b11111111111111111101111101001101 A
b10000011 8
b11111111111111111101000111110100 t
b10001000 3
b100001010111 >!
b11111111111111111110011000100101 Z
b11111111111111111101111101001101 @
b10100100001010 =!
b1100110 3!
b1010000110001 e
b11111111111111111101000111110100 O
b11111111111111111111000111011110 [
b1100110 ?
b1100111 2!
b10111011111 /!
b1100111 >
0?!
b10001 /
b11111111111111111111001101001110 .!
b11010 $!
b1010000110001 E
b11111111111111111101100000000011 $
b1100111100000110000000111111101 (
b11111111111111111101000101111100 ~
b10000011 #!
b1100110000110101000100011001110 *
b1001010010001 F
1!
b1010000110001 ,
b10001000 s
b11111111111111111111111110001000 }
b1 r
b11111111111111111101111101001101 P
b10001 {
b11111111111111111101000111110100 5
b10001 ;!
b11111111111111111101100000000011 #
b1010000110001 +
b11111111111111111101111101001101 4!
b10010110 n
b1001010010001 :
b11010 9
b11001110 d
#18000000
0!
#18500000
b1111011 )
b10000 l
b10000 ,!
b11 '
b1011000111000 o
b10111011111 ;
b10111011111 %!
b11111111111111111101000101111100 4
b11 c
b1101001 2
b100001010111 A
b110101 8
b11111111111111111101000101111100 t
b101001 3
b110011101 >!
b11111111111111111110011001000011 Z
b100001010111 @
b11111111111111111111100101000110 =!
b1110 3!
b1010011000111 e
b11111111111111111101000101111100 O
b111000110110 [
b1110 ?
b10000101 2!
b1100001001100 /!
b10000101 >
b10000 /
b1001001101101 .!
b1011001 $!
b1010011000111 E
b11111111111111111111010001111001 $
b10000101001101010110100100000011 (
b11111111111111111110001001001101 ~
b110101 #!
b1110010110010010100101111011 *
b10111011111 F
1!
b1010011000111 ,
b101001 s
b1000011010001 }
b1101001 r
b100001010111 P
b10000 {
b11111111111111111101000101111100 5
b10000 ;!
b11111111111111111111010001111001 #
b1010011000111 +
0b
b100001010111 4!
b101110001 n
b10111011111 :
b1011001 9
b1111011 d
#19000000
0!
#19500000
b1011111 )
b1111 l
b1111 ,!
b10010001 '
b11111111111111111110110100000111 o
b1100001001100 ;
1p
0Y
b1100001001100 %!
b11111111111111111110001001001101 4
b10010001 c
b10111110 2
b110011101 A
b11011100 8
b11111111111111111110001001001101 t
b111110 3
b11111111111111111111011011011001 >!
b11111111111111111111100010000101 Z
b110011101 @
b11111111111111111111010100111100 =!
b11001100 3!
b1011000111000 e
b11111111111111111110001001001101 O
b1100111101001 [
b11001100 ?
b110101 2!
b10001101000100 /!
b110101 >
1?!
b1111 /
b101011111000 .!
b10110010 $!
b1011000111000 E
b1001001101110 $
b110101110111001011111010010001 (
b11111111111111111101001001010001 ~
b11011100 #!
b11001100101100100011111001011111 *
b1100001001100 F
1!
b1011000111000 ,
b111110 s
b11111111111111111111000000000100 }
b10111110 r
b110011101 P
b1111 {
b11111111111111111110001001001101 5
b1111 ;!
b1001001101110 #
b1011000111000 +
b110011101 4!
b11111111111111111101011011001111 n
b1100001001100 :
b10110010 9
b1011111 d
#20000000
0!
