Lab4/Practice/pe_stack.vcd
$comment Generated by Amaranth $end
$date 2023-04-05 09:37:34.374449 $end
$timescale 1 ps $end
$scope module bench $end
$scope module top $end
$var wire 1 ! clk $end
$var wire 1 " rst $end
$var wire 32 # out_d $end
$var wire 32 $ out_d$1 $end
$var wire 1 % out_ovf $end
$var wire 1 & out_ovf$1 $end
$var wire 8 ' in_a $end
$var wire 32 ( in_a$1 $end
$var wire 8 ) in_b $end
$var wire 32 * in_b$1 $end
$var wire 32 + in_data_4_0 $end
$var wire 32 , out_d$2 $end
$var wire 1 - in_valid_4_0 $end
$var string 1 . fsm_state $end
$var wire 5 / in_init $end
$var wire 5 0 cnt $end
$var wire 1 1 out_ready $end
$var wire 5 2 in_init$1 $end
$var wire 8 3 in_a$2 $end
$var wire 8 4 in_b$2 $end
$var wire 32 5 in_data_4_1 $end
$var wire 32 6 out_d$3 $end
$var wire 1 7 in_valid_4_1 $end
$var string 1 8 fsm_state$1 $end
$var wire 5 9 in_init$2 $end
$var wire 8 : in_a$3 $end
$var wire 8 ; in_b$3 $end
$var wire 32 < in_data_4_2 $end
$var wire 32 = out_d$4 $end
$var wire 1 > in_valid_4_2 $end
$var string 1 ? fsm_state$2 $end
$var wire 5 @ in_init$3 $end
$var wire 8 A in_a$4 $end
$var wire 8 B in_b$4 $end
$var wire 32 C in_data_4_3 $end
$var wire 32 D out_d$5 $end
$var wire 1 E in_valid_4_3 $end
$var string 1 F fsm_state$3 $end
$var wire 5 G in_init$4 $end
$var wire 1 H in_rst $end
$scope module U$1 $end
$var wire 1 ! clk $end
$var wire 1 " rst $end
$var wire 8 ' in_a $end
$var wire 8 ) in_b $end
$var wire 32 , out_d $end
$var wire 5 / in_init $end
$var wire 1 H in_rst $end
$var wire 8 c in_a$1 $end
$var wire 8 d in_b$1 $end
$var wire 32 e out_d$1 $end
$var wire 1 f out_ovf $end
$var wire 1 g out_ovf$1 $end
$var wire 1 h in_a_valid $end
$var wire 1 i in_b_valid $end
$var string 1 j fsm_state $end
$var wire 1 k in_rst$1 $end
$var wire 5 l cnt $end
$var wire 1 m out_d_valid $end
$scope module mac $end
$var wire 1 ! clk $end
$var wire 1 " rst $end
$var wire 1 H in_rst $end
$var wire 8 c in_a $end
$var wire 8 d in_b $end
$var wire 32 e out_d $end
$var wire 1 g out_ovf $end
$var wire 1 h in_a_valid $end
$var wire 1 i in_b_valid $end
$var wire 1 k in_rst$1 $end
$var wire 32 n mult $end
$var wire 32 o current_out $end
$var wire 1 p current_out_ovf $end
$var wire 1 q out_d_valid $end
$upscope $end
$upscope $end
$scope module U$2 $end
$var wire 1 ! clk $end
$var wire 1 " rst $end
$var wire 8 3 in_a $end
$var wire 8 4 in_b $end
$var wire 32 6 out_d $end
$var wire 5 9 in_init $end
$var wire 1 H in_rst $end
$var wire 8 r in_a$1 $end
$var wire 8 s in_b$1 $end
$var wire 32 t out_d$1 $end
$var wire 1 u out_ovf $end
$var wire 1 v out_ovf$1 $end
$var wire 1 w in_a_valid $end
$var wire 1 x in_b_valid $end
$var string 1 y fsm_state $end
$var wire 1 z in_rst$1 $end
$var wire 5 { cnt $end
$var wire 1 | out_d_valid $end
$scope module mac $end
$var wire 1 ! clk $end
$var wire 1 " rst $end
$var wire 1 H in_rst $end
$var wire 8 r in_a $end
$var wire 8 s in_b $end
$var wire 32 t out_d $end
$var wire 1 v out_ovf $end
$var wire 1 w in_a_valid $end
$var wire 1 x in_b_valid $end
$var wire 1 z in_rst$1 $end
$var wire 32 } mult $end
$var wire 32 ~ current_out $end
$var wire 1 !! current_out_ovf $end
$var wire 1 "! out_d_valid $end
$upscope $end
$upscope $end
$scope module U$3 $end
$var wire 1 ! clk $end
$var wire 1 " rst $end
$var wire 8 : in_a $end
$var wire 8 ; in_b $end
$var wire 32 = out_d $end
$var wire 5 @ in_init $end
$var wire 1 H in_rst $end
$var wire 8 #! in_a$1 $end
$var wire 8 $! in_b$1 $end
$var wire 32 %! out_d$1 $end
$var wire 1 &! out_ovf $end
$var wire 1 '! out_ovf$1 $end
$var wire 1 (! in_a_valid $end
$var wire 1 )! in_b_valid $end
$var string 1 *! fsm_state $end
$var wire 1 +! in_rst$1 $end
$var wire 5 ,! cnt $end
$var wire 1 -! out_d_valid $end
$scope module mac $end
$var wire 1 ! clk $end
$var wire 1 " rst $end
$var wire 1 H in_rst $end
$var wire 8 #! in_a $end
$var wire 8 $! in_b $end
$var wire 32 %! out_d $end
$var wire 1 '! out_ovf $end
$var wire 1 (! in_a_valid $end
$var wire 1 )! in_b_valid $end
$var wire 1 +! in_rst$1 $end
$var wire 32 .! mult $end
$var wire 32 /! current_out $end
$var wire 1 0! current_out_ovf $end
$var wire 1 1! out_d_valid $end
$upscope $end
$upscope $end
$scope module U$4 $end
$var wire 1 ! clk $end
$var wire 1 " rst $end
$var wire 8 A in_a $end
$var wire 8 B in_b $end
$var wire 32 D out_d $end
$var wire 5 G in_init $end
$var wire 1 H in_rst $end
$var wire 8 2! in_a$1 $end
$var wire 8 3! in_b$1 $end
$var wire 32 4! out_d$1 $end
$var wire 1 5! out_ovf $end
$var wire 1 6! out_ovf$1 $end
$var wire 1 7! in_a_valid $end
$var wire 1 8! in_b_valid $end
$var string 1 9! fsm_state $end
$var wire 1 :! in_rst$1 $end
$var wire 5 ;! cnt $end
$var wire 1 <! out_d_valid $end
$scope module mac $end
$var wire 1 ! clk $end
$var wire 1 " rst $end
$var wire 1 H in_rst $end
$var wire 8 2! in_a $end
$var wire 8 3! in_b $end
$var wire 32 4! out_d $end
$var wire 1 6! out_ovf $end
$var wire 1 7! in_a_valid $end
$var wire 1 8! in_b_valid $end
$var wire 1 :! in_rst$1 $end
$var wire 32 =! mult $end
$var wire 32 >! current_out $end
$var wire 1 ?! current_out_ovf $end
$var wire 1 @! out_d_valid $end
$upscope $end
$upscope $end
$scope module adder_tree $end
$var wire 32 $ out_d $end
$var wire 1 & out_ovf $end
$var wire 32 + in_data_4_0 $end
$var wire 1 - in_valid_4_0 $end
$var wire 32 5 in_data_4_1 $end
$var wire 1 7 in_valid_4_1 $end
$var wire 32 < in_data_4_2 $end
$var wire 1 > in_valid_4_2 $end
$var wire 32 C in_data_4_3 $end
$var wire 1 E in_valid_4_3 $end
$var wire 32 I in_data_2_0 $end
$var wire 32 J in_data_2_0$1 $end
$var wire 1 K in_valid_2_0 $end
$var wire 1 L in_valid_2_0$1 $end
$var wire 1 M in_ovf_2_0 $end
$var wire 1 N in_ovf_4_0 $end
$var wire 1 O in_ovf_2_0$1 $end
$var wire 1 P in_ovf_4_2 $end
$var wire 32 Q in_data_2_1 $end
$var wire 32 R in_data_2_1$1 $end
$var wire 1 S in_valid_2_1 $end
$var wire 1 T in_valid_2_1$1 $end
$var wire 1 U in_ovf_2_1 $end
$var wire 1 V in_ovf_4_1 $end
$var wire 1 W in_ovf_2_1$1 $end
$var wire 1 X in_ovf_4_3 $end
$var wire 1 Y current_ovf $end
$var wire 32 Z out_d$1 $end
$var wire 32 [ out_d$2 $end
$var wire 1 \ out_valid $end
$var wire 1 ] out_valid$1 $end
$var wire 1 ^ out_valid$2 $end
$var wire 1 _ out_ovf$1 $end
$var wire 1 ` out_ovf$2 $end
$scope module tree_l $end
$var wire 32 I in_data_2_0 $end
$var wire 1 K in_valid_2_0 $end
$var wire 1 M in_ovf_2_0 $end
$var wire 32 Q in_data_2_1 $end
$var wire 1 S in_valid_2_1 $end
$var wire 1 U in_ovf_2_1 $end
$var wire 32 Z out_d $end
$var wire 1 ] out_valid $end
$var wire 1 _ out_ovf $end
$var wire 1 a current_ovf $end
$upscope $end
$scope module tree_r $end
$var wire 32 J in_data_2_0 $end
$var wire 1 L in_valid_2_0 $end
$var wire 1 O in_ovf_2_0 $end
$var wire 32 R in_data_2_1 $end
$var wire 1 T in_valid_2_1 $end
$var wire 1 W in_ovf_2_1 $end
$var wire 32 [ out_d $end
$var wire 1 ^ out_valid $end
$var wire 1 ` out_ovf $end
$var wire 1 b current_ovf $end
$upscope $end
$upscope $end
$upscope $end
$upscope $end
$enddefinitions $end
#0
$dumpvars
0!
0"
b0 #
b0 $
0%
0&
b0 '
b0 (
b0 )
b0 *
b0 +
b0 ,
0-
sINIT/0 .
b0 /
b0 0
01
b0 2
b0 3
b0 4
b0 5
b0 6
07
sINIT/0 8
b0 9
b0 :
b0 ;
b0 <
b0 =
0>
sINIT/0 ?
b0 @
b0 A
b0 B
b0 C
b0 D
0E
sINIT/0 F
b0 G
0H
b0 I
b0 J
0K
0L
0M
0N
0O
0P
b0 Q
b0 R
0S
0T
0U
0V
0W
0X
0Y
b0 Z
b0 [
0\
0]
0^
0_
0`
0a
0b
b0 c
b0 d
b0 e
0f
0g
0h
0i
sINIT/0 j
0k
b0 l
0m
b0 n
b0 o
0p
0q
b0 r
b0 s
b0 t
0u
0v
0w
0x
sINIT/0 y
0z
b0 {
0|
b0 }
b0 ~
0!!
0"!
b0 #!
b0 $!
b0 %!
0&!
0'!
0(!
0)!
sINIT/0 *!
0+!
b0 ,!
0-!
b0 .!
b0 /!
00!
01!
b0 2!
b0 3!
b0 4!
05!
06!
07!
08!
sINIT/0 9!
0:!
b0 ;!
0<!
b0 =!
b0 >!
0?!
0@!
$end
#500000
1:!
1z
b111 2
b111 9
b111 G
1k
1+!
1!
b111 @
b111 /
#1000000
0!
#1500000
b1110 3
sEXEC/1 *!
1^
1-
b11100110000 .!
1@!
b10100 $!
b11111111111111111111101011000000 ~
b1011100 :
b111 0
sEXEC/1 F
b1011100 #!
b10100000 4
sEXEC/1 y
b0 /
b10100000 s
b11111111111111111111101011000000 }
1>
11!
b10110011010111000000111001101010 (
b1110 r
17!
b10111011000101001010000011001011 *
b111 {
b111 ;!
1!!
b10100 ;
sEXEC/1 .
b11111111111111111110101000001110 n
1!
1"!
0:!
b0 @
b11001011 d
1]
1\
18!
1(!
b111 l
b10110011 A
b111 ,!
b0 2
1p
b1101010 c
b0 G
1q
0+!
1K
1E
1)!
b11111111111111111110101000001110 o
b10111011 B
sEXEC/1 8
1w
1L
b11001011 )
1h
b1010011000001 >!
0z
b0 9
1i
1x
sEXEC/1 9!
17
0k
1S
b1010011000001 =!
b1101010 '
b10111011 3!
sEXEC/1 ?
1T
b11100110000 /!
b10110011 2!
sEXEC/1 j
#2000000
0!
#2500000
b10100 3
b11111111111111111111101001101100 .!
b11111111111111111111101001110000 ~
b10101 $!
b10111100 :
b1010011000001 D
b11111111111111111111101011000000 5
b110 0
b10111100 #!
1a
b11111100 4
b11111100 s
b11111111111111111111111110110000 }
b10111111 #
b1000111101111000001010001100110 (
b10100 r
b10111111 $
b111001000101011111110011101011 *
b110 {
b110 ;!
b11100110000 <
b11111111111111111110101000001110 ,
b1010011000001 4!
b10101 ;
b1000111 2!
1!
b11101011 d
b11111111111111111111011110100010 n
b1010011000001 C
b110 l
b1000111 A
b110 ,!
b11100110000 J
b11100110000 %!
b1100110 c
b11111111111111111110101000001110 I
b1101111110001 [
b11111111111111111111101011000000 6
b11111111111111111110000110110000 o
b111001 B
b1010011000001 R
b11111111111111111111101011000000 t
b10010010010000 >!
b11101011 )
b11111111111111111111101011000000 Q
b111111001111 =!
b11100110000 =
b1100110 '
b11111111111111111110101000001110 e
b111001 3!
b11111111111111111110010011001110 Z
b110011100 /!
b11111111111111111110101000001110 +
#3000000
0!
#3500000
b11010110 3
b11111111111111111111011101100000 .!
b10101100 ~
b110000 $!
b11010010 :
b10010010010000 D
b11111111111111111111101001110000 5
b101 0
b11010010 #!
b11011010 4
10!
b11011010 s
b11000111100 }
b1001001100 #
b1111001110100101101011001001010 (
b11010110 r
b1001001100 $
b1011000001100001101101000111010 *
b101 {
b101 ;!
b110011100 <
b11111111111111111110000110110000 ,
0!!
b10010010010000 4!
b110000 ;
b1111001 2!
1!
b111010 d
b1000011000100 n
b10010010010000 C
b101 l
b1111001 A
b101 ,!
b110011100 J
b110011100 %!
b1001010 c
b11111111111111111110000110110000 I
b10011000101100 [
b11111111111111111111101001110000 6
b11111111111111111111001001110100 o
b1011000 B
b10010010010000 R
b11111111111111111111101001110000 t
b100111000101000 >!
b111010 )
b11111111111111111111101001110000 Q
b10100110011000 =!
b110011100 =
b1001010 '
b11111111111111111110000110110000 e
b1011000 3!
b11111111111111111101110000100000 Z
b11111111111111111111100011111100 /!
b11111111111111111110000110110000 +
#4000000
0!
#4500000
b1110100 3
b11111111111111111110001001101111 .!
b111000 ~
b10101001 $!
b1010111 :
b100111000101000 D
b10101100 5
b100 0
b1010111 #!
b11111111 4
b11111111 s
b11111111111111111111111110001100 }
b11101001000100 #
b11001010010101110111010001100011 (
b1110100 r
b11101001000100 $
b11111110101010011111111111011011 *
b100 {
b100 ;!
b11111111111111111111100011111100 <
b11111111111111111111001001110100 ,
b100111000101000 4!
b10101001 ;
b11001010 2!
1!
b11011011 d
b11111111111111111111000110110001 n
b100111000101000 C
b100 l
b11001010 A
b100 ,!
b11111111111111111111100011111100 J
b11111111111111111111100011111100 %!
b1100011 c
b11111111111111111111001001110100 I
b100011100100100 [
b10101100 6
b11111111111111111110010000100101 o
b11111110 B
b100111000101000 R
b10101100 t
b100111010010100 >!
b11011011 )
b10101100 Q
b1101100 =!
b11111111111111111111100011111100 =
b1100011 '
b11111111111111111111001001110100 e
b11111110 3!
b11111111111111111111001100100000 Z
b11111111111111111101101101101011 /!
b11111111111111111111001001110100 +
#5000000
0!
#5500000
b10000010 3
b1010000011001 .!
b11111111111111111111100101010100 ~
b11001111 $!
b10010111 :
b100111010010100 D
b111000 5
b11 0
b10010111 #!
b1110 4
b1110 s
b11111111111111111111100100011100 }
b111001011100 #
b1100111100101111000001010010101 (
b10000010 r
b111001011100 $
b10111011110011110000111010111101 *
b11 {
b11 ;!
b11111111111111111101101101101011 <
b11111111111111111110010000100101 ,
1!!
b100111010010100 4!
b11001111 ;
b1100111 2!
1!
b10111101 d
b1110000000001 n
b100111010010100 C
b11 l
b1100111 A
b11 ,!
b11111111111111111101101101101011 J
0p
b11111111111111111101101101101011 %!
b10010101 c
b11111111111111111110010000100101 I
b10100111111111 [
b111000 6
b100110 o
b10111011 B
b100111010010100 R
b111000 t
b11001011010001 >!
b10111101 )
b111000 Q
b11111111111111111110010000111101 =!
b11111111111111111101101101101011 =
b10010101 '
b11111111111111111110010000100101 e
b10111011 3!
b11111111111111111110010001011101 Z
b11111111111111111110111110000100 /!
b11111111111111111110010000100101 +
#6000000
0!
#6500000
b1010111 3
b11111111111111111111111110101110 .!
b11111111111111111110001010001111 ~
b10101110 $!
b1 :
b11001011010001 D
b11111111111111111111100101010100 5
b10 0
b1 #!
b10111101 4
b10111101 s
b11111111111111111110100100111011 }
b1101111001111 #
b110100000000010101011111101011 (
b1010111 r
b1101111001111 $
b10111101101011101011110100110010 *
b10 {
b10 ;!
b11111111111111111110111110000100 <
b100110 ,
b11001011010001 4!
b10101110 ;
b110100 2!
1!
b110010 d
b11111111111111111111101111100110 n
b11001011010001 C
b10 l
b110100 A
b10 ,!
b11111111111111111110111110000100 J
1p
b11111111111111111110111110000100 %!
b11101011 c
b100110 I
b10001001010101 [
b11111111111111111111100101010100 6
b11111111111111111111110000001100 o
b10111101 B
b11001011010001 R
b11111111111111111111100101010100 t
b10010100110101 >!
b110010 )
b11111111111111111111100101010100 Q
b11111111111111111111001001100100 =!
b11111111111111111110111110000100 =
b11101011 '
b100110 e
b10111101 3!
b11111111111111111111100101111010 Z
b11111111111111111110111100110010 /!
b100110 +
#7000000
0!
#7500000
b10000001 3
1?!
b11111001110 .!
b11111111111111111110100100000010 ~
b110110 $!
b100101 :
b10010100110101 D
b11111111111111111110001010001111 5
b1 0
b100101 #!
b11110011 4
b11110011 s
b11001110011 }
b11111111111111111111001100000010 #
b10011101001001011000000110111111 (
b10000001 r
b11111111111111111111001100000010 $
b1101011001101101111001100111111 *
b1 {
b1 ;!
b11111111111111111110111100110010 <
b11111111111111111111110000001100 ,
b10010100110101 4!
b110110 ;
b10011101 2!
1!
b111111 d
b11111111111111111111000000000001 n
b10010100110101 C
b1 l
b10011101 A
b1 ,!
b11111111111111111110111100110010 J
b11111111111111111110111100110010 %!
b10111111 c
b11111111111111111111110000001100 I
1Y
b1010001100111 [
b11111111111111111110001010001111 6
b11111111111111111110110000001101 o
b1101011 B
b10010100110101 R
b11111111111111111110001010001111 t
b11111111111111111111101111010100 >!
b111111 )
b11111111111111111110001010001111 Q
b11111111111111111101011010011111 =!
b11111111111111111110111100110010 =
b10111111 '
b11111111111111111111110000001100 e
b1101011 3!
b11111111111111111101111010011011 Z
b11111111111111111111011100000000 /!
b11111111111111111111110000001100 +
#8000000
0!
#8500000
sINIT/0 *!
0^
0@!
b0 $!
1-!
b0 #!
b0 }
b0 (
b0 *
b0 ;!
b11111111111111111110110000001101 ,
1b
sINIT/0 .
0"!
b0 d
0]
0\
0(!
b0 l
b11111111111111111111011100000000 J
b11001 2
b11111111111111111111011100000000 %!
11
b0 c
1+!
1m
b11111111111111111111001011010100 [
b11111111111111111110100100000010 6
0)!
sINIT/0 8
b0 )
0h
b11001 9
0i
sINIT/0 9!
07
1k
b11111111111111111111011100000000 =
b0 '
b11111111111111111110110000001101 e
b0 3!
sINIT/0 ?
1<!
b11111111111111111101010100001111 Z
b0 2!
sINIT/0 j
b11111111111111111110110000001101 +
b0 3
0-
b0 .!
b0 :
b11111111111111111111101111010100 D
b11111111111111111110100100000010 5
b0 0
sINIT/0 F
b0 4
sINIT/0 y
b11001 /
b0 s
0>
1|
01!
b11111111111111111100011111100011 #
b0 r
07!
b0 {
b11111111111111111100011111100011 $
b11111111111111111111011100000000 <
b11111111111111111111101111010100 4!
b0 ;
b0 n
1!
b11001 @
1:!
08!
b11111111111111111111101111010100 C
b0 A
b0 ,!
b11111111111111111110110000001101 I
b11001 G
0q
0K
0E
b0 B
0w
0L
b11111111111111111111101111010100 R
b11111111111111111110100100000010 t
1z
b11111111111111111110100100000010 Q
0x
0S
b0 =!
0T
#9000000
0!
#9500000
sEXEC/1 *!
1^
1@!
b11011 $!
0-!
b11100100 #!
0a
b11111111111111111110100000101100 }
b10000010111001000011001010000110 (
b101000000110111000011011001000 *
b11001 ;!
b0 ,
0b
sEXEC/1 .
1"!
b11001000 d
1]
1\
1(!
b11001 l
b0 J
b0 2
b0 %!
01
b10000110 c
0Y
0+!
0m
b0 [
b0 6
1)!
b1101010110000 o
sEXEC/1 8
b11111111111111111110110001010000 >!
b11001000 )
1h
b0 9
1i
sEXEC/1 9!
17
0k
b0 =
b10000110 '
b0 e
b101000 3!
sEXEC/1 ?
0<!
b0 Z
b10000010 2!
sEXEC/1 j
b0 +
b110010 3
1-
b11111111111111111110100000101100 ~
b11111111111111111111110100001100 .!
b11100100 :
b0 D
b0 5
b11001 0
sEXEC/1 F
b10000110 4
sEXEC/1 y
b0 /
b10000110 s
1>
0|
11!
b0 #
b110010 r
17!
b11001 {
b0 $
b0 <
b0 4!
b11011 ;
b1101010110000 n
1!
0:!
b0 @
18!
b0 C
b10000010 A
b11001 ,!
0p
b0 I
b0 G
1q
1K
1E
b101000 B
1w
1L
b0 R
b0 t
0z
b0 Q
1x
1S
b11111111111111111110110001010000 =!
1T
b11111111111111111111110100001100 /!
#10000000
0!
#10500000
b10100110 3
b1100011000 .!
b100110010010 ~
b1011 $!
b1001000 :
b11111111111111111110110001010000 D
b11111111111111111110100000101100 5
b11000 0
b1001000 #!
b10100001 4
00!
b10100001 s
b10000101100110 }
b11111111111111111110110000111000 #
b10100010010001010011000010001 (
b10100110 r
b11111111111111111110110000111000 $
b1000111000010111010000100100000 *
b11000 {
b11000 ;!
b11111111111111111111110100001100 <
b1101010110000 ,
0!!
1b
b11111111111111111110110001010000 4!
b1011 ;
b10100 2!
1!
b100000 d
b1000100000 n
b11111111111111111110110001010000 C
b11000 l
b10100 A
b11000 ,!
b11111111111111111111110100001100 J
b11111111111111111111110100001100 %!
b10001 c
b1101010110000 I
1Y
b11111111111111111110100101011100 [
b11111111111111111110100000101100 6
b1110011010000 o
b1000111 B
b11111111111111111110110001010000 R
b11111111111111111110100000101100 t
b11111111111111111111000111011100 >!
b100000 )
b11111111111111111110100000101100 Q
b10110001100 =!
b11111111111111111111110100001100 =
b10001 '
b1101010110000 e
b1000111 3!
b1011011100 Z
b100100 /!
b1101010110000 +
#11000000
0!
#11500000
b111011 3
b11111111111111111111110010010000 .!
b11111111111111111111000100100100 ~
b11110110 $!
b1011000 :
b11111111111111111111000111011100 D
b100110010010 5
b10111 0
b1011000 #!
b10010110 4
10!
b10010110 s
b11111111111111111110011110010010 }
b1100001100010 #
b10000011010110000011101100001101 (
b111011 r
b1100001100010 $
b101111111101101001011000111101 *
b10111 {
b10111 ;!
b100100 <
b1110011010000 ,
1!!
b11111111111111111111000111011100 4!
b11110110 ;
b10000011 2!
1!
b111101 d
b1100011001 n
b11111111111111111111000111011100 C
b10111 l
b10000011 A
b10111 ,!
b100100 J
b100100 %!
b1101 c
b1110011010000 I
0Y
b11111111111111111111001000000000 [
b100110010010 6
b1111111101001 o
b101111 B
b11111111111111111111000111011100 R
b100110010010 t
b11111111111111111101101011101001 >!
b111101 )
b100110010010 Q
b11111111111111111110100100001101 =!
b100100 =
b1101 '
b1110011010000 e
b101111 3!
b10011001100010 Z
b11111111111111111111110010110100 /!
b1110011010000 +
#12000000
0!
#12500000
b1000 3
b11111111111111111111111100000100 .!
b11111111111111111111010000110100 ~
b100100 $!
b11111001 :
b11111111111111111101101011101001 D
b11111111111111111111000100100100 5
b10110 0
b11111001 #!
b1100010 4
b1100010 s
b1100010000 }
b11111111111111111110100010101010 #
b11110001111110010000100001011001 (
b1000 r
b11111111111111111110100010101010 $
b11010111001001000110001010101011 *
b10110 {
b10110 ;!
b11111111111111111111110010110100 <
b1111111101001 ,
b11111111111111111101101011101001 4!
b100100 ;
b11110001 2!
1!
b10101011 d
b11111111111111111110001001110011 n
b11111111111111111101101011101001 C
b10110 l
b11110001 A
b10110 ,!
b11111111111111111111110010110100 J
b11111111111111111111110010110100 %!
b1011001 c
b1111111101001 I
1Y
b11111111111111111101011110011101 [
b11111111111111111111000100100100 6
b1001011100 o
b11010111 B
b11111111111111111101101011101001 R
b11111111111111111111000100100100 t
b11111111111111111101110101010000 >!
b10101011 )
b11111111111111111111000100100100 Q
b1001100111 =!
b11111111111111111111110010110100 =
b1011001 '
b1111111101001 e
b11010111 3!
b1000100001101 Z
b11111111111111111111101110111000 /!
b1111111101001 +
#13000000
0!
#13500000
b1010011 3
b1010101010101 .!
b11111111111111111110011111100010 ~
b11010101 $!
b10000001 :
b11111111111111111101110101010000 D
b11111111111111111111010000110100 5
b10101 0
b10000001 #!
1a
b11011010 4
00!
b11011010 s
b11111111111111111111001110101110 }
b11111111111111111100111110011000 #
b110100100000010101001101011011 (
b1010011 r
b11111111111111111100111110011000 $
b1100111110101011101101000100010 *
b10101 {
b10101 ;!
b11111111111111111111101110111000 <
b1001011100 ,
b11111111111111111101110101010000 4!
b11010101 ;
b110100 2!
1!
b100010 d
b110000010110 n
b11111111111111111101110101010000 C
b10101 l
b110100 A
b10101 ,!
b11111111111111111111101110111000 J
b11111111111111111111101110111000 %!
b1011011 c
b1001011100 I
b11111111111111111101100100001000 [
b11111111111111111111010000110100 6
b111001110010 o
b1100111 B
b11111111111111111101110101010000 R
b11111111111111111111010000110100 t
b11111111111111111111001000111100 >!
b100010 )
b11111111111111111111010000110100 Q
b1010011101100 =!
b11111111111111111111101110111000 =
b1011011 '
b1001011100 e
b1100111 3!
b11111111111111111111011010010000 Z
b1000100001101 /!
b1001011100 +
#14000000
0!
#14500000
b11000110 3
b100000010110 .!
b11111111111111111101000100111010 ~
b11100010 $!
b10111011 :
b11111111111111111111001000111100 D
b11111111111111111110011111100010 5
b10100 0
b10111011 #!
b1100100 4
b1100100 s
b11111111111111111110100101011000 }
b11111111111111111111100110011101 #
b1101110101110111100011010101011 (
b11000110 r
b11111111111111111111100110011101 $
b11000000111000100110010010101110 *
b10100 {
b10100 ;!
b1000100001101 <
b111001110010 ,
0b
b11111111111111111111001000111100 4!
b11100010 ;
b1101110 2!
1!
b10101110 d
b1101100111010 n
b11111111111111111111001000111100 C
b10100 l
b1101110 A
b10100 ,!
b1000100001101 J
b1000100001101 %!
b10101011 c
b111001110010 I
b1101001001 [
b11111111111111111110011111100010 6
b10100110101100 o
b11000000 B
b11111111111111111111001000111100 R
b11111111111111111110011111100010 t
b11111111111111111101011010111100 >!
b10101110 )
b11111111111111111110011111100010 Q
b11111111111111111110010010000000 =!
b1000100001101 =
b10101011 '
b111001110010 e
b11000000 3!
b11111111111111111111011001010100 Z
b1100100100011 /!
b111001110010 +
#15000000
0!
#15500000
b10101110 3
b11111111111111111111110010001110 .!
b10000010 $!
b111 :
b11111111111111111101011010111100 D
b11111111111111111101000100111010 5
b10011 0
b111 #!
b0 4
b0 s
b0 }
b11111111111111111110101011000101 #
b11111100000001111010111000100010 (
b10101110 r
b11111111111111111110101011000101 $
b11001101100000100000000000000100 *
b10011 {
b10011 ;!
b1100100100011 <
b10100110101100 ,
1b
b11111111111111111101011010111100 4!
b10000010 ;
b11111100 2!
1!
b100 d
b10001000 n
b11111111111111111101011010111100 C
b10011 l
b11111100 A
b10011 ,!
b1100100100011 J
b1100100100011 %!
b100010 c
b10100110101100 I
b11111111111111111110111111011111 [
b11111111111111111101000100111010 6
b10101000110100 o
b11001101 B
b11111111111111111101011010111100 R
b11111111111111111101000100111010 t
b11111111111111111101011110001000 >!
b100 )
b11111111111111111101000100111010 Q
b11001100 =!
b1100100100011 =
b100010 '
b10100110101100 e
b11001101 3!
b11111111111111111111101011100110 Z
b1010110110001 /!
b10100110101100 +
#16000000
0!
#16500000
b10100011 3
b11111111111111111111110011100000 .!
b11111111111111111101000111110100 ~
b11110110 $!
b1010000 :
b11111111111111111101011110001000 D
b10010 0
b1010000 #!
b10101000110100 +
b11111110 4
b11111110 s
b10111010 }
b11111111111111111110100010100111 #
b11001101010100001010001100110001 (
b10100011 r
b11111111111111111110100010100111 $
b11011001111101101111111010001101 *
b10010 {
b10010 ;!
b1010110110001 <
b10101000110100 ,
b11111111111111111101011110001000 4!
b11110110 ;
b11111111111111111110100111111101 n
1!
b10001101 d
b11111111111111111101011110001000 C
b10010 l
b11001101 A
b10010 ,!
b1010110110001 J
b1010110110001 %!
b110001 c
b10101000110100 I
b11111111111111111110110100111001 [
b1010000110001 o
b11011001 B
b11111111111111111101011110001000 R
b11111111111111111101111101001101 >!
b10001101 )
b11111000101 =!
b1010110110001 =
b110001 '
b10101000110100 e
b11011001 3!
b11111111111111111111101101101110 Z
b1001010010001 /!
b11001101 2!
#17000000
0!
#17500000
b1 3
0?!
b11111111111111111111001101001110 .!
b11111111111111111101000101111100 ~
b11010 $!
b10000011 :
b11111111111111111101111101001101 D
b11111111111111111101000111110100 5
b10001 0
b10000011 #!
b10001000 4
b10001000 s
b11111111111111111111111110001000 }
b11111111111111111101100000000011 #
b1100111100000110000000111111101 (
b1 r
b11111111111111111101100000000011 $
b1100110000110101000100011001110 *
b10001 {
b10001 ;!
b1001010010001 <
b1010000110001 ,
b11111111111111111101111101001101 4!
b11010 ;
b1100111 2!
1!
b11001110 d
b10010110 n
b11111111111111111101111101001101 C
b10001 l
b1100111 A
b10001 ,!
b1001010010001 J
b1001010010001 %!
b11111101 c
b1010000110001 I
b11111111111111111111000111011110 [
b11111111111111111101000111110100 6
b1010011000111 o
b1100110 B
b11111111111111111101111101001101 R
b11111111111111111101000111110100 t
b100001010111 >!
b11001110 )
b11111111111111111101000111110100 Q
b10100100001010 =!
b1001010010001 =
b11111101 '
b1010000110001 e
b1100110 3!
b11111111111111111110011000100101 Z
b10111011111 /!
b1010000110001 +
#18000000
0!
#18500000
b1101001 3
b1001001101101 .!
b11111111111111111110001001001101 ~
b1011001 $!
b110101 :
b100001010111 D
b11111111111111111101000101111100 5
b10000 0
b110101 #!
b101001 4
b101001 s
b1000011010001 }
b11111111111111111111010001111001 #
b10000101001101010110100100000011 (
b1101001 r
b11111111111111111111010001111001 $
b1110010110010010100101111011 *
b10000 {
b10000 ;!
b10111011111 <
b1010011000111 ,
0b
b100001010111 4!
b1011001 ;
b10000101 2!
1!
b1111011 d
b101110001 n
b100001010111 C
b10000 l
b10000101 A
b10000 ,!
b10111011111 J
b10111011111 %!
b11 c
b1010011000111 I
b111000110110 [
b11111111111111111101000101111100 6
b1011000111000 o
b1110 B
b100001010111 R
b11111111111111111101000101111100 t
b110011101 >!
b1111011 )
b11111111111111111101000101111100 Q
b11111111111111111111100101000110 =!
b10111011111 =
b11 '
b1010011000111 e
b1110 3!
b11111111111111111110011001000011 Z
b1100001001100 /!
b1010011000111 +
#19000000
0!
