Lab4/Example/dup_comb.vcd
$comment Generated by Amaranth $end
$date 2023-04-04 21:32:51.795710 $end
$timescale 1 ps $end
$scope module bench $end
$scope module top $end
$var wire 1 ! clk $end
$var wire 1 " rst $end
$var wire 4 # cnt $end
$var wire 1 $ cnt_ovf $end
$var wire 5 % cnt_next $end
$var wire 1 & in_halt $end
$var wire 1 ' in_rst $end
$upscope $end
$upscope $end
$enddefinitions $end
#0
$dumpvars
0!
0"
b0 #
0$
b1 %
0&
0'
$end
#500000
1&
1!
1'
b1 #
#1000000
0!
#1500000
0&
1!
0'
b0 #
#2000000
0!
#2500000
b10 %
1!
b1 #
#3000000
0!
#3500000
b11 %
1!
b10 #
#4000000
0!
#4500000
1!
1&
b11 #
#5000000
0!
#5500000
b100 %
1!
0&
#6000000
0!
#6500000
b101 %
1!
b100 #
#7000000
0!
#7500000
b110 %
1!
b101 #
#8000000
0!
#8500000
1!
1&
b110 #
#9000000
0!
#9500000
b111 %
1!
0&
#10000000
0!
#10500000
b1000 %
1!
b111 #
#11000000
0!
#11500000
b1001 %
1!
b1000 #
#12000000
0!
#12500000
1!
1&
b1001 #
#13000000
0!
#13500000
b1010 %
1!
0&
#14000000
0!
#14500000
b1011 %
1!
b1010 #
#15000000
0!
#15500000
b1100 %
1!
b1011 #
#16000000
0!
#16500000
1&
1!
1'
b1100 #
#17000000
0!
#17500000
1!
b0 #
b1 %
0&
0'
#18000000
0!
#18500000
b10 %
1!
b1 #
#19000000
0!
#19500000
b11 %
1!
b10 #
#20000000
0!
#20500000
1!
1&
b11 #
#21000000
0!
#21500000
b100 %
1!
0&
#22000000
0!
#22500000
b101 %
1!
b100 #
#23000000
0!
#23500000
b110 %
1!
b101 #
#24000000
0!
#24500000
1!
1&
b110 #
#25000000
0!
#25500000
b111 %
1!
0&
#26000000
0!
#26500000
b1000 %
1!
b111 #
#27000000
0!
#27500000
b1001 %
1!
b1000 #
#28000000
0!
#28500000
1!
1&
b1001 #
#29000000
0!
#29500000
b1010 %
1!
0&
#30000000
0!
#30500000
b1011 %
1!
b1010 #
#31000000
0!
#31500000
b1100 %
1!
b1011 #
#32000000
0!
#32500000
b1101 %
1!
b1100 #
