Lab3/Example/adder.vcd
$comment Generated by Amaranth $end
$date 2023-03-29 02:13:55.206687 $end
$timescale 1 ps $end
$scope module bench $end
$scope module top $end
$var wire 4 ! out_d $end
$var wire 1 " out_ovf $end
$var wire 4 # in_a $end
$var wire 4 $ in_b $end
$upscope $end
$upscope $end
$enddefinitions $end
#0
$dumpvars
b0 !
0"
b0 #
b0 $
$end
#1000000
b1 $
b1 !
#2000000
b10 $
b10 !
#3000000
b11 $
b11 !
#4000000
b100 $
b100 !
#5000000
b101 $
b101 !
#6000000
b110 $
b110 !
#7000000
b111 $
b111 !
#8000000
b1000 $
b1000 !
#9000000
b1001 $
b1001 !
#10000000
b1010 $
b1010 !
#11000000
b1011 $
b1011 !
#12000000
b1100 $
b1100 !
#13000000
b1101 $
b1101 !
#14000000
b1110 $
b1110 !
#15000000
b1111 $
b1111 !
#16000000
b0 $
b1 !
b1 #
#17000000
b1 $
b10 !
#18000000
b10 $
b11 !
#19000000
b11 $
b100 !
#20000000
b100 $
b101 !
#21000000
b101 $
b110 !
#22000000
b110 $
b111 !
#23000000
b111 $
b1000 !
#24000000
b1000 $
b1001 !
#25000000
b1001 $
b1010 !
#26000000
b1010 $
b1011 !
#27000000
b1011 $
b1100 !
#28000000
b1100 $
b1101 !
#29000000
b1101 $
b1110 !
#30000000
b1110 $
b1111 !
#31000000
1"
b1111 $
b0 !
#32000000
0"
b0 $
b10 !
b10 #
#33000000
b1 $
b11 !
#34000000
b10 $
b100 !
#35000000
b11 $
b101 !
#36000000
b100 $
b110 !
#37000000
b101 $
b111 !
#38000000
b110 $
b1000 !
#39000000
b111 $
b1001 !
#40000000
b1000 $
b1010 !
#41000000
b1001 $
b1011 !
#42000000
b1010 $
b1100 !
#43000000
b1011 $
b1101 !
#44000000
b1100 $
b1110 !
#45000000
b1101 $
b1111 !
#46000000
1"
b1110 $
b0 !
#47000000
b1111 $
b1 !
#48000000
0"
b0 $
b11 !
b11 #
#49000000
b1 $
b100 !
#50000000
b10 $
b101 !
#51000000
b11 $
b110 !
#52000000
b100 $
b111 !
#53000000
b101 $
b1000 !
#54000000
b110 $
b1001 !
#55000000
b111 $
b1010 !
#56000000
b1000 $
b1011 !
#57000000
b1001 $
b1100 !
#58000000
b1010 $
b1101 !
#59000000
b1011 $
b1110 !
#60000000
b1100 $
b1111 !
#61000000
1"
b1101 $
b0 !
#62000000
b1110 $
b1 !
#63000000
b1111 $
b10 !
#64000000
0"
b0 $
b100 !
b100 #
#65000000
b1 $
b101 !
#66000000
b10 $
b110 !
#67000000
b11 $
b111 !
#68000000
b100 $
b1000 !
#69000000
b101 $
b1001 !
#70000000
b110 $
b1010 !
#71000000
b111 $
b1011 !
#72000000
b1000 $
b1100 !
#73000000
b1001 $
b1101 !
#74000000
b1010 $
b1110 !
#75000000
b1011 $
b1111 !
#76000000
1"
b1100 $
b0 !
#77000000
b1101 $
b1 !
#78000000
b1110 $
b10 !
#79000000
b1111 $
b11 !
#80000000
0"
b0 $
b101 !
b101 #
#81000000
b1 $
b110 !
#82000000
b10 $
b111 !
#83000000
b11 $
b1000 !
#84000000
b100 $
b1001 !
#85000000
b101 $
b1010 !
#86000000
b110 $
b1011 !
#87000000
b111 $
b1100 !
#88000000
b1000 $
b1101 !
#89000000
b1001 $
b1110 !
#90000000
b1010 $
b1111 !
#91000000
1"
b1011 $
b0 !
#92000000
b1100 $
b1 !
#93000000
b1101 $
b10 !
#94000000
b1110 $
b11 !
#95000000
b1111 $
b100 !
#96000000
0"
b0 $
b110 !
b110 #
#97000000
b1 $
b111 !
#98000000
b10 $
b1000 !
#99000000
b11 $
b1001 !
#100000000
b100 $
b1010 !
#101000000
b101 $
b1011 !
#102000000
b110 $
b1100 !
#103000000
b111 $
b1101 !
#104000000
b1000 $
b1110 !
#105000000
b1001 $
b1111 !
#106000000
1"
b1010 $
b0 !
#107000000
b1011 $
b1 !
#108000000
b1100 $
b10 !
#109000000
b1101 $
b11 !
#110000000
b1110 $
b100 !
#111000000
b1111 $
b101 !
#112000000
0"
b0 $
b111 !
b111 #
#113000000
b1 $
b1000 !
#114000000
b10 $
b1001 !
#115000000
b11 $
b1010 !
#116000000
b100 $
b1011 !
#117000000
b101 $
b1100 !
#118000000
b110 $
b1101 !
#119000000
b111 $
b1110 !
#120000000
b1000 $
b1111 !
#121000000
1"
b1001 $
b0 !
#122000000
b1010 $
b1 !
#123000000
b1011 $
b10 !
#124000000
b1100 $
b11 !
#125000000
b1101 $
b100 !
#126000000
b1110 $
b101 !
#127000000
b1111 $
b110 !
#128000000
0"
b0 $
b1000 !
b1000 #
#129000000
b1 $
b1001 !
#130000000
b10 $
b1010 !
#131000000
b11 $
b1011 !
#132000000
b100 $
b1100 !
#133000000
b101 $
b1101 !
#134000000
b110 $
b1110 !
#135000000
b111 $
b1111 !
#136000000
1"
b1000 $
b0 !
#137000000
b1001 $
b1 !
#138000000
b1010 $
b10 !
#139000000
b1011 $
b11 !
#140000000
b1100 $
b100 !
#141000000
b1101 $
b101 !
#142000000
b1110 $
b110 !
#143000000
b1111 $
b111 !
#144000000
0"
b0 $
b1001 !
b1001 #
#145000000
b1 $
b1010 !
#146000000
b10 $
b1011 !
#147000000
b11 $
b1100 !
#148000000
b100 $
b1101 !
#149000000
b101 $
b1110 !
#150000000
b110 $
b1111 !
#151000000
1"
b111 $
b0 !
#152000000
b1000 $
b1 !
#153000000
b1001 $
b10 !
#154000000
b1010 $
b11 !
#155000000
b1011 $
b100 !
#156000000
b1100 $
b101 !
#157000000
b1101 $
b110 !
#158000000
b1110 $
b111 !
#159000000
b1111 $
b1000 !
#160000000
0"
b0 $
b1010 !
b1010 #
#161000000
b1 $
b1011 !
#162000000
b10 $
b1100 !
#163000000
b11 $
b1101 !
#164000000
b100 $
b1110 !
#165000000
b101 $
b1111 !
#166000000
1"
b110 $
b0 !
#167000000
b111 $
b1 !
#168000000
b1000 $
b10 !
#169000000
b1001 $
b11 !
#170000000
b1010 $
b100 !
#171000000
b1011 $
b101 !
#172000000
b1100 $
b110 !
#173000000
b1101 $
b111 !
#174000000
b1110 $
b1000 !
#175000000
b1111 $
b1001 !
#176000000
0"
b0 $
b1011 !
b1011 #
#177000000
b1 $
b1100 !
#178000000
b10 $
b1101 !
#179000000
b11 $
b1110 !
#180000000
b100 $
b1111 !
#181000000
1"
b101 $
b0 !
#182000000
b110 $
b1 !
#183000000
b111 $
b10 !
#184000000
b1000 $
b11 !
#185000000
b1001 $
b100 !
#186000000
b1010 $
b101 !
#187000000
b1011 $
b110 !
#188000000
b1100 $
b111 !
#189000000
b1101 $
b1000 !
#190000000
b1110 $
b1001 !
#191000000
b1111 $
b1010 !
#192000000
0"
b0 $
b1100 !
b1100 #
#193000000
b1 $
b1101 !
#194000000
b10 $
b1110 !
#195000000
b11 $
b1111 !
#196000000
1"
b100 $
b0 !
#197000000
b101 $
b1 !
#198000000
b110 $
b10 !
#199000000
b111 $
b11 !
#200000000
b1000 $
b100 !
#201000000
b1001 $
b101 !
#202000000
b1010 $
b110 !
#203000000
b1011 $
b111 !
#204000000
b1100 $
b1000 !
#205000000
b1101 $
b1001 !
#206000000
b1110 $
b1010 !
#207000000
b1111 $
b1011 !
#208000000
0"
b0 $
b1101 !
b1101 #
#209000000
b1 $
b1110 !
#210000000
b10 $
b1111 !
#211000000
1"
b11 $
b0 !
#212000000
b100 $
b1 !
#213000000
b101 $
b10 !
#214000000
b110 $
b11 !
#215000000
b111 $
b100 !
#216000000
b1000 $
b101 !
#217000000
b1001 $
b110 !
#218000000
b1010 $
b111 !
#219000000
b1011 $
b1000 !
#220000000
b1100 $
b1001 !
#221000000
b1101 $
b1010 !
#222000000
b1110 $
b1011 !
#223000000
b1111 $
b1100 !
#224000000
0"
b0 $
b1110 !
b1110 #
#225000000
b1 $
b1111 !
#226000000
1"
b10 $
b0 !
#227000000
b11 $
b1 !
#228000000
b100 $
b10 !
#229000000
b101 $
b11 !
#230000000
b110 $
b100 !
#231000000
b111 $
b101 !
#232000000
b1000 $
b110 !
#233000000
b1001 $
b111 !
#234000000
b1010 $
b1000 !
#235000000
b1011 $
b1001 !
#236000000
b1100 $
b1010 !
#237000000
b1101 $
b1011 !
#238000000
b1110 $
b1100 !
#239000000
b1111 $
b1101 !
#240000000
0"
b0 $
b1111 !
b1111 #
#241000000
1"
b1 $
b0 !
#242000000
b10 $
b1 !
#243000000
b11 $
b10 !
#244000000
b100 $
b11 !
#245000000
b101 $
b100 !
#246000000
b110 $
b101 !
#247000000
b111 $
b110 !
#248000000
b1000 $
b111 !
#249000000
b1001 $
b1000 !
#250000000
b1010 $
b1001 !
#251000000
b1011 $
b1010 !
#252000000
b1100 $
b1011 !
#253000000
b1101 $
b1100 !
#254000000
b1110 $
b1101 !
#255000000
b1111 $
b1110 !
