Lab3/Example/adder_sync.vcd
$comment Generated by Amaranth $end
$date 2023-04-14 19:06:50.009723 $end
$timescale 1 ps $end
$scope module bench $end
$scope module top $end
$var wire 1 ! clk $end
$var wire 1 " rst $end
$var wire 4 # out_d $end
$var wire 1 $ out_ovf $end
$var wire 15 % sim_delay $end
$var wire 1 & in_en $end
$var wire 4 ' in_a $end
$var wire 4 ( in_b $end
$var wire 1 ) in_rst $end
$upscope $end
$upscope $end
$enddefinitions $end
#0
$dumpvars
0!
0"
b0 #
0$
b0 %
0&
b0 '
b0 (
0)
$end
#500000
1!
1&
#1000000
0!
#1500000
1!
b1 (
#2000000
0!
#2500000
1!
b10 (
b1 %
#3000000
0!
#3500000
1!
b11 (
b100010 %
#4000000
0!
#4500000
b1 #
1!
b100 (
b10001000011 %
#5000000
0!
#5500000
b10 #
1!
b101 (
b100001100100 %
#6000000
0!
#6500000
b11 #
1!
b110 (
b110010000101 %
#7000000
0!
#7500000
b100 #
1!
b111 (
b1000010100110 %
#8000000
0!
#8500000
b101 #
1!
b1000 (
b1010011000111 %
#9000000
0!
#9500000
b110 #
1!
b1001 (
b1100011101000 %
#10000000
0!
#10500000
b111 #
1!
b1010 (
b1110100001001 %
#11000000
0!
#11500000
b1000 #
1!
b1011 (
b10000100101010 %
#12000000
0!
#12500000
b1001 #
1!
b1100 (
b10010101001011 %
#13000000
0!
#13500000
b1010 #
1!
b1101 (
b10100101101100 %
#14000000
0!
#14500000
b1011 #
1!
b1110 (
b10110110001101 %
#15000000
0!
#15500000
b1100 #
1!
b1111 (
b11000110101110 %
#16000000
0!
#16500000
b1 '
b1101 #
1!
b0 (
b11010111001111 %
#17000000
0!
#17500000
b1110 #
1!
b1 (
b11100111100001 %
#18000000
0!
#18500000
b1111 #
1!
b10 (
b11110000100010 %
#19000000
0!
#19500000
b1 #
1!
b11 (
b10001000011 %
#20000000
0!
#20500000
b10 #
1!
b100 (
b100001100100 %
#21000000
0!
#21500000
b11 #
1!
b101 (
b110010000101 %
#22000000
0!
#22500000
b100 #
1!
b110 (
b1000010100110 %
#23000000
0!
#23500000
b101 #
1!
b111 (
b1010011000111 %
#24000000
0!
#24500000
b110 #
1!
b1000 (
b1100011101000 %
#25000000
0!
#25500000
b111 #
1!
b1001 (
b1110100001001 %
#26000000
0!
#26500000
b1000 #
1!
b1010 (
b10000100101010 %
#27000000
0!
#27500000
b1001 #
1!
b1011 (
b10010101001011 %
#28000000
0!
#28500000
b1010 #
1!
b1100 (
b10100101101100 %
#29000000
0!
#29500000
b1011 #
1!
b1101 (
b10110110001101 %
#30000000
0!
#30500000
b1100 #
1!
b1110 (
b11000110101110 %
#31000000
0!
#31500000
b1101 #
1!
b1111 (
b11010111001111 %
#32000000
0!
#32500000
b10 '
b1110 #
1!
b0 (
b11100111110000 %
#33000000
0!
#33500000
b1111 #
1!
b1 (
b11111000000010 %
#34000000
0!
#34500000
b0 #
1$
1!
b10 (
b100000001000011 %
#35000000
0!
#35500000
b10 #
0$
1!
b11 (
b100001100100 %
#36000000
0!
#36500000
b11 #
1!
b100 (
b110010000101 %
#37000000
0!
#37500000
b100 #
1!
b101 (
b1000010100110 %
#38000000
0!
#38500000
b101 #
1!
b110 (
b1010011000111 %
#39000000
0!
#39500000
b110 #
1!
b111 (
b1100011101000 %
#40000000
0!
#40500000
b111 #
1!
b1000 (
b1110100001001 %
#41000000
0!
#41500000
b1000 #
1!
b1001 (
b10000100101010 %
#42000000
0!
#42500000
b1001 #
1!
b1010 (
b10010101001011 %
#43000000
0!
#43500000
b1010 #
1!
b1011 (
b10100101101100 %
#44000000
0!
#44500000
b1011 #
1!
b1100 (
b10110110001101 %
#45000000
0!
#45500000
b1100 #
1!
b1101 (
b11000110101110 %
#46000000
0!
#46500000
b1101 #
1!
b1110 (
b11010111001111 %
#47000000
0!
#47500000
b1110 #
1!
b1111 (
b11100111110000 %
#48000000
0!
#48500000
b11 '
b1111 #
1!
b0 (
b11111000010001 %
#49000000
0!
#49500000
b0 #
1$
1!
b1 (
b100001000100011 %
#50000000
0!
#50500000
b1 #
1!
b10 (
b100010001100100 %
#51000000
0!
#51500000
b11 #
0$
1!
b11 (
b110010000101 %
#52000000
0!
#52500000
b100 #
1!
b100 (
b1000010100110 %
#53000000
0!
#53500000
b101 #
1!
b101 (
b1010011000111 %
#54000000
0!
#54500000
b110 #
1!
b110 (
b1100011101000 %
#55000000
0!
#55500000
b111 #
1!
b111 (
b1110100001001 %
#56000000
0!
#56500000
b1000 #
1!
b1000 (
b10000100101010 %
#57000000
0!
#57500000
b1001 #
1!
b1001 (
b10010101001011 %
#58000000
0!
#58500000
b1010 #
1!
b1010 (
b10100101101100 %
#59000000
0!
#59500000
b1011 #
1!
b1011 (
b10110110001101 %
#60000000
0!
#60500000
b1100 #
1!
b1100 (
b11000110101110 %
#61000000
0!
#61500000
b1101 #
1!
b1101 (
b11010111001111 %
#62000000
0!
#62500000
b1110 #
1!
b1110 (
b11100111110000 %
#63000000
0!
#63500000
b1111 #
1!
b1111 (
b11111000010001 %
#64000000
0!
#64500000
b100 '
b0 #
1$
1!
b0 (
b100001000110010 %
#65000000
0!
#65500000
b1 #
1!
b1 (
b100011001000100 %
#66000000
0!
#66500000
b10 #
1!
b10 (
b100100010000101 %
#67000000
0!
#67500000
b100 #
0$
1!
b11 (
b1000010100110 %
#68000000
0!
#68500000
b101 #
1!
b100 (
b1010011000111 %
#69000000
0!
#69500000
b110 #
1!
b101 (
b1100011101000 %
#70000000
0!
#70500000
b111 #
1!
b110 (
b1110100001001 %
#71000000
0!
#71500000
b1000 #
1!
b111 (
b10000100101010 %
#72000000
0!
#72500000
b1001 #
1!
b1000 (
b10010101001011 %
#73000000
0!
#73500000
b1010 #
1!
b1001 (
b10100101101100 %
#74000000
0!
#74500000
b1011 #
1!
b1010 (
b10110110001101 %
#75000000
0!
#75500000
b1100 #
1!
b1011 (
b11000110101110 %
#76000000
0!
#76500000
b1101 #
1!
b1100 (
b11010111001111 %
#77000000
0!
#77500000
b1110 #
1!
b1101 (
b11100111110000 %
#78000000
0!
#78500000
b1111 #
1!
b1110 (
b11111000010001 %
#79000000
0!
#79500000
b0 #
1$
1!
b1111 (
b100001000110010 %
#80000000
0!
#80500000
b101 '
b1 #
1!
b0 (
b100011001010011 %
#81000000
0!
#81500000
b10 #
1!
b1 (
b100101001100101 %
#82000000
0!
#82500000
b11 #
1!
b10 (
b100110010100110 %
#83000000
0!
#83500000
b101 #
0$
1!
b11 (
b1010011000111 %
#84000000
0!
#84500000
b110 #
1!
b100 (
b1100011101000 %
#85000000
0!
#85500000
b111 #
1!
b101 (
b1110100001001 %
#86000000
0!
#86500000
b1000 #
1!
b110 (
b10000100101010 %
#87000000
0!
#87500000
b1001 #
1!
b111 (
b10010101001011 %
#88000000
0!
#88500000
b1010 #
1!
b1000 (
b10100101101100 %
#89000000
0!
#89500000
b1011 #
1!
b1001 (
b10110110001101 %
#90000000
0!
#90500000
b1100 #
1!
b1010 (
b11000110101110 %
#91000000
0!
#91500000
b1101 #
1!
b1011 (
b11010111001111 %
#92000000
0!
#92500000
b1110 #
1!
b1100 (
b11100111110000 %
#93000000
0!
#93500000
b1111 #
1!
b1101 (
b11111000010001 %
#94000000
0!
#94500000
b0 #
1$
1!
b1110 (
b100001000110010 %
#95000000
0!
#95500000
b1 #
1!
b1111 (
b100011001010011 %
#96000000
0!
#96500000
b110 '
b10 #
1!
b0 (
b100101001110100 %
#97000000
0!
#97500000
b11 #
1!
b1 (
b100111010000110 %
#98000000
0!
#98500000
b100 #
1!
b10 (
b101000011000111 %
#99000000
0!
#99500000
b110 #
0$
1!
b11 (
b1100011101000 %
#100000000
0!
#100500000
b111 #
1!
b100 (
b1110100001001 %
#101000000
0!
#101500000
b1000 #
1!
b101 (
b10000100101010 %
#102000000
0!
#102500000
b1001 #
1!
b110 (
b10010101001011 %
#103000000
0!
#103500000
b1010 #
1!
b111 (
b10100101101100 %
#104000000
0!
#104500000
b1011 #
1!
b1000 (
b10110110001101 %
#105000000
0!
#105500000
b1100 #
1!
b1001 (
b11000110101110 %
#106000000
0!
#106500000
b1101 #
1!
b1010 (
b11010111001111 %
#107000000
0!
#107500000
b1110 #
1!
b1011 (
b11100111110000 %
#108000000
0!
#108500000
b1111 #
1!
b1100 (
b11111000010001 %
#109000000
0!
#109500000
b0 #
1$
1!
b1101 (
b100001000110010 %
#110000000
0!
#110500000
b1 #
1!
b1110 (
b100011001010011 %
#111000000
0!
#111500000
b10 #
1!
b1111 (
b100101001110100 %
#112000000
0!
#112500000
b111 '
b11 #
1!
b0 (
b100111010010101 %
#113000000
0!
#113500000
b100 #
1!
b1 (
b101001010100111 %
#114000000
0!
#114500000
b101 #
1!
b10 (
b101010011101000 %
#115000000
0!
#115500000
b111 #
0$
1!
b11 (
b1110100001001 %
#116000000
0!
#116500000
b1000 #
1!
b100 (
b10000100101010 %
#117000000
0!
#117500000
b1001 #
1!
b101 (
b10010101001011 %
#118000000
0!
#118500000
b1010 #
1!
b110 (
b10100101101100 %
#119000000
0!
#119500000
b1011 #
1!
b111 (
b10110110001101 %
#120000000
0!
#120500000
b1100 #
1!
b1000 (
b11000110101110 %
#121000000
0!
#121500000
b1101 #
1!
b1001 (
b11010111001111 %
#122000000
0!
#122500000
b1110 #
1!
b1010 (
b11100111110000 %
#123000000
0!
#123500000
b1111 #
1!
b1011 (
b11111000010001 %
#124000000
0!
#124500000
b0 #
1$
1!
b1100 (
b100001000110010 %
#125000000
0!
#125500000
b1 #
1!
b1101 (
b100011001010011 %
#126000000
0!
#126500000
b10 #
1!
b1110 (
b100101001110100 %
#127000000
0!
#127500000
b11 #
1!
b1111 (
b100111010010101 %
#128000000
0!
#128500000
b1000 '
b100 #
1!
b0 (
b101001010110110 %
#129000000
0!
#129500000
b101 #
1!
b1 (
b101011011001000 %
#130000000
0!
#130500000
b110 #
1!
b10 (
b101100100001001 %
#131000000
0!
#131500000
b1000 #
0$
1!
b11 (
b10000100101010 %
#132000000
0!
#132500000
b1001 #
1!
b100 (
b10010101001011 %
#133000000
0!
#133500000
b1010 #
1!
b101 (
b10100101101100 %
#134000000
0!
#134500000
b1011 #
1!
b110 (
b10110110001101 %
#135000000
0!
#135500000
b1100 #
1!
b111 (
b11000110101110 %
#136000000
0!
#136500000
b1101 #
1!
b1000 (
b11010111001111 %
#137000000
0!
#137500000
b1110 #
1!
b1001 (
b11100111110000 %
#138000000
0!
#138500000
b1111 #
1!
b1010 (
b11111000010001 %
#139000000
0!
#139500000
b0 #
1$
1!
b1011 (
b100001000110010 %
#140000000
0!
#140500000
b1 #
1!
b1100 (
b100011001010011 %
#141000000
0!
#141500000
b10 #
1!
b1101 (
b100101001110100 %
#142000000
0!
#142500000
b11 #
1!
b1110 (
b100111010010101 %
#143000000
0!
#143500000
b100 #
1!
b1111 (
b101001010110110 %
#144000000
0!
#144500000
b1001 '
b101 #
1!
b0 (
b101011011010111 %
#145000000
0!
#145500000
b110 #
1!
b1 (
b101101011101001 %
#146000000
0!
#146500000
b111 #
1!
b10 (
b101110100101010 %
#147000000
0!
#147500000
b1001 #
0$
1!
b11 (
b10010101001011 %
#148000000
0!
#148500000
b1010 #
1!
b100 (
b10100101101100 %
#149000000
0!
#149500000
b1011 #
1!
b101 (
b10110110001101 %
#150000000
0!
#150500000
b1100 #
1!
b110 (
b11000110101110 %
#151000000
0!
#151500000
b1101 #
1!
b111 (
b11010111001111 %
#152000000
0!
#152500000
b1110 #
1!
b1000 (
b11100111110000 %
#153000000
0!
#153500000
b1111 #
1!
b1001 (
b11111000010001 %
#154000000
0!
#154500000
b0 #
1$
1!
b1010 (
b100001000110010 %
#155000000
0!
#155500000
b1 #
1!
b1011 (
b100011001010011 %
#156000000
0!
#156500000
b10 #
1!
b1100 (
b100101001110100 %
#157000000
0!
#157500000
b11 #
1!
b1101 (
b100111010010101 %
#158000000
0!
#158500000
b100 #
1!
b1110 (
b101001010110110 %
#159000000
0!
#159500000
b101 #
1!
b1111 (
b101011011010111 %
#160000000
0!
#160500000
b1010 '
b110 #
1!
b0 (
b101101011111000 %
#161000000
0!
#161500000
b111 #
1!
b1 (
b101111100001010 %
#162000000
0!
#162500000
b1000 #
1!
b10 (
b110000101001011 %
#163000000
0!
#163500000
b1010 #
0$
1!
b11 (
b10100101101100 %
#164000000
0!
#164500000
b1011 #
1!
b100 (
b10110110001101 %
#165000000
0!
#165500000
b1100 #
1!
b101 (
b11000110101110 %
#166000000
0!
#166500000
b1101 #
1!
b110 (
b11010111001111 %
#167000000
0!
#167500000
b1110 #
1!
b111 (
b11100111110000 %
#168000000
0!
#168500000
b1111 #
1!
b1000 (
b11111000010001 %
#169000000
0!
#169500000
b0 #
1$
1!
b1001 (
b100001000110010 %
#170000000
0!
#170500000
b1 #
1!
b1010 (
b100011001010011 %
#171000000
0!
#171500000
b10 #
1!
b1011 (
b100101001110100 %
#172000000
0!
#172500000
b11 #
1!
b1100 (
b100111010010101 %
#173000000
0!
#173500000
b100 #
1!
b1101 (
b101001010110110 %
#174000000
0!
#174500000
b101 #
1!
b1110 (
b101011011010111 %
#175000000
0!
#175500000
b110 #
1!
b1111 (
b101101011111000 %
#176000000
0!
#176500000
b1011 '
b111 #
1!
b0 (
b101111100011001 %
#177000000
0!
#177500000
b1000 #
1!
b1 (
b110001100101011 %
#178000000
0!
#178500000
b1001 #
1!
b10 (
b110010101101100 %
#179000000
0!
#179500000
b1011 #
0$
1!
b11 (
b10110110001101 %
#180000000
0!
#180500000
b1100 #
1!
b100 (
b11000110101110 %
#181000000
0!
#181500000
b1101 #
1!
b101 (
b11010111001111 %
#182000000
0!
#182500000
b1110 #
1!
b110 (
b11100111110000 %
#183000000
0!
#183500000
b1111 #
1!
b111 (
b11111000010001 %
#184000000
0!
#184500000
b0 #
1$
1!
b1000 (
b100001000110010 %
#185000000
0!
#185500000
b1 #
1!
b1001 (
b100011001010011 %
#186000000
0!
#186500000
b10 #
1!
b1010 (
b100101001110100 %
#187000000
0!
#187500000
b11 #
1!
b1011 (
b100111010010101 %
#188000000
0!
#188500000
b100 #
1!
b1100 (
b101001010110110 %
#189000000
0!
#189500000
b101 #
1!
b1101 (
b101011011010111 %
#190000000
0!
#190500000
b110 #
1!
b1110 (
b101101011111000 %
#191000000
0!
#191500000
b111 #
1!
b1111 (
b101111100011001 %
#192000000
0!
#192500000
b1100 '
b1000 #
1!
b0 (
b110001100111010 %
#193000000
0!
#193500000
b1001 #
1!
b1 (
b110011101001100 %
#194000000
0!
#194500000
b1010 #
1!
b10 (
b110100110001101 %
#195000000
0!
#195500000
b1100 #
0$
1!
b11 (
b11000110101110 %
#196000000
0!
#196500000
b1101 #
1!
b100 (
b11010111001111 %
#197000000
0!
#197500000
b1110 #
1!
b101 (
b11100111110000 %
#198000000
0!
#198500000
b1111 #
1!
b110 (
b11111000010001 %
#199000000
0!
#199500000
b0 #
1$
1!
b111 (
b100001000110010 %
#200000000
0!
#200500000
b1 #
1!
b1000 (
b100011001010011 %
#201000000
0!
#201500000
b10 #
1!
b1001 (
b100101001110100 %
#202000000
0!
#202500000
b11 #
1!
b1010 (
b100111010010101 %
#203000000
0!
#203500000
b100 #
1!
b1011 (
b101001010110110 %
#204000000
0!
#204500000
b101 #
1!
b1100 (
b101011011010111 %
#205000000
0!
#205500000
b110 #
1!
b1101 (
b101101011111000 %
#206000000
0!
#206500000
b111 #
1!
b1110 (
b101111100011001 %
#207000000
0!
#207500000
b1000 #
1!
b1111 (
b110001100111010 %
#208000000
0!
#208500000
b1101 '
b1001 #
1!
b0 (
b110011101011011 %
#209000000
0!
#209500000
b1010 #
1!
b1 (
b110101101101101 %
#210000000
0!
#210500000
b1011 #
1!
b10 (
b110110110101110 %
#211000000
0!
#211500000
b1101 #
0$
1!
b11 (
b11010111001111 %
#212000000
0!
#212500000
b1110 #
1!
b100 (
b11100111110000 %
#213000000
0!
#213500000
b1111 #
1!
b101 (
b11111000010001 %
#214000000
0!
#214500000
b0 #
1$
1!
b110 (
b100001000110010 %
#215000000
0!
#215500000
b1 #
1!
b111 (
b100011001010011 %
#216000000
0!
#216500000
b10 #
1!
b1000 (
b100101001110100 %
#217000000
0!
#217500000
b11 #
1!
b1001 (
b100111010010101 %
#218000000
0!
#218500000
b100 #
1!
b1010 (
b101001010110110 %
#219000000
0!
#219500000
b101 #
1!
b1011 (
b101011011010111 %
#220000000
0!
#220500000
b110 #
1!
b1100 (
b101101011111000 %
#221000000
0!
#221500000
b111 #
1!
b1101 (
b101111100011001 %
#222000000
0!
#222500000
b1000 #
1!
b1110 (
b110001100111010 %
#223000000
0!
#223500000
b1001 #
1!
b1111 (
b110011101011011 %
#224000000
0!
#224500000
b1110 '
b1010 #
1!
b0 (
b110101101111100 %
#225000000
0!
#225500000
b1011 #
1!
b1 (
b110111110001110 %
#226000000
0!
#226500000
b1100 #
1!
b10 (
b111000111001111 %
#227000000
0!
#227500000
b1110 #
0$
1!
b11 (
b11100111110000 %
#228000000
0!
#228500000
b1111 #
1!
b100 (
b11111000010001 %
#229000000
0!
#229500000
b0 #
1$
1!
b101 (
b100001000110010 %
#230000000
0!
#230500000
b1 #
1!
b110 (
b100011001010011 %
#231000000
0!
#231500000
b10 #
1!
b111 (
b100101001110100 %
#232000000
0!
#232500000
b11 #
1!
b1000 (
b100111010010101 %
#233000000
0!
#233500000
b100 #
1!
b1001 (
b101001010110110 %
#234000000
0!
#234500000
b101 #
1!
b1010 (
b101011011010111 %
#235000000
0!
#235500000
b110 #
1!
b1011 (
b101101011111000 %
#236000000
0!
#236500000
b111 #
1!
b1100 (
b101111100011001 %
#237000000
0!
#237500000
b1000 #
1!
b1101 (
b110001100111010 %
#238000000
0!
#238500000
b1001 #
1!
b1110 (
b110011101011011 %
#239000000
0!
#239500000
b1010 #
1!
b1111 (
b110101101111100 %
#240000000
0!
#240500000
b1111 '
b1011 #
1!
b0 (
b110111110011101 %
#241000000
0!
#241500000
b1100 #
1!
b1 (
b111001110101111 %
#242000000
0!
#242500000
b1101 #
1!
b10 (
b111010111110000 %
#243000000
0!
#243500000
b1111 #
0$
1!
b11 (
b11111000010001 %
#244000000
0!
#244500000
b0 #
1$
1!
b100 (
b100001000110010 %
#245000000
0!
#245500000
b1 #
1!
b101 (
b100011001010011 %
#246000000
0!
#246500000
b10 #
1!
b110 (
b100101001110100 %
#247000000
0!
#247500000
b11 #
1!
b111 (
b100111010010101 %
#248000000
0!
#248500000
b100 #
1!
b1000 (
b101001010110110 %
#249000000
0!
#249500000
b101 #
1!
b1001 (
b101011011010111 %
#250000000
0!
#250500000
b110 #
1!
b1010 (
b101101011111000 %
#251000000
0!
#251500000
b111 #
1!
b1011 (
b101111100011001 %
#252000000
0!
#252500000
b1000 #
1!
b1100 (
b110001100111010 %
#253000000
0!
#253500000
b1001 #
1!
b1101 (
b110011101011011 %
#254000000
0!
#254500000
b1010 #
1!
b1110 (
b110101101111100 %
#255000000
0!
#255500000
b1011 #
1!
b1111 (
b110111110011101 %
#256000000
0!
#256500000
b1100 #
1!
b111001110111110 %
