Lab3/Example/adder_sync.vcd
$comment Generated by Amaranth $end
$date 2023-03-28 19:19:32.670090 $end
$timescale 1 ps $end
$scope module bench $end
$scope module top $end
$var wire 1 ! clk $end
$var wire 1 " rst $end
$var wire 4 # out_d $end
$var wire 1 $ out_ovf $end
$var wire 15 % sim_delay $end
$var wire 1 & in_en $end
$var wire 4 ' in_a $end
$var wire 4 ( in_b $end
$var wire 1 ) in_rst $end
$upscope $end
$upscope $end
$enddefinitions $end
#0
$dumpvars
0!
0"
b0 #
0$
b0 %
0&
b0 '
b0 (
0)
$end
#500000
1!
1&
#1000000
0!
#1500000
1!
b1 (
#2000000
0!
#2500000
b1 %
1!
b10 (
#3000000
0!
#3500000
b100010 %
1!
b11 (
#4000000
0!
#4500000
b1 #
b10001000011 %
1!
b100 (
#5000000
0!
#5500000
b10 #
b100001100100 %
1!
b101 (
#6000000
0!
#6500000
b11 #
b110010000101 %
1!
b110 (
#7000000
0!
#7500000
b100 #
b1000010100110 %
1!
b111 (
#8000000
0!
#8500000
b101 #
b1010011000111 %
1!
b1000 (
#9000000
0!
#9500000
b110 #
b1100011101000 %
1!
b1001 (
#10000000
0!
#10500000
b111 #
b1110100001001 %
1!
b1010 (
#11000000
0!
#11500000
b1000 #
b10000100101010 %
1!
b1011 (
#12000000
0!
#12500000
b1001 #
b10010101001011 %
1!
b1100 (
#13000000
0!
#13500000
b1010 #
b10100101101100 %
1!
b1101 (
#14000000
0!
#14500000
b1011 #
b10110110001101 %
1!
b1110 (
#15000000
0!
#15500000
b1100 #
b11000110101110 %
1!
b1111 (
#16000000
0!
#16500000
1!
b0 (
b1101 #
b11010111001111 %
b1 '
#17000000
0!
#17500000
b1110 #
b11100111100001 %
1!
b1 (
#18000000
0!
#18500000
b1111 #
b11110000100010 %
1!
b10 (
#19000000
0!
#19500000
b1 #
b10001000011 %
1!
b11 (
#20000000
0!
#20500000
b10 #
b100001100100 %
1!
b100 (
#21000000
0!
#21500000
b11 #
b110010000101 %
1!
b101 (
#22000000
0!
#22500000
b100 #
b1000010100110 %
1!
b110 (
#23000000
0!
#23500000
b101 #
b1010011000111 %
1!
b111 (
#24000000
0!
#24500000
b110 #
b1100011101000 %
1!
b1000 (
#25000000
0!
#25500000
b111 #
b1110100001001 %
1!
b1001 (
#26000000
0!
#26500000
b1000 #
b10000100101010 %
1!
b1010 (
#27000000
0!
#27500000
b1001 #
b10010101001011 %
1!
b1011 (
#28000000
0!
#28500000
b1010 #
b10100101101100 %
1!
b1100 (
#29000000
0!
#29500000
b1011 #
b10110110001101 %
1!
b1101 (
#30000000
0!
#30500000
b1100 #
b11000110101110 %
1!
b1110 (
#31000000
0!
#31500000
b1101 #
b11010111001111 %
1!
b1111 (
#32000000
0!
#32500000
1!
b0 (
b1110 #
b11100111110000 %
b10 '
#33000000
0!
#33500000
b1111 #
b11111000000010 %
1!
b1 (
#34000000
0!
#34500000
1!
b10 (
1$
b0 #
b100000001000011 %
#35000000
0!
#35500000
1!
b11 (
0$
b10 #
b100001100100 %
#36000000
0!
#36500000
b11 #
b110010000101 %
1!
b100 (
#37000000
0!
#37500000
b100 #
b1000010100110 %
1!
b101 (
#38000000
0!
#38500000
b101 #
b1010011000111 %
1!
b110 (
#39000000
0!
#39500000
b110 #
b1100011101000 %
1!
b111 (
#40000000
0!
#40500000
b111 #
b1110100001001 %
1!
b1000 (
#41000000
0!
#41500000
b1000 #
b10000100101010 %
1!
b1001 (
#42000000
0!
#42500000
b1001 #
b10010101001011 %
1!
b1010 (
#43000000
0!
#43500000
b1010 #
b10100101101100 %
1!
b1011 (
#44000000
0!
#44500000
b1011 #
b10110110001101 %
1!
b1100 (
#45000000
0!
#45500000
b1100 #
b11000110101110 %
1!
b1101 (
#46000000
0!
#46500000
b1101 #
b11010111001111 %
1!
b1110 (
#47000000
0!
#47500000
b1110 #
b11100111110000 %
1!
b1111 (
#48000000
0!
#48500000
1!
b0 (
b1111 #
b11111000010001 %
b11 '
#49000000
0!
#49500000
1!
b1 (
1$
b0 #
b100001000100011 %
#50000000
0!
#50500000
b1 #
b100010001100100 %
1!
b10 (
#51000000
0!
#51500000
1!
b11 (
0$
b11 #
b110010000101 %
#52000000
0!
#52500000
b100 #
b1000010100110 %
1!
b100 (
#53000000
0!
#53500000
b101 #
b1010011000111 %
1!
b101 (
#54000000
0!
#54500000
b110 #
b1100011101000 %
1!
b110 (
#55000000
0!
#55500000
b111 #
b1110100001001 %
1!
b111 (
#56000000
0!
#56500000
b1000 #
b10000100101010 %
1!
b1000 (
#57000000
0!
#57500000
b1001 #
b10010101001011 %
1!
b1001 (
#58000000
0!
#58500000
b1010 #
b10100101101100 %
1!
b1010 (
#59000000
0!
#59500000
b1011 #
b10110110001101 %
1!
b1011 (
#60000000
0!
#60500000
b1100 #
b11000110101110 %
1!
b1100 (
#61000000
0!
#61500000
b1101 #
b11010111001111 %
1!
b1101 (
#62000000
0!
#62500000
b1110 #
b11100111110000 %
1!
b1110 (
#63000000
0!
#63500000
b1111 #
b11111000010001 %
1!
b1111 (
#64000000
0!
#64500000
1!
b0 (
1$
b0 #
b100001000110010 %
b100 '
#65000000
0!
#65500000
b1 #
b100011001000100 %
1!
b1 (
#66000000
0!
#66500000
b10 #
b100100010000101 %
1!
b10 (
#67000000
0!
#67500000
1!
b11 (
0$
b100 #
b1000010100110 %
#68000000
0!
#68500000
b101 #
b1010011000111 %
1!
b100 (
#69000000
0!
#69500000
b110 #
b1100011101000 %
1!
b101 (
#70000000
0!
#70500000
b111 #
b1110100001001 %
1!
b110 (
#71000000
0!
#71500000
b1000 #
b10000100101010 %
1!
b111 (
#72000000
0!
#72500000
b1001 #
b10010101001011 %
1!
b1000 (
#73000000
0!
#73500000
b1010 #
b10100101101100 %
1!
b1001 (
#74000000
0!
#74500000
b1011 #
b10110110001101 %
1!
b1010 (
#75000000
0!
#75500000
b1100 #
b11000110101110 %
1!
b1011 (
#76000000
0!
#76500000
b1101 #
b11010111001111 %
1!
b1100 (
#77000000
0!
#77500000
b1110 #
b11100111110000 %
1!
b1101 (
#78000000
0!
#78500000
b1111 #
b11111000010001 %
1!
b1110 (
#79000000
0!
#79500000
1!
b1111 (
1$
b0 #
b100001000110010 %
#80000000
0!
#80500000
1!
b0 (
b1 #
b100011001010011 %
b101 '
#81000000
0!
#81500000
b10 #
b100101001100101 %
1!
b1 (
#82000000
0!
#82500000
b11 #
b100110010100110 %
1!
b10 (
#83000000
0!
#83500000
1!
b11 (
0$
b101 #
b1010011000111 %
#84000000
0!
#84500000
b110 #
b1100011101000 %
1!
b100 (
#85000000
0!
#85500000
b111 #
b1110100001001 %
1!
b101 (
#86000000
0!
#86500000
b1000 #
b10000100101010 %
1!
b110 (
#87000000
0!
#87500000
b1001 #
b10010101001011 %
1!
b111 (
#88000000
0!
#88500000
b1010 #
b10100101101100 %
1!
b1000 (
#89000000
0!
#89500000
b1011 #
b10110110001101 %
1!
b1001 (
#90000000
0!
#90500000
b1100 #
b11000110101110 %
1!
b1010 (
#91000000
0!
#91500000
b1101 #
b11010111001111 %
1!
b1011 (
#92000000
0!
#92500000
b1110 #
b11100111110000 %
1!
b1100 (
#93000000
0!
#93500000
b1111 #
b11111000010001 %
1!
b1101 (
#94000000
0!
#94500000
1!
b1110 (
1$
b0 #
b100001000110010 %
#95000000
0!
#95500000
b1 #
b100011001010011 %
1!
b1111 (
#96000000
0!
#96500000
1!
b0 (
b10 #
b100101001110100 %
b110 '
#97000000
0!
#97500000
b11 #
b100111010000110 %
1!
b1 (
#98000000
0!
#98500000
b100 #
b101000011000111 %
1!
b10 (
#99000000
0!
#99500000
1!
b11 (
0$
b110 #
b1100011101000 %
#100000000
0!
#100500000
b111 #
b1110100001001 %
1!
b100 (
#101000000
0!
#101500000
b1000 #
b10000100101010 %
1!
b101 (
#102000000
0!
#102500000
b1001 #
b10010101001011 %
1!
b110 (
#103000000
0!
#103500000
b1010 #
b10100101101100 %
1!
b111 (
#104000000
0!
#104500000
b1011 #
b10110110001101 %
1!
b1000 (
#105000000
0!
#105500000
b1100 #
b11000110101110 %
1!
b1001 (
#106000000
0!
#106500000
b1101 #
b11010111001111 %
1!
b1010 (
#107000000
0!
#107500000
b1110 #
b11100111110000 %
1!
b1011 (
#108000000
0!
#108500000
b1111 #
b11111000010001 %
1!
b1100 (
#109000000
0!
#109500000
1!
b1101 (
1$
b0 #
b100001000110010 %
#110000000
0!
#110500000
b1 #
b100011001010011 %
1!
b1110 (
#111000000
0!
#111500000
b10 #
b100101001110100 %
1!
b1111 (
#112000000
0!
#112500000
1!
b0 (
b11 #
b100111010010101 %
b111 '
#113000000
0!
#113500000
b100 #
b101001010100111 %
1!
b1 (
#114000000
0!
#114500000
b101 #
b101010011101000 %
1!
b10 (
#115000000
0!
#115500000
1!
b11 (
0$
b111 #
b1110100001001 %
#116000000
0!
#116500000
b1000 #
b10000100101010 %
1!
b100 (
#117000000
0!
#117500000
b1001 #
b10010101001011 %
1!
b101 (
#118000000
0!
#118500000
b1010 #
b10100101101100 %
1!
b110 (
#119000000
0!
#119500000
b1011 #
b10110110001101 %
1!
b111 (
#120000000
0!
#120500000
b1100 #
b11000110101110 %
1!
b1000 (
#121000000
0!
#121500000
b1101 #
b11010111001111 %
1!
b1001 (
#122000000
0!
#122500000
b1110 #
b11100111110000 %
1!
b1010 (
#123000000
0!
#123500000
b1111 #
b11111000010001 %
1!
b1011 (
#124000000
0!
#124500000
1!
b1100 (
1$
b0 #
b100001000110010 %
#125000000
0!
#125500000
b1 #
b100011001010011 %
1!
b1101 (
#126000000
0!
#126500000
b10 #
b100101001110100 %
1!
b1110 (
#127000000
0!
#127500000
b11 #
b100111010010101 %
1!
b1111 (
#128000000
0!
#128500000
1!
b0 (
b100 #
b101001010110110 %
b1000 '
#129000000
0!
#129500000
b101 #
b101011011001000 %
1!
b1 (
#130000000
0!
#130500000
b110 #
b101100100001001 %
1!
b10 (
#131000000
0!
#131500000
1!
b11 (
0$
b1000 #
b10000100101010 %
#132000000
0!
#132500000
b1001 #
b10010101001011 %
1!
b100 (
#133000000
0!
#133500000
b1010 #
b10100101101100 %
1!
b101 (
#134000000
0!
#134500000
b1011 #
b10110110001101 %
1!
b110 (
#135000000
0!
#135500000
b1100 #
b11000110101110 %
1!
b111 (
#136000000
0!
#136500000
b1101 #
b11010111001111 %
1!
b1000 (
#137000000
0!
#137500000
b1110 #
b11100111110000 %
1!
b1001 (
#138000000
0!
#138500000
b1111 #
b11111000010001 %
1!
b1010 (
#139000000
0!
#139500000
1!
b1011 (
1$
b0 #
b100001000110010 %
#140000000
0!
#140500000
b1 #
b100011001010011 %
1!
b1100 (
#141000000
0!
#141500000
b10 #
b100101001110100 %
1!
b1101 (
#142000000
0!
#142500000
b11 #
b100111010010101 %
1!
b1110 (
#143000000
0!
#143500000
b100 #
b101001010110110 %
1!
b1111 (
#144000000
0!
#144500000
1!
b0 (
b101 #
b101011011010111 %
b1001 '
#145000000
0!
#145500000
b110 #
b101101011101001 %
1!
b1 (
#146000000
0!
#146500000
b111 #
b101110100101010 %
1!
b10 (
#147000000
0!
#147500000
1!
b11 (
0$
b1001 #
b10010101001011 %
#148000000
0!
#148500000
b1010 #
b10100101101100 %
1!
b100 (
#149000000
0!
#149500000
b1011 #
b10110110001101 %
1!
b101 (
#150000000
0!
#150500000
b1100 #
b11000110101110 %
1!
b110 (
#151000000
0!
#151500000
b1101 #
b11010111001111 %
1!
b111 (
#152000000
0!
#152500000
b1110 #
b11100111110000 %
1!
b1000 (
#153000000
0!
#153500000
b1111 #
b11111000010001 %
1!
b1001 (
#154000000
0!
#154500000
1!
b1010 (
1$
b0 #
b100001000110010 %
#155000000
0!
#155500000
b1 #
b100011001010011 %
1!
b1011 (
#156000000
0!
#156500000
b10 #
b100101001110100 %
1!
b1100 (
#157000000
0!
#157500000
b11 #
b100111010010101 %
1!
b1101 (
#158000000
0!
#158500000
b100 #
b101001010110110 %
1!
b1110 (
#159000000
0!
#159500000
b101 #
b101011011010111 %
1!
b1111 (
#160000000
0!
#160500000
1!
b0 (
b110 #
b101101011111000 %
b1010 '
#161000000
0!
#161500000
b111 #
b101111100001010 %
1!
b1 (
#162000000
0!
#162500000
b1000 #
b110000101001011 %
1!
b10 (
#163000000
0!
#163500000
1!
b11 (
0$
b1010 #
b10100101101100 %
#164000000
0!
#164500000
b1011 #
b10110110001101 %
1!
b100 (
#165000000
0!
#165500000
b1100 #
b11000110101110 %
1!
b101 (
#166000000
0!
#166500000
b1101 #
b11010111001111 %
1!
b110 (
#167000000
0!
#167500000
b1110 #
b11100111110000 %
1!
b111 (
#168000000
0!
#168500000
b1111 #
b11111000010001 %
1!
b1000 (
#169000000
0!
#169500000
1!
b1001 (
1$
b0 #
b100001000110010 %
#170000000
0!
#170500000
b1 #
b100011001010011 %
1!
b1010 (
#171000000
0!
#171500000
b10 #
b100101001110100 %
1!
b1011 (
#172000000
0!
#172500000
b11 #
b100111010010101 %
1!
b1100 (
#173000000
0!
#173500000
b100 #
b101001010110110 %
1!
b1101 (
#174000000
0!
#174500000
b101 #
b101011011010111 %
1!
b1110 (
#175000000
0!
#175500000
b110 #
b101101011111000 %
1!
b1111 (
#176000000
0!
#176500000
1!
b0 (
b111 #
b101111100011001 %
b1011 '
#177000000
0!
#177500000
b1000 #
b110001100101011 %
1!
b1 (
#178000000
0!
#178500000
b1001 #
b110010101101100 %
1!
b10 (
#179000000
0!
#179500000
1!
b11 (
0$
b1011 #
b10110110001101 %
#180000000
0!
#180500000
b1100 #
b11000110101110 %
1!
b100 (
#181000000
0!
#181500000
b1101 #
b11010111001111 %
1!
b101 (
#182000000
0!
#182500000
b1110 #
b11100111110000 %
1!
b110 (
#183000000
0!
#183500000
b1111 #
b11111000010001 %
1!
b111 (
#184000000
0!
#184500000
1!
b1000 (
1$
b0 #
b100001000110010 %
#185000000
0!
#185500000
b1 #
b100011001010011 %
1!
b1001 (
#186000000
0!
#186500000
b10 #
b100101001110100 %
1!
b1010 (
#187000000
0!
#187500000
b11 #
b100111010010101 %
1!
b1011 (
#188000000
0!
#188500000
b100 #
b101001010110110 %
1!
b1100 (
#189000000
0!
#189500000
b101 #
b101011011010111 %
1!
b1101 (
#190000000
0!
#190500000
b110 #
b101101011111000 %
1!
b1110 (
#191000000
0!
#191500000
b111 #
b101111100011001 %
1!
b1111 (
#192000000
0!
#192500000
1!
b0 (
b1000 #
b110001100111010 %
b1100 '
#193000000
0!
#193500000
b1001 #
b110011101001100 %
1!
b1 (
#194000000
0!
#194500000
b1010 #
b110100110001101 %
1!
b10 (
#195000000
0!
#195500000
1!
b11 (
0$
b1100 #
b11000110101110 %
#196000000
0!
#196500000
b1101 #
b11010111001111 %
1!
b100 (
#197000000
0!
#197500000
b1110 #
b11100111110000 %
1!
b101 (
#198000000
0!
#198500000
b1111 #
b11111000010001 %
1!
b110 (
#199000000
0!
#199500000
1!
b111 (
1$
b0 #
b100001000110010 %
#200000000
0!
#200500000
b1 #
b100011001010011 %
1!
b1000 (
#201000000
0!
#201500000
b10 #
b100101001110100 %
1!
b1001 (
#202000000
0!
#202500000
b11 #
b100111010010101 %
1!
b1010 (
#203000000
0!
#203500000
b100 #
b101001010110110 %
1!
b1011 (
#204000000
0!
#204500000
b101 #
b101011011010111 %
1!
b1100 (
#205000000
0!
#205500000
b110 #
b101101011111000 %
1!
b1101 (
#206000000
0!
#206500000
b111 #
b101111100011001 %
1!
b1110 (
#207000000
0!
#207500000
b1000 #
b110001100111010 %
1!
b1111 (
#208000000
0!
#208500000
1!
b0 (
b1001 #
b110011101011011 %
b1101 '
#209000000
0!
#209500000
b1010 #
b110101101101101 %
1!
b1 (
#210000000
0!
#210500000
b1011 #
b110110110101110 %
1!
b10 (
#211000000
0!
#211500000
1!
b11 (
0$
b1101 #
b11010111001111 %
#212000000
0!
#212500000
b1110 #
b11100111110000 %
1!
b100 (
#213000000
0!
#213500000
b1111 #
b11111000010001 %
1!
b101 (
#214000000
0!
#214500000
1!
b110 (
1$
b0 #
b100001000110010 %
#215000000
0!
#215500000
b1 #
b100011001010011 %
1!
b111 (
#216000000
0!
#216500000
b10 #
b100101001110100 %
1!
b1000 (
#217000000
0!
#217500000
b11 #
b100111010010101 %
1!
b1001 (
#218000000
0!
#218500000
b100 #
b101001010110110 %
1!
b1010 (
#219000000
0!
#219500000
b101 #
b101011011010111 %
1!
b1011 (
#220000000
0!
#220500000
b110 #
b101101011111000 %
1!
b1100 (
#221000000
0!
#221500000
b111 #
b101111100011001 %
1!
b1101 (
#222000000
0!
#222500000
b1000 #
b110001100111010 %
1!
b1110 (
#223000000
0!
#223500000
b1001 #
b110011101011011 %
1!
b1111 (
#224000000
0!
#224500000
1!
b0 (
b1010 #
b110101101111100 %
b1110 '
#225000000
0!
#225500000
b1011 #
b110111110001110 %
1!
b1 (
#226000000
0!
#226500000
b1100 #
b111000111001111 %
1!
b10 (
#227000000
0!
#227500000
1!
b11 (
0$
b1110 #
b11100111110000 %
#228000000
0!
#228500000
b1111 #
b11111000010001 %
1!
b100 (
#229000000
0!
#229500000
1!
b101 (
1$
b0 #
b100001000110010 %
#230000000
0!
#230500000
b1 #
b100011001010011 %
1!
b110 (
#231000000
0!
#231500000
b10 #
b100101001110100 %
1!
b111 (
#232000000
0!
#232500000
b11 #
b100111010010101 %
1!
b1000 (
#233000000
0!
#233500000
b100 #
b101001010110110 %
1!
b1001 (
#234000000
0!
#234500000
b101 #
b101011011010111 %
1!
b1010 (
#235000000
0!
#235500000
b110 #
b101101011111000 %
1!
b1011 (
#236000000
0!
#236500000
b111 #
b101111100011001 %
1!
b1100 (
#237000000
0!
#237500000
b1000 #
b110001100111010 %
1!
b1101 (
#238000000
0!
#238500000
b1001 #
b110011101011011 %
1!
b1110 (
#239000000
0!
#239500000
b1010 #
b110101101111100 %
1!
b1111 (
#240000000
0!
#240500000
1!
b0 (
b1011 #
b110111110011101 %
b1111 '
#241000000
0!
#241500000
b1100 #
b111001110101111 %
1!
b1 (
#242000000
0!
#242500000
b1101 #
b111010111110000 %
1!
b10 (
#243000000
0!
#243500000
1!
b11 (
0$
b1111 #
b11111000010001 %
#244000000
0!
#244500000
1!
b100 (
1$
b0 #
b100001000110010 %
#245000000
0!
#245500000
b1 #
b100011001010011 %
1!
b101 (
#246000000
0!
#246500000
b10 #
b100101001110100 %
1!
b110 (
#247000000
0!
#247500000
b11 #
b100111010010101 %
1!
b111 (
#248000000
0!
#248500000
b100 #
b101001010110110 %
1!
b1000 (
#249000000
0!
#249500000
b101 #
b101011011010111 %
1!
b1001 (
#250000000
0!
#250500000
b110 #
b101101011111000 %
1!
b1010 (
#251000000
0!
#251500000
b111 #
b101111100011001 %
1!
b1011 (
#252000000
0!
#252500000
b1000 #
b110001100111010 %
1!
b1100 (
#253000000
0!
#253500000
b1001 #
b110011101011011 %
1!
b1101 (
#254000000
0!
#254500000
b1010 #
b110101101111100 %
1!
b1110 (
#255000000
0!
#255500000
b1011 #
b110111110011101 %
1!
b1111 (
#256000000
0!
#256500000
b1100 #
b111001110111110 %
1!
