Lab3/Practice/mac.vcd
$comment Generated by Amaranth $end
$date 2023-03-29 10:36:36.677619 $end
$timescale 1 ps $end
$scope module bench $end
$scope module top $end
$var wire 1 ! clk $end
$var wire 1 " rst $end
$var wire 8 # out_d $end
$var wire 1 $ out_ovf $end
$var wire 1 % in_a_valid $end
$var wire 1 & in_b_valid $end
$var wire 4 ' in_b $end
$var wire 4 ( in_a $end
$var wire 1 ) in_rst $end
$upscope $end
$upscope $end
$enddefinitions $end
#0
$dumpvars
0!
0"
b0 #
0$
0%
0&
b0 '
b0 (
0)
$end
#500000
b1 (
1&
1%
1!
b1 '
#1000000
0!
#1500000
1!
0&
0%
b1 #
#2000000
0!
#2500000
1!
1)
#3000000
0!
#3500000
0)
b0 #
1&
1%
1!
b101 '
#4000000
0!
#4500000
1!
b1100 (
b111 '
b101 #
#5000000
0!
#5500000
1!
b1000 (
b1001 '
b11101001 #
#6000000
0!
#6500000
1!
b11 (
b100 '
b100001 #
#7000000
0!
#7500000
1!
b1 (
b101 '
b101101 #
#8000000
0!
#8500000
1!
b1000 (
b110010 #
#9000000
0!
#9500000
1!
b1001 (
b10 '
b1010 #
#10000000
0!
#10500000
1!
b0 (
b1 '
b11111100 #
#11000000
0!
#11500000
1!
1$
b10 '
b1000 (
#12000000
0!
#12500000
b11101100 #
b0 (
1!
0$
b1110 '
#13000000
0!
#13500000
1!
b1100 (
b1011 '
#14000000
0!
#14500000
1!
b1000 (
b1100 '
b0 #
#15000000
0!
#15500000
1!
b111 (
b11 '
b100000 #
#16000000
0!
#16500000
1!
b1110 (
b0 '
b110101 #
#17000000
0!
#17500000
1!
b11 (
b10 '
#18000000
0!
#18500000
1!
b110 (
b1001 '
b111011 #
#19000000
0!
#19500000
1)
b10001 #
b0 (
1!
b1111 '
#20000000
0!
#20500000
1!
0)
b1100 '
b0 #
#21000000
0!
#21500000
1!
b110 (
b1001 '
#22000000
0!
#22500000
1!
b1011 (
b1110 '
b11010110 #
#23000000
0!
#23500000
1!
b101 (
b1101 '
b11100000 #
#24000000
0!
#24500000
1!
b1011 '
b11010001 #
#25000000
0!
#25500000
1!
b1 (
b110 '
b10111000 #
#26000000
0!
#26500000
1!
b101 (
b100 '
b10111110 #
#27000000
0!
#27500000
1!
b1110 (
b110 '
b11010010 #
#28000000
0!
#28500000
1!
b110 (
b1 '
b11000110 #
#29000000
0!
#29500000
1!
b100 (
b1001 '
b11001100 #
#30000000
0!
#30500000
1!
b111 (
b1 '
b10110000 #
#31000000
0!
#31500000
1!
b1100 (
b11 '
b10110111 #
#32000000
0!
#32500000
1!
b1010 (
b101 '
b10101011 #
#33000000
0!
#33500000
1!
b101 (
b1110 '
b10001101 #
#34000000
0!
#34500000
1!
b1111 (
b110 '
b10000011 #
#35000000
0!
#35500000
1!
b0 (
b11 '
b1111101 #
#36000000
0!
#36500000
1!
1)
b1 (
b1111 '
#37000000
0!
#37500000
0)
b0 #
b100 (
1!
b10 '
#38000000
0!
#38500000
1!
b0 (
b1 '
b1000 #
#39000000
0!
#39500000
1!
1$
b1010 '
b111 (
#40000000
0!
#40500000
b11011110 #
b1000 (
1!
0$
b1110 '
#41000000
0!
#41500000
1!
b1111 (
b0 '
b11101110 #
#42000000
0!
#42500000
1!
b11 (
b1001 '
#43000000
0!
#43500000
1!
b110 (
b1111 '
b11011001 #
#44000000
0!
#44500000
1!
b11 (
b100 '
b11010011 #
#45000000
0!
#45500000
1!
b1001 (
b1100 '
b11011111 #
#46000000
0!
#46500000
1!
b10 (
b1000 '
b11111011 #
#47000000
0!
#47500000
1!
b0 (
b100 '
b11101011 #
#48000000
0!
#48500000
1!
1$
b1100 '
b1101 (
#49000000
0!
#49500000
b11110111 #
b1111 (
1!
0$
b0 '
#50000000
0!
#50500000
1!
b0 (
b1010 '
#51000000
0!
#51500000
1!
b100 (
b1110 '
#52000000
0!
#52500000
1!
b1010 (
b0 '
b11101111 #
#53000000
0!
#53500000
1!
1)
b10 (
b1111 '
#54000000
0!
#54500000
0)
b0 #
b111 (
1!
b101 '
#55000000
0!
#55500000
1!
b0 (
b111 '
b100011 #
#56000000
0!
#56500000
1!
1$
b1110 '
b101 (
#57000000
0!
#57500000
b11001 #
b1110 (
1!
0$
b1101 '
#58000000
0!
#58500000
1!
b10 (
b1110 '
b11111 #
#59000000
0!
#59500000
1!
b11 (
b1000 '
b11011 #
#60000000
0!
#60500000
1!
b100 (
b100 '
b11 #
#61000000
0!
#61500000
1!
b1000 (
b110 '
b10011 #
#62000000
0!
#62500000
1!
b1110 (
b1 '
b11100011 #
#63000000
0!
#63500000
1!
b1001 (
b111 '
b11100001 #
#64000000
0!
#64500000
1!
b100 (
b0 '
b10110000 #
#65000000
0!
#65500000
1!
b10 (
b101 '
#66000000
0!
#66500000
1!
b1 (
b11 '
b10111010 #
#67000000
0!
#67500000
1!
b1001 (
b1010 '
b10111101 #
#68000000
0!
#68500000
1!
b101 (
b0 '
b11100111 #
#69000000
0!
#69500000
1!
1$
b1 '
b1 (
#70000000
0!
#70500000
1)
b11101000 #
b11 (
1!
0$
b1111 '
#71000000
0!
#71500000
0)
b0 #
b1101 (
1!
b1000 '
#72000000
0!
#72500000
1!
b1010 (
b1111 '
b11000 #
#73000000
0!
#73500000
1!
b1011 (
b101 '
b11110 #
#74000000
0!
#74500000
1!
b1000 (
b1100 '
b101 #
#75000000
0!
#75500000
1!
b1010 (
b1000 '
b100101 #
#76000000
0!
#76500000
1!
b110 (
b1011 '
b1010101 #
#77000000
0!
#77500000
1!
b111 (
b110111 #
#78000000
0!
#78500000
1!
b1001 (
b1010 '
b10100 #
#79000000
0!
#79500000
1!
b1101 (
b1 '
b111110 #
#80000000
0!
#80500000
1!
b110 (
b1000 '
b111011 #
#81000000
0!
#81500000
1!
b10 (
b1001 '
b1011 #
#82000000
0!
#82500000
1!
b1000 (
b11111101 #
#83000000
0!
#83500000
1!
b1 (
b1000 '
b110101 #
#84000000
0!
#84500000
1!
b10 '
b101101 #
#85000000
0!
#85500000
1!
b100 (
b1010 '
b101111 #
#86000000
0!
#86500000
1!
b110 (
b1001 '
b10111 #
#87000000
0!
#87500000
1)
b11101101 #
b100 (
1!
b1111 '
#88000000
0!
#88500000
1!
b0 #
