Lab3/Practice/mac.vcd
$comment Generated by Amaranth $end
$date 2023-04-14 19:17:15.734686 $end
$timescale 1 ps $end
$scope module bench $end
$scope module top $end
$var wire 1 ! clk $end
$var wire 1 " rst $end
$var wire 8 # mult $end
$var wire 4 $ in_a $end
$var wire 4 % in_b $end
$var wire 8 & current_out $end
$var wire 1 ' current_out_ovf $end
$var wire 8 ( out_d $end
$var wire 1 ) out_d_valid $end
$var wire 1 * out_ovf $end
$var wire 1 + in_a_valid $end
$var wire 1 , in_b_valid $end
$var wire 1 - in_rst $end
$upscope $end
$upscope $end
$enddefinitions $end
#0
$dumpvars
0!
0"
b0 #
b0 $
b0 %
b0 &
0'
b0 (
0)
0*
0+
0,
0-
$end
#500000
1+
b1 &
1,
b1 %
1!
b1 #
b1 $
#1000000
0!
#1500000
b1 (
0+
b10 &
0,
1!
1)
#2000000
0!
#2500000
1-
1!
#3000000
0!
#3500000
0-
b101 &
b101 %
1!
b101 #
b0 (
1+
1,
0)
#4000000
0!
#4500000
b11101001 &
b111 %
1!
b11100100 #
1'
b1100 $
b101 (
1)
#5000000
0!
#5500000
b11101001 (
b100001 &
b1001 %
0'
1!
b111000 #
b1000 $
#6000000
0!
#6500000
b100001 (
b101101 &
b100 %
1!
b1100 #
b11 $
#7000000
0!
#7500000
b101101 (
b110010 &
b101 %
1!
b101 #
b1 $
#8000000
0!
#8500000
b110010 (
b1010 &
1!
b11011000 #
b1000 $
#9000000
0!
#9500000
b1010 (
b11111100 &
b10 %
1'
1!
b11110010 #
b1001 $
#10000000
0!
#10500000
b11111100 (
b1 %
1!
b0 #
b0 $
#11000000
0!
#11500000
b11101100 &
b10 %
1!
b11110000 #
b1000 $
#12000000
0!
#12500000
b11101100 (
b1110 %
1!
b0 #
b0 $
#13000000
0!
#13500000
b0 &
b1011 %
0'
1!
b10100 #
b1100 $
#14000000
0!
#14500000
b0 (
b100000 &
b1100 %
1!
b100000 #
b1000 $
#15000000
0!
#15500000
b100000 (
b110101 &
b11 %
1!
b10101 #
b111 $
#16000000
0!
#16500000
b110101 (
b0 %
1!
b0 #
b1110 $
#17000000
0!
#17500000
b111011 &
b10 %
1!
b110 #
b11 $
#18000000
0!
#18500000
b111011 (
b10001 &
b1001 %
1!
b11010110 #
b110 $
#19000000
0!
#19500000
1-
b1111 %
1!
b0 #
b0 $
b10001 (
#20000000
0!
#20500000
0-
b0 (
b0 &
b1100 %
1!
0)
#21000000
0!
#21500000
b11010110 &
b1001 %
1'
1!
b11010110 #
1)
b110 $
#22000000
0!
#22500000
b11010110 (
b11100000 &
b1110 %
1!
b1010 #
b1011 $
#23000000
0!
#23500000
b11100000 (
b11010001 &
b1101 %
1!
b11110001 #
b101 $
#24000000
0!
#24500000
b11010001 (
b10111000 &
b1011 %
1!
b11100111 #
#25000000
0!
#25500000
b10111000 (
b10111110 &
b110 %
1!
b110 #
b1 $
#26000000
0!
#26500000
b10111110 (
b11010010 &
b100 %
1!
b10100 #
b101 $
#27000000
0!
#27500000
b11010010 (
b11000110 &
b110 %
1!
b11110100 #
b1110 $
#28000000
0!
#28500000
b11000110 (
b11001100 &
b1 %
1!
b110 #
b110 $
#29000000
0!
#29500000
b11001100 (
b10110000 &
b1001 %
1!
b11100100 #
b100 $
#30000000
0!
#30500000
b10110000 (
b10110111 &
b1 %
1!
b111 #
b111 $
#31000000
0!
#31500000
b10110111 (
b10101011 &
b11 %
1!
b11110100 #
b1100 $
#32000000
0!
#32500000
b10101011 (
b10001101 &
b101 %
1!
b11100010 #
b1010 $
#33000000
0!
#33500000
b10001101 (
b10000011 &
b1110 %
1!
b11110110 #
b101 $
#34000000
0!
#34500000
b10000011 (
b1111101 &
b110 %
1!
b11111010 #
b1111 $
#35000000
0!
#35500000
b11 %
1*
0'
1!
b0 #
b0 $
b1111101 (
#36000000
0!
#36500000
1-
b1111100 &
b1111 %
1!
b11111111 #
b1 $
#37000000
0!
#37500000
0-
b1000 &
b10 %
0*
1!
b1000 #
b100 $
b0 (
0)
#38000000
0!
#38500000
b1000 (
b1 %
1!
b0 #
1)
b0 $
#39000000
0!
#39500000
b11011110 &
b1010 %
1'
1!
b11010110 #
b111 $
#40000000
0!
#40500000
b11011110 (
b11101110 &
b1110 %
1!
b10000 #
b1000 $
#41000000
0!
#41500000
b11101110 (
b0 %
1!
b0 #
b1111 $
#42000000
0!
#42500000
b11011001 &
b1001 %
1!
b11101011 #
b11 $
#43000000
0!
#43500000
b11011001 (
b11010011 &
b1111 %
1!
b11111010 #
b110 $
#44000000
0!
#44500000
b11010011 (
b11011111 &
b100 %
1!
b1100 #
b11 $
#45000000
0!
#45500000
b11011111 (
b11111011 &
b1100 %
1!
b11100 #
b1001 $
#46000000
0!
#46500000
b11101011 &
b1000 %
1!
b11110000 #
b10 $
b11111011 (
#47000000
0!
#47500000
b11101011 (
b100 %
1!
b0 #
b0 $
#48000000
0!
#48500000
b11110111 &
b1100 %
1!
b1100 #
b1101 $
#49000000
0!
#49500000
b0 %
1!
b0 #
b1111 $
b11110111 (
#50000000
0!
#50500000
1!
b0 $
b1010 %
#51000000
0!
#51500000
b11101111 &
b1110 %
1!
b11111000 #
b100 $
#52000000
0!
#52500000
b11101111 (
b0 %
1!
b0 #
b1010 $
#53000000
0!
#53500000
1-
b11101101 &
b1111 %
1!
b11111110 #
b10 $
#54000000
0!
#54500000
0-
b100011 &
b101 %
1!
b100011 #
0'
b111 $
b0 (
0)
#55000000
0!
#55500000
b100011 (
b111 %
1!
b0 #
1)
b0 $
#56000000
0!
#56500000
b11001 &
b1110 %
1!
b11110110 #
b101 $
#57000000
0!
#57500000
b11001 (
b11111 &
b1101 %
1!
b110 #
b1110 $
#58000000
0!
#58500000
b11111 (
b11011 &
b1110 %
1!
b11111100 #
b10 $
#59000000
0!
#59500000
b11011 (
b11 &
b1000 %
1!
b11101000 #
b11 $
#60000000
0!
#60500000
b10011 &
b100 %
1!
b10000 #
b100 $
b11 (
#61000000
0!
#61500000
b10011 (
b11100011 &
b110 %
1'
1!
b11010000 #
b1000 $
#62000000
0!
#62500000
b11100011 (
b11100001 &
b1 %
1!
b11111110 #
b1110 $
#63000000
0!
#63500000
b11100001 (
b10110000 &
b111 %
1!
b11001111 #
b1001 $
#64000000
0!
#64500000
b10110000 (
b0 %
1!
b0 #
b100 $
#65000000
0!
#65500000
b10111010 &
b101 %
1!
b1010 #
b10 $
#66000000
0!
#66500000
b10111010 (
b10111101 &
b11 %
1!
b11 #
b1 $
#67000000
0!
#67500000
b10111101 (
b11100111 &
b1010 %
1!
b101010 #
b1001 $
#68000000
0!
#68500000
b0 %
1!
b0 #
b101 $
b11100111 (
#69000000
0!
#69500000
b11101000 &
b1 %
1!
b1 #
b1 $
#70000000
0!
#70500000
1-
b11101000 (
b11100101 &
b1111 %
1!
b11111101 #
b11 $
#71000000
0!
#71500000
0-
b11000 &
b1000 %
1!
b11000 #
0'
b1101 $
b0 (
0)
#72000000
0!
#72500000
b11000 (
b11110 &
b1111 %
1!
b110 #
1)
b1010 $
#73000000
0!
#73500000
b11110 (
b101 &
b101 %
1!
b11100111 #
b1011 $
#74000000
0!
#74500000
b100101 &
b1100 %
1!
b100000 #
b1000 $
b101 (
#75000000
0!
#75500000
b100101 (
b1010101 &
b1000 %
1!
b110000 #
b1010 $
#76000000
0!
#76500000
b1010101 (
b110111 &
b1011 %
1!
b11100010 #
b110 $
#77000000
0!
#77500000
b110111 (
b10100 &
1!
b11011101 #
b111 $
#78000000
0!
#78500000
b111110 &
b1010 %
1!
b101010 #
b1001 $
b10100 (
#79000000
0!
#79500000
b111110 (
b111011 &
b1 %
1!
b11111101 #
b1101 $
#80000000
0!
#80500000
b111011 (
b1011 &
b1000 %
1!
b11010000 #
b110 $
#81000000
0!
#81500000
b1011 (
b11111101 &
b1001 %
1'
1!
b11110010 #
b10 $
#82000000
0!
#82500000
b11111101 (
b110101 &
0'
1!
b111000 #
b1000 $
#83000000
0!
#83500000
b110101 (
b101101 &
b1000 %
1!
b11111000 #
b1 $
#84000000
0!
#84500000
b101101 (
b101111 &
b10 %
1!
b10 #
#85000000
0!
#85500000
b101111 (
b10111 &
b1010 %
1!
b11101000 #
b100 $
#86000000
0!
#86500000
b10111 (
b11101101 &
b1001 %
1'
1!
b11010110 #
b110 $
#87000000
0!
#87500000
1-
b11101101 (
b11101001 &
b1111 %
1!
b11111100 #
b100 $
#88000000
0!
#88500000
b0 (
1!
b11111100 &
0)
